 ==============================================================================
 Hello, and welcome to S3D!
 ==============================================================================
 ==============================================================
 --------------------S3D BUILD CONFIGURATION-----------------
 Build directory:
  /nics/d/home/sequoia/sean_legion/legion_s3d/leg_h2 
 ------------------------------------------------------
  S3D Options: 
 Using mixture averaged transport: ON
 Using adaptive RK integration: OFF
 Using chemical mechanism: H2
 Using srcs for timescale analysis: OFF
 ------------------------------------------------------
  Defines:
 SYSTEMCALLWONTWORK
 SAVEFILEINSEPDIR
 ARCH_OPTERON
 BLOCKIO
 MIXAVG
 ------------------------------------------------------
  FORTRAN COMPILER FLAGS: 
  -convert big_endian -r8 -fpp -fp-model strict  
  C COMPILER FLAGS: 
   
 ------------------------------------------------------
  S3D Version: 
   
   
 ------------------------------------------------------
  Chemistry routine header: 
  c****************************************************************************
  c ... DO NOT EDIT.  AUTOMATICALLY GENERATED FILE.
  c****************************************************************************
  c ...
  c ... CKWYP-compatible GETRATES: return molar production rates for all
  c ... species given pressure (P), temperature (T), and mass fractions (Y).
  c ...
  c ... Generated by cgetrates 1.0b
  c ...
  c****************************************************************************
  
        subroutine getrates(P,T,Y,ICKWRK,RCKWRK,WSPL)
 ------------------------------------------------------
  Transport routine header: 
  !Standard version of tranlib.f. 18Feb 2009
  !  (Changes by Mark Fahey, ORNL)
  !  (Update by Evatt Hawkes, SNL)
        SUBROUTINE MCABS
 ------------------------------------------------------
 ==============================================================
 ------------------------------------------------------------------------------
 this run started at:
 
 date = 11/11/2013
 time = 10:19:59
 ------------------------------------------------------------------------------
 initializing chemkin module...
 
 opening chemkin link file...
 setting chemkin work array lengths...
 allocating chemkin work arrays...
 filling chemkin work arrays based on chemkin link file...

 CKLIB: CHEMKIN-III GAS-PHASE CHEMICAL KINETICS LIBRARY,
 DOUBLE PRECISION Vers. 5.36 2000/12/15      
 Copyright 1995, Sandia Corporation.
 The U.S. Government retains a limited license in this software.


 number of elements in reaction mechansim =    3
 number of species in reaction mechansim  =    9
 number of steps in reaction mechansims   =   21
 
 the following was extracted from the ../input/chem.asc file:
 
 element names are as follows:
 index   name
   1     H               
   2     O               
   3     N               
 
 species names are as follows:
 index   name
   1     H2              
   2     O2              
   3     O               
   4     OH              
   5     H2O             
   6     H               
   7     HO2             
   8     H2O2            
   9     N2              
 
 species molecular weights are as follows:
 index   name  value (kg/mol)
   1     H2                2.01594E-03
   2     O2                3.19988E-02
   3     O                 1.59994E-02
   4     OH                1.70074E-02
   5     H2O               1.80153E-02
   6     H                 1.00797E-03
   7     HO2               3.30068E-02
   8     H2O2              3.40147E-02
   9     N2                2.80134E-02
 
 ------------------------------------------------------------------------------
 initializing param module...
 
 number of elements in reaction mechansim =    3
 number of species in reaction mechansim  =    9
 number of steps in reaction mechansims   =   21
 
 number of reaction third-body reactions =    6
 ------------------------------------------------------------------------------
 initializing topology module...
 
 Initialized topology module, npx =     1 npy =     1 npz =     1 npes =     1
 ------------------------------------------------------------------------------
 initializing reference module...
 
 the various reference values are as follows:
 
   universal gas constant (J/mol-K)   =  8.31451E+00
   freestream temperature (K)         =  3.00000E+02
   reference ratio of specifice heats =  1.40000E+00
   reference speed of sound (m/s)     =  3.47200E+02
   reference density (kg/m^3)         =  1.17660E+00
   reference conductivity (W/m-K)     =  2.61400E-02
   reference temperature (K)          =  1.20000E+02
   reference pressure (Pa)            =  1.41837E+05
   standard atmospheric pressure (Pa) =  1.01325E+05
   reference time (s)                 =  1.29889E-05
   reference specific heat (J/kg-K)   =  1.00457E+03
   reference length (m)               =  4.50975E-03
   reference viscosity (Pa-s)         =  1.84230E+00
   acoustic Reynolds number           =  1.00000E+05
   Mach number                        =  1.00000E-03
   convective Reynolds number         =  1.00000E+02
 
 ------------------------------------------------------------------------------
 initializing ERK module...
 
 ERK module information is as follows:
 
   rk_method                =  -64
   cont_switch              =    0
   tstep_init (seconds)     =  5.00E-09
   tstep_min (seconds)      =  5.00E-09
   tstep_max (seconds)      =  1.00E-03
   rk_rtol                  =  1.00E-03
   rk_atol                  =  1.00E-15
   cont_safety              =  9.00E-01
   k_I                      =  2.00E-01
   k_P                      =  2.00E-01
   k_D                      =  5.00E-02
   k_D2                     =  0.00E+00
   cont_factor              =  3.00E+00
   cfl_switch               =    1
   i_time_cont              =   20
 
   cont_n_reg               =    1
   controller type          = NONE
 
   rk_tol                   =  1.00E-12
 
   using RK4(3)6[2R+]C ERK scheme!
 ------------------------------------------------------------------------------
 initializing transport module...
 
 opening mixavg.in ...
 Lagging is switched on
 WARNING - with coefficient lagging, theoretical
 temporal convergence order may not be observed
 
 opening transport link file...
 setting lengths of transport work arrays...
 allocating transport work arrays...
 creating transport work arrays from transport link file...

 TRANLIB:  CHEMKIN-III MULTICOMPONENT TRANSPORT LIBRARY,
 DOUBLE PRECISION Vers. 4.6 1999/06/03      
 Copyright 1995, Sandia Corporation.
 The U.S. Government retains a limited license in this software.


 ------------------------------------------------------------------------------
 initializing filter module...
 
 using explicit filter of order 10
 filter will be applied every    10 time steps
 ------------------------------------------------------------------------------
 initializing derivative module...
 
 ------------------------------------------------------------------------------
 initializing thermchem module...
 
   ***WARNING***
    Table T is lower than valid range for polynomial on species  1
    polynomial lower temperature limit:   300.0
    cp&h table lower temperature limit:   250.0
 
   ***WARNING***
    Table T is lower than valid range for polynomial on species  2
    polynomial lower temperature limit:   300.0
    cp&h table lower temperature limit:   250.0
 
   ***WARNING***
    Table T is lower than valid range for polynomial on species  3
    polynomial lower temperature limit:   300.0
    cp&h table lower temperature limit:   250.0
 
   ***WARNING***
    Table T is lower than valid range for polynomial on species  5
    polynomial lower temperature limit:   300.0
    cp&h table lower temperature limit:   250.0
 
   ***WARNING***
    Table T is lower than valid range for polynomial on species  6
    polynomial lower temperature limit:   300.0
    cp&h table lower temperature limit:   250.0
 
   ***WARNING***
    Table T is lower than valid range for polynomial on species  8
    polynomial lower temperature limit:   300.0
    cp&h table lower temperature limit:   250.0
 
   ***WARNING***
    Table T is lower than valid range for polynomial on species  9
    polynomial lower temperature limit:   300.0
    cp&h table lower temperature limit:   250.0
 
 ------------------------------------------------------------------------------
 initializing grid module...
 
 ------------------------------------------------------------------------------
 initializing boundary condition module...
 
 ------------------------------------------------------------------------------
 initializing variables...
 
 initializing bomb (stand back)
 
 Mixture fraction module successfully initialized...
 storing hard inflow conditions...
 
 continuing with initialization...
 
 maximum speed of sound =  643.39 m/s
 mimimum speed of sound =  613.92 m/s
 
 maximum acoustic time = 2.69E-05 sec
 minimum acoustic time = 2.82E-05 sec
 
 initialization completed for time =  0.00E+00
 ------------------------------------------------------------------------------
Legion Init:
Local Grid Size = ( 80,  80,  80)
Global Grid Size = ( 80,  80,  80)
Proc Grid Size = (  1,   1,   1)
Proc ID = (  0,   0,   0)
nvar_tot = 13, n_spec = 9, n_reg = 3, iorder = 8, iforder = 10
subranks set to 1 from environment
handshake 0x21d6b60 created on rank 0
Available cores:
  Node 0: 0 1 2 3 4 5 6 7
  Node 1: 8 9 10 11 12 13 14 15
Local Proc Assignments: 0
Leftover Processors   : 1 2 3 4 5 6 7 8 9 10 11 12 13 14 15
processor assignment for machine thread -1 ((nil)) = leftovers
processor assignment for AM polling thread -1 (0x7fffdaccc880) = leftovers
processor assignment for DMA worker -1 (0x7fffdaccc880) = leftovers
MPI thread waiting on Legion thread...
handshake 0x21d6b60: ext init - counts = L=0, E=0
ext sleeping...
HERE
processor assignment for utility worker -1 (0x2b524d346c60) = leftovers
processor assignment for local worker 0 (0x2b524d346cd0) = 0
There are 13 q fields and 195 temp fields
in top level task: kfs025 (21)
Total simulation volume: 512000
Attempting to connect 1 processors with 1 points per processor
connect task, pt = (0, 0, 0)
handshake 0x21d6b60: legion init - counts = L=0, E=1
signalling
ext awake...
completed initialization
connect_mpi finished
getting result for (0,0)
result for (0,0) = 1, 80000001, (0, 0, 0), 1
all mappers updated
temperature handed to legion - waiting for ack
update subrank bounds task, pt = (0, 0, 0)
args = 0x2b524d900920, 24
rank = 0x21d6a40
my proc = 80000001
init temp task, pt = (0, 0, 0)
Legion: waiting on mpi
Legion: done waiting on MPI
temp data is 0x2b50cccd5040
Legion: data copied - ack'ing MPI
my proc = 80000001
 Mixture fraction module successfully initialized...
 generating active.in file...
 
 ------------------------------------------------------------------------------
 writing save    files for: i_time =       0, time = 0.0000E+00 (sec)
 precision is d
 ------------------------------------------------------------------------------
IO Started at 19:59.738
IO Finished at 19:59.739
Per-thread IO =            57.3MB
Total IO =            57.3MB
Time taken =           0.001s
Total IO Rate =       57344.000MB/s
 ------------------------------------------------------------------------------
 ------------------------------------------------------------------------------
 rhsf fortran           0           0           0   2.32878112792969     
 rhsf legion           0           0           0   1.42297291755676     
 rhsf fortran           0           0           0   1.15908408164978     
 rhsf legion           0           0           0  0.604635953903198     
 rhsf fortran           0           0           0   1.16219091415405     
 rhsf legion           0           0           0  0.628155946731567     
 rhsf fortran           0           0           0   1.16592192649841     
 rhsf legion           0           0           0  0.622229814529419     
 rhsf fortran           0           0           0   1.16569304466248     
 rhsf legion           0           0           0  0.617180824279785     
 rhsf fortran           0           0           0   1.16561198234558     
 rhsf legion           0           0           0  0.614503860473633     
RHSF TOP Execution Time: 12877.906 ms
all done!
10:20:12        1  5.0000E-09  5.000E-09  0.000E+00   892.33   30.00
 writing save    files for: i_time =       1, time = 5.0000E-09 (sec)
 precision is d
 ------------------------------------------------------------------------------
IO Started at 20:12.740
IO Finished at 20:12.740
Per-thread IO =            57.3MB
Total IO =            57.3MB
Time taken =           0.000s
Total IO Rate =        InfinityMB/s
 ------------------------------------------------------------------------------
 ------------------------------------------------------------------------------
 ==============================================================================
 Timestepping began at: 
 date = 11/11/2013
 time = 10:19:59
 Timestepping ended at: 
 date = 11/11/2013
 time = 10:20:12
S3D Time taken:     13.0 s
S3D Cost :     25.4 microseconds per gridpoint per tiemstep
 ==============================================================================
 ------------------------------------------------------------------------------
 S3D started at:
 
 date = 11/11/2013
 time = 10:19:59
 
 S3D ended at:
 
 date = 11/11/2013
 time = 10:20:12
 ==============================================================================
 Program finished normally, goodbye!
 ==============================================================================
--------------------------------------------------------------------------
mpirun noticed that the job aborted, but has no info as to the process
that caused that situation.
--------------------------------------------------------------------------
