[kfs025:17170] MCW rank 7 bound to socket 1[core 3]: [. . . . . . . .][. . . B . . . .]
[kfs025:17170] MCW rank 8 bound to socket 0[core 4]: [. . . . B . . .][. . . . . . . .]
[kfs025:17170] MCW rank 9 bound to socket 1[core 4]: [. . . . . . . .][. . . . B . . .]
[kfs025:17170] MCW rank 10 bound to socket 0[core 5]: [. . . . . B . .][. . . . . . . .]
[kfs025:17170] MCW rank 11 bound to socket 1[core 5]: [. . . . . . . .][. . . . . B . .]
[kfs025:17170] MCW rank 12 bound to socket 0[core 6]: [. . . . . . B .][. . . . . . . .]
[kfs025:17170] MCW rank 13 bound to socket 1[core 6]: [. . . . . . . .][. . . . . . B .]
[kfs025:17170] MCW rank 14 bound to socket 0[core 7]: [. . . . . . . B][. . . . . . . .]
[kfs025:17170] MCW rank 15 bound to socket 1[core 7]: [. . . . . . . .][. . . . . . . B]
[kfs025:17170] MCW rank 0 bound to socket 0[core 0]: [B . . . . . . .][. . . . . . . .]
[kfs025:17170] MCW rank 1 bound to socket 1[core 0]: [. . . . . . . .][B . . . . . . .]
[kfs025:17170] MCW rank 2 bound to socket 0[core 1]: [. B . . . . . .][. . . . . . . .]
[kfs025:17170] MCW rank 3 bound to socket 1[core 1]: [. . . . . . . .][. B . . . . . .]
[kfs025:17170] MCW rank 4 bound to socket 0[core 2]: [. . B . . . . .][. . . . . . . .]
[kfs025:17170] MCW rank 5 bound to socket 1[core 2]: [. . . . . . . .][. . B . . . . .]
[kfs025:17170] MCW rank 6 bound to socket 0[core 3]: [. . . B . . . .][. . . . . . . .]
 ==============================================================================
 Hello, and welcome to S3D!
 ==============================================================================
 ==============================================================
 --------------------S3D BUILD CONFIGURATION-----------------
 Build directory:
  /nics/d/home/sequoia/sean_legion/legion_s3d/cpu_dme 
 ------------------------------------------------------
  S3D Options: 
 Using mixture averaged transport: ON
 Using adaptive RK integration: OFF
 Using chemical mechanism: CH3OCH3_30species
 Using srcs for timescale analysis: OFF
 ------------------------------------------------------
  Defines:
 SYSTEMCALLWONTWORK
 SAVEFILEINSEPDIR
 ARCH_OPTERON
 BLOCKIO
 MIXAVG
 ------------------------------------------------------
  FORTRAN COMPILER FLAGS: 
  -convert big_endian -r8 -fpp -fp-model strict  
  C COMPILER FLAGS: 
   
 ------------------------------------------------------
  S3D Version: 
   
   
 ------------------------------------------------------
  Chemistry routine header: 
  C----------------------------------------------------------------------C
  C     	
  C     26-step reduced mechanism for DME/air
  C     (Non-stiff version)
  C
  C     Developed by:
  C
  C       Tianfeng Lu & Zhaoyu Luo
  C       Department of Mechanical Engineering
  C       University of Connecticut
  C       191 Audotorium Road U-3139
  C       Storrs, CT 06269
  C
  C       Email: tlu@engr.uconn.edu
  C
  C     July 18, 2009
  C                                                                      C
  C----------------------------------------------------------------------C
  C                                                                      C
        SUBROUTINE GETRATES  (P, T, Y, DIFF, DT, ICKWRK, RCKWRK, WDOT)
 ------------------------------------------------------
  Transport routine header: 
  C     CVS $Revision: 1.3 $ created $Date: 2005/06/16 22:37:27 $
  C
        SUBROUTINE MCABS
 ------------------------------------------------------
 ==============================================================
 ------------------------------------------------------------------------------
 this run started at:
 
 date = 11/11/2013
 time = 12:23:26
 ------------------------------------------------------------------------------
 initializing chemkin module...
 
 opening chemkin link file...
 setting chemkin work array lengths...
 allocating chemkin work arrays...
 filling chemkin work arrays based on chemkin link file...

 CKLIB: CHEMKIN-III GAS-PHASE CHEMICAL KINETICS LIBRARY,
 DOUBLE PRECISION Vers. 5.36 2000/12/15      
 Copyright 1995, Sandia Corporation.
 The U.S. Government retains a limited license in this software.


 number of elements in reaction mechansim =    4
 number of species in reaction mechansim  =   30
 number of steps in reaction mechansims   =    0
 
 the following was extracted from the ../input/chem.asc file:
 
 element names are as follows:
 index   name
   1     C               
   2     H               
   3     O               
   4     N               
 
 species names are as follows:
 index   name
   1     H               
   2     H2              
   3     CH3             
   4     O               
   5     CH4             
   6     OH              
   7     H2O             
   8     C2H2            
   9     CO              
  10     C2H4            
  11     C2H5            
  12     CH2O            
  13     C2H6            
  14     CH3O            
  15     O2              
  16     HO2             
  17     H2O2            
  18     CO2             
  19     CH3HCO          
  20     HCOOH           
  21     CH3OCH3         
  22     CH3OCO          
  23     CH3OCHO         
  24     CH3OCH2OH       
  25     OCH2OCHO        
  26     HOCH2OCO        
  27     CH3OCH2O2       
  28     HO2CH2OCHO      
  29     O2CH2OCH2O2H    
  30     N2              
 
 species molecular weights are as follows:
 index   name  value (kg/mol)
   1     H                 1.00797E-03
   2     H2                2.01594E-03
   3     CH3               1.50351E-02
   4     O                 1.59994E-02
   5     CH4               1.60430E-02
   6     OH                1.70074E-02
   7     H2O               1.80153E-02
   8     C2H2              2.60382E-02
   9     CO                2.80106E-02
  10     C2H4              2.80542E-02
  11     C2H5              2.90622E-02
  12     CH2O              3.00265E-02
  13     C2H6              3.00701E-02
  14     CH3O              3.10345E-02
  15     O2                3.19988E-02
  16     HO2               3.30068E-02
  17     H2O2              3.40147E-02
  18     CO2               4.40100E-02
  19     CH3HCO            4.40536E-02
  20     HCOOH             4.60259E-02
  21     CH3OCH3           4.60695E-02
  22     CH3OCO            5.90450E-02
  23     CH3OCHO           6.00530E-02
  24     CH3OCH2OH         6.20689E-02
  25     OCH2OCHO          7.50444E-02
  26     HOCH2OCO          7.50444E-02
  27     CH3OCH2O2         7.70603E-02
  28     HO2CH2OCHO        9.20518E-02
  29     O2CH2OCH2O2H      1.09059E-01
  30     N2                2.80134E-02
 
 opening stiff.in ...
 Fastest chemical timescale is:   0.000000000000000E+000  (s)
 ------------------------------------------------------------------------------
 initializing param module...
 
 number of elements in reaction mechansim =    4
 number of species in reaction mechansim  =   30
 number of steps in reaction mechansims   =    0
 
 number of reaction third-body reactions =    0
 ------------------------------------------------------------------------------
 initializing topology module...
 
 Initialized topology module, npx =     4 npy =     2 npz =     2 npes =    16
 ------------------------------------------------------------------------------
 initializing reference module...
 
 the various reference values are as follows:
 
   universal gas constant (J/mol-K)   =  8.31451E+00
   freestream temperature (K)         =  3.00000E+02
   reference ratio of specifice heats =  1.40000E+00
   reference speed of sound (m/s)     =  3.47200E+02
   reference density (kg/m^3)         =  1.17660E+00
   reference conductivity (W/m-K)     =  2.61400E-02
   reference temperature (K)          =  1.20000E+02
   reference pressure (Pa)            =  1.41837E+05
   standard atmospheric pressure (Pa) =  1.01325E+05
   reference time (s)                 =  1.29889E-05
   reference specific heat (J/kg-K)   =  1.00457E+03
   reference length (m)               =  4.50975E-03
   reference viscosity (Pa-s)         =  1.84230E+00
   acoustic Reynolds number           =  1.00000E+05
   Mach number                        =  1.00000E-03
   convective Reynolds number         =  1.00000E+02
 
 ------------------------------------------------------------------------------
 initializing ERK module...
 
 ERK module information is as follows:
 
   rk_method                =  -64
   cont_switch              =    0
   tstep_init (seconds)     =  5.00E-09
   tstep_min (seconds)      =  5.00E-09
   tstep_max (seconds)      =  1.00E-03
   rk_rtol                  =  1.00E-03
   rk_atol                  =  1.00E-15
   cont_safety              =  9.00E-01
   k_I                      =  2.00E-01
   k_P                      =  2.00E-01
   k_D                      =  5.00E-02
   k_D2                     =  0.00E+00
   cont_factor              =  3.00E+00
   cfl_switch               =    1
   i_time_cont              =   20
 
   cont_n_reg               =    1
   controller type          = NONE
 
   rk_tol                   =  1.00E-12
 
   using RK4(3)6[2R+]C ERK scheme!
 ------------------------------------------------------------------------------
 initializing transport module...
 
 opening mixavg.in ...
 opening transport link file...
 setting lengths of transport work arrays...
 allocating transport work arrays...
 creating transport work arrays from transport link file...

 TRANLIB:  CHEMKIN-III MULTICOMPONENT TRANSPORT LIBRARY,
 DOUBLE PRECISION Vers. 4.6 1999/06/03      
 Copyright 1995, Sandia Corporation.
 The U.S. Government retains a limited license in this software.


 ------------------------------------------------------------------------------
 initializing filter module...
 
 using explicit filter of order 10
 filter will be applied every    10 time steps
 ------------------------------------------------------------------------------
 initializing derivative module...
 
 ------------------------------------------------------------------------------
 initializing thermchem module...
 
   ***WARNING***
    Table T is lower than valid range for polynomial on species  1
    polynomial lower temperature limit:   300.0
    cp&h table lower temperature limit:   250.0
 
   ***WARNING***
    Table T is lower than valid range for polynomial on species  2
    polynomial lower temperature limit:   300.0
    cp&h table lower temperature limit:   250.0
 
   ***WARNING***
    Table T is lower than valid range for polynomial on species  4
    polynomial lower temperature limit:   300.0
    cp&h table lower temperature limit:   250.0
 
   ***WARNING***
    Table T is lower than valid range for polynomial on species  5
    polynomial lower temperature limit:   300.0
    cp&h table lower temperature limit:   250.0
 
   ***WARNING***
    Table T is lower than valid range for polynomial on species  7
    polynomial lower temperature limit:   300.0
    cp&h table lower temperature limit:   250.0
 
   ***WARNING***
    Table T is lower than valid range for polynomial on species  9
    polynomial lower temperature limit:   300.0
    cp&h table lower temperature limit:   250.0
 
   ***WARNING***
    Table T is lower than valid range for polynomial on species 12
    polynomial lower temperature limit:   300.0
    cp&h table lower temperature limit:   250.0
 
   ***WARNING***
    Table T is lower than valid range for polynomial on species 13
    polynomial lower temperature limit:   300.0
    cp&h table lower temperature limit:   250.0
 
   ***WARNING***
    Table T is lower than valid range for polynomial on species 14
    polynomial lower temperature limit:   300.0
    cp&h table lower temperature limit:   250.0
 
   ***WARNING***
    Table T exceeds valid range for polynomials on species 14
    polynomial upper temperature limit:  3000.0
    cp&h table upper temperature limit:  3500.0
 
   ***WARNING***
    Table T is lower than valid range for polynomial on species 15
    polynomial lower temperature limit:   300.0
    cp&h table lower temperature limit:   250.0
 
   ***WARNING***
    Table T is lower than valid range for polynomial on species 17
    polynomial lower temperature limit:   300.0
    cp&h table lower temperature limit:   250.0
 
   ***WARNING***
    Table T is lower than valid range for polynomial on species 18
    polynomial lower temperature limit:   300.0
    cp&h table lower temperature limit:   250.0
 
   ***WARNING***
    Table T is lower than valid range for polynomial on species 20
    polynomial lower temperature limit:   300.0
    cp&h table lower temperature limit:   250.0
 
   ***WARNING***
    Table T is lower than valid range for polynomial on species 21
    polynomial lower temperature limit:   270.0
    cp&h table lower temperature limit:   250.0
 
   ***WARNING***
    Table T exceeds valid range for polynomials on species 21
    polynomial upper temperature limit:  3000.0
    cp&h table upper temperature limit:  3500.0
 
   ***WARNING***
    Table T is lower than valid range for polynomial on species 22
    polynomial lower temperature limit:   300.0
    cp&h table lower temperature limit:   250.0
 
   ***WARNING***
    Table T is lower than valid range for polynomial on species 23
    polynomial lower temperature limit:   300.0
    cp&h table lower temperature limit:   250.0
 
   ***WARNING***
    Table T is lower than valid range for polynomial on species 24
    polynomial lower temperature limit:   300.0
    cp&h table lower temperature limit:   250.0
 
   ***WARNING***
    Table T is lower than valid range for polynomial on species 25
    polynomial lower temperature limit:   300.0
    cp&h table lower temperature limit:   250.0
 
   ***WARNING***
    Table T is lower than valid range for polynomial on species 26
    polynomial lower temperature limit:   300.0
    cp&h table lower temperature limit:   250.0
 
   ***WARNING***
    Table T is lower than valid range for polynomial on species 27
    polynomial lower temperature limit:   300.0
    cp&h table lower temperature limit:   250.0
 
   ***WARNING***
    Table T is lower than valid range for polynomial on species 28
    polynomial lower temperature limit:   300.0
    cp&h table lower temperature limit:   250.0
 
   ***WARNING***
    Table T is lower than valid range for polynomial on species 29
    polynomial lower temperature limit:   300.0
    cp&h table lower temperature limit:   250.0
 
   ***WARNING***
    Table T is lower than valid range for polynomial on species 30
    polynomial lower temperature limit:   300.0
    cp&h table lower temperature limit:   250.0
 
 ------------------------------------------------------------------------------
 initializing grid module...
 
 ------------------------------------------------------------------------------
 initializing boundary condition module...
 
 ------------------------------------------------------------------------------
 initializing variables...
 
 initializing bomb (stand back)
 
 Mixture fraction module successfully initialized...
 storing hard inflow conditions...
 
 continuing with initialization...
 
 maximum speed of sound =  572.59 m/s
 mimimum speed of sound =  546.67 m/s
 
 maximum acoustic time = 3.02E-05 sec
 minimum acoustic time = 3.17E-05 sec
 
 initialization completed for time =  0.00E+00
 ------------------------------------------------------------------------------
 field initialized with i_temporalfeed=           0
 Mixture fraction module successfully initialized...
 generating active.in file...
 
 ------------------------------------------------------------------------------
 writing save    files for: i_time =       0, time = 0.0000E+00 (sec)
 precision is d
 ------------------------------------------------------------------------------
IO Started at 23:26.816
IO Finished at 23:26.816
Per-thread IO =            15.5MB
Total IO =           247.7MB
Time taken =           0.000s
Total IO Rate =        InfinityMB/s
 ------------------------------------------------------------------------------
 ------------------------------------------------------------------------------
 rhsf fortran           1           1           1   2.02023601531982     
 rhsf fortran           2           1           1   2.01958298683167     
 rhsf fortran           1           0           0   2.01981592178345     
 rhsf fortran           2           0           0   2.02107381820679     
 rhsf fortran           1           1           0   2.01924395561218     
 rhsf fortran           2           1           0   2.02138400077820     
 rhsf fortran           2           0           1   2.02216792106628     
 rhsf fortran           1           0           1   2.02155494689941     
 rhsf fortran           0           1           0   2.02574300765991     
 rhsf fortran           3           1           0   2.02507686614990     
 rhsf fortran           0           0           1   2.02671003341675     
 rhsf fortran           3           0           1   2.02474498748779     
 rhsf fortran           3           1           1   2.02502012252808     
 rhsf fortran           3           0           0   2.02637505531311     
 rhsf fortran           0           1           1   2.02726101875305     
 rhsf fortran           0           0           0   2.01982712745667     
 rhsf fortran           2           1           1   1.99048900604248     
 rhsf fortran           1           0           0   1.98821902275085     
 rhsf fortran           2           1           0   1.98927211761475     
 rhsf fortran           1           1           1   1.98928904533386     
 rhsf fortran           2           0           0   1.98900103569031     
 rhsf fortran           2           0           1   1.98903393745422     
 rhsf fortran           1           1           0   1.99021697044373     
 rhsf fortran           1           0           1   1.98970103263855     
 rhsf fortran           3           1           0   1.99174404144287     
 rhsf fortran           0           0           1   1.99142980575562     
 rhsf fortran           3           0           1   1.99222207069397     
 rhsf fortran           0           1           0   1.99201607704163     
 rhsf fortran           0           1           1   1.99210500717163     
 rhsf fortran           3           1           1   1.99396586418152     
 rhsf fortran           3           0           0   1.99354004859924     
 rhsf fortran           0           0           0   1.99494481086731     
 rhsf fortran           1           0           0   1.99509692192078     
 rhsf fortran           2           1           1   1.99568295478821     
 rhsf fortran           1           1           1   1.99541306495667     
 rhsf fortran           2           0           1   1.99557805061340     
 rhsf fortran           2           0           0   1.99467682838440     
 rhsf fortran           2           1           0   1.99539494514465     
 rhsf fortran           1           1           0   1.99624109268188     
 rhsf fortran           1           0           1   1.99598002433777     
 rhsf fortran           3           0           1   1.99570608139038     
 rhsf fortran           0           0           0   1.99321103096008     
 rhsf fortran           3           1           0   1.99740600585938     
 rhsf fortran           0           1           0   1.99666404724121     
 rhsf fortran           0           0           1   1.99655294418335     
 rhsf fortran           3           1           1   1.99729204177856     
 rhsf fortran           0           1           1   1.99722504615784     
 rhsf fortran           3           0           0   1.99870800971985     
 rhsf fortran           1           0           0   1.98832297325134     
 rhsf fortran           2           1           1   1.98756885528564     
 rhsf fortran           2           1           0   1.98795580863953     
 rhsf fortran           1           1           1   1.98822093009949     
 rhsf fortran           2           0           1   1.98772406578064     
 rhsf fortran           2           0           0   1.98730707168579     
 rhsf fortran           1           1           0   1.98738718032837     
 rhsf fortran           1           0           1   1.98851394653320     
 rhsf fortran           3           0           1   1.99009990692139     
 rhsf fortran           0           1           0   1.98995804786682     
 rhsf fortran           0           1           1   1.98991608619690     
 rhsf fortran           3           1           1   1.99002504348755     
 rhsf fortran           0           0           1   1.99084591865540     
 rhsf fortran           3           1           0   1.99026298522949     
 rhsf fortran           3           0           0   1.99037909507751     
 rhsf fortran           0           0           0   1.99326705932617     
 rhsf fortran           2           1           1   1.98793506622314     
 rhsf fortran           1           0           0   1.98617386817932     
 rhsf fortran           2           1           0   1.98797488212585     
 rhsf fortran           2           0           0   1.98728990554810     
 rhsf fortran           1           1           1   1.98641800880432     
 rhsf fortran           1           1           0   1.98667097091675     
 rhsf fortran           2           0           1   1.98820400238037     
 rhsf fortran           1           0           1   1.98659300804138     
 rhsf fortran           3           0           1   1.98806095123291     
 rhsf fortran           3           1           0   1.98785686492920     
 rhsf fortran           0           1           0   1.98885893821716     
 rhsf fortran           0           1           1   1.98943805694580     
 rhsf fortran           3           1           1   1.98985600471497     
 rhsf fortran           0           0           1   1.98937606811523     
 rhsf fortran           3           0           0   1.98943710327148     
 rhsf fortran           0           0           0   1.99156498908997     
 rhsf fortran           2           1           1   1.98870301246643     
 rhsf fortran           1           0           0   1.98762011528015     
 rhsf fortran           1           1           1   1.98735809326172     
 rhsf fortran           2           1           0   1.98849701881409     
 rhsf fortran           2           0           0   1.98832607269287     
 rhsf fortran           2           0           1   1.98810982704163     
 rhsf fortran           1           1           0   1.98730707168579     
 rhsf fortran           1           0           1   1.98766803741455     
 rhsf fortran           3           0           1   1.98849296569824     
 rhsf fortran           0           1           0   1.99015212059021     
 rhsf fortran           0           0           1   1.99009394645691     
 rhsf fortran           3           1           1   1.98870301246643     
 rhsf fortran           3           1           0   1.98983597755432     
 rhsf fortran           0           1           1   1.98721194267273     
 rhsf fortran           3           0           0   1.99010896682739     
 rhsf fortran           0           0           0   1.99001312255859     
12:23:39        1  5.0000E-09  5.000E-09  0.000E+00   892.36   30.00
 writing save    files for: i_time =       1, time = 5.0000E-09 (sec)
 precision is d
 ------------------------------------------------------------------------------
IO Started at 23:39.075
IO Finished at 23:39.075
Per-thread IO =            15.5MB
Total IO =           247.7MB
Time taken =           0.000s
Total IO Rate =        InfinityMB/s
 ------------------------------------------------------------------------------
 ------------------------------------------------------------------------------
 ==============================================================================
 Timestepping began at: 
 date = 11/11/2013
 time = 12:23:26
 Timestepping ended at: 
 date = 11/11/2013
 time = 12:23:39
S3D Time taken:     12.3 s
S3D Cost :    221.7 microseconds per gridpoint per tiemstep
 ==============================================================================
 ------------------------------------------------------------------------------
 S3D started at:
 
 date = 11/11/2013
 time = 12:23:26
 
 S3D ended at:
 
 date = 11/11/2013
 time = 12:23:39
 ==============================================================================
 Program finished normally, goodbye!
 ==============================================================================
