digraph {
  { r1x_1 [label="r1.x", shape="rectangle"]; }

  { r2x_1 [label="r2.x", shape="rectangle"]; }

  { child1 [shape="diamond"]; }

  { r2x_2 [label="r2.x", shape="rectangle"]; }

  { r1x_2 [label="r1.x", shape="rectangle"]; }

  { r4x_1 [label="r4.x", shape="rectangle"]; }

  { child2 [shape="diamond"]; }

  { r4x_2 [label="r4.x", shape="rectangle"]; }

  { r1x_3 [label="r1.x", style="bold", shape="rectangle"]; }

  r1x_1 -> r2x_1;

  r2x_1 -> r2x_2;
  r2x_1 -> child1 [style="invis"];
  child1 -> r2x_2 [tailport="s"];

  r1x_1 -> r1x_2;
  r2x_2 -> r1x_2;

  r1x_2 -> r4x_1;

  r4x_1 -> r4x_2;
  r4x_1 -> child2 [style="invis"];
  child2 -> r4x_2 [tailport="s"];

  r1x_2 -> r1x_3;
  r4x_2 -> r1x_3;
}