 ==============================================================================
 Hello, and welcome to S3D!
 ==============================================================================
 ==============================================================
 --------------------S3D BUILD CONFIGURATION-----------------
 Build directory:
  /nics/d/home/sequoia/sean_legion/legion_s3d/leg_dme 
 ------------------------------------------------------
  S3D Options: 
 Using mixture averaged transport: ON
 Using adaptive RK integration: OFF
 Using chemical mechanism: CH3OCH3_30species
 Using srcs for timescale analysis: OFF
 ------------------------------------------------------
  Defines:
 SYSTEMCALLWONTWORK
 SAVEFILEINSEPDIR
 ARCH_OPTERON
 BLOCKIO
 MIXAVG
 ------------------------------------------------------
  FORTRAN COMPILER FLAGS: 
  -convert big_endian -r8 -fpp -fp-model strict  
  C COMPILER FLAGS: 
   
 ------------------------------------------------------
  S3D Version: 
   
   
 ------------------------------------------------------
  Chemistry routine header: 
  C----------------------------------------------------------------------C
  C     	
  C     26-step reduced mechanism for DME/air
  C     (Non-stiff version)
  C
  C     Developed by:
  C
  C       Tianfeng Lu & Zhaoyu Luo
  C       Department of Mechanical Engineering
  C       University of Connecticut
  C       191 Audotorium Road U-3139
  C       Storrs, CT 06269
  C
  C       Email: tlu@engr.uconn.edu
  C
  C     July 18, 2009
  C                                                                      C
  C----------------------------------------------------------------------C
  C                                                                      C
        SUBROUTINE GETRATES  (P, T, Y, DIFF, DT, ICKWRK, RCKWRK, WDOT)
 ------------------------------------------------------
  Transport routine header: 
  C     CVS $Revision: 1.3 $ created $Date: 2005/06/16 22:37:27 $
  C
        SUBROUTINE MCABS
 ------------------------------------------------------
 ==============================================================
 ------------------------------------------------------------------------------
 this run started at:
 
 date = 11/11/2013
 time = 12:23:23
 ------------------------------------------------------------------------------
 initializing chemkin module...
 
 opening chemkin link file...
 setting chemkin work array lengths...
 allocating chemkin work arrays...
 filling chemkin work arrays based on chemkin link file...

 CKLIB: CHEMKIN-III GAS-PHASE CHEMICAL KINETICS LIBRARY,
 DOUBLE PRECISION Vers. 5.36 2000/12/15      
 Copyright 1995, Sandia Corporation.
 The U.S. Government retains a limited license in this software.


 number of elements in reaction mechansim =    4
 number of species in reaction mechansim  =   30
 number of steps in reaction mechansims   =    0
 
 the following was extracted from the ../input/chem.asc file:
 
 element names are as follows:
 index   name
   1     C               
   2     H               
   3     O               
   4     N               
 
 species names are as follows:
 index   name
   1     H               
   2     H2              
   3     CH3             
   4     O               
   5     CH4             
   6     OH              
   7     H2O             
   8     C2H2            
   9     CO              
  10     C2H4            
  11     C2H5            
  12     CH2O            
  13     C2H6            
  14     CH3O            
  15     O2              
  16     HO2             
  17     H2O2            
  18     CO2             
  19     CH3HCO          
  20     HCOOH           
  21     CH3OCH3         
  22     CH3OCO          
  23     CH3OCHO         
  24     CH3OCH2OH       
  25     OCH2OCHO        
  26     HOCH2OCO        
  27     CH3OCH2O2       
  28     HO2CH2OCHO      
  29     O2CH2OCH2O2H    
  30     N2              
 
 species molecular weights are as follows:
 index   name  value (kg/mol)
   1     H                 1.00797E-03
   2     H2                2.01594E-03
   3     CH3               1.50351E-02
   4     O                 1.59994E-02
   5     CH4               1.60430E-02
   6     OH                1.70074E-02
   7     H2O               1.80153E-02
   8     C2H2              2.60382E-02
   9     CO                2.80106E-02
  10     C2H4              2.80542E-02
  11     C2H5              2.90622E-02
  12     CH2O              3.00265E-02
  13     C2H6              3.00701E-02
  14     CH3O              3.10345E-02
  15     O2                3.19988E-02
  16     HO2               3.30068E-02
  17     H2O2              3.40147E-02
  18     CO2               4.40100E-02
  19     CH3HCO            4.40536E-02
  20     HCOOH             4.60259E-02
  21     CH3OCH3           4.60695E-02
  22     CH3OCO            5.90450E-02
  23     CH3OCHO           6.00530E-02
  24     CH3OCH2OH         6.20689E-02
  25     OCH2OCHO          7.50444E-02
  26     HOCH2OCO          7.50444E-02
  27     CH3OCH2O2         7.70603E-02
  28     HO2CH2OCHO        9.20518E-02
  29     O2CH2OCH2O2H      1.09059E-01
  30     N2                2.80134E-02
 
 opening stiff.in ...
 ------------------------------------------------------------------------------
 initializing param module...
 
 number of elements in reaction mechansim =    4
 number of species in reaction mechansim  =   30
 number of steps in reaction mechansims   =    0
 
 number of reaction third-body reactions =    0
 ------------------------------------------------------------------------------
 initializing topology module...
 
 Initialized topology module, npx =     1 npy =     1 npz =     1 npes =     1
 ------------------------------------------------------------------------------
 initializing reference module...
 
 the various reference values are as follows:
 
   universal gas constant (J/mol-K)   =  8.31451E+00
   freestream temperature (K)         =  3.00000E+02
   reference ratio of specifice heats =  1.40000E+00
   reference speed of sound (m/s)     =  3.47200E+02
   reference density (kg/m^3)         =  1.17660E+00
   reference conductivity (W/m-K)     =  2.61400E-02
   reference temperature (K)          =  1.20000E+02
   reference pressure (Pa)            =  1.41837E+05
   standard atmospheric pressure (Pa) =  1.01325E+05
   reference time (s)                 =  1.29889E-05
   reference specific heat (J/kg-K)   =  1.00457E+03
   reference length (m)               =  4.50975E-03
   reference viscosity (Pa-s)         =  1.84230E+00
   acoustic Reynolds number           =  1.00000E+05
   Mach number                        =  1.00000E-03
   convective Reynolds number         =  1.00000E+02
 
 ------------------------------------------------------------------------------
 initializing ERK module...
 
 ERK module information is as follows:
 
   rk_method                =  -64
   cont_switch              =    0
   tstep_init (seconds)     =  5.00E-09
   tstep_min (seconds)      =  5.00E-09
   tstep_max (seconds)      =  1.00E-03
   rk_rtol                  =  1.00E-03
   rk_atol                  =  1.00E-15
   cont_safety              =  9.00E-01
   k_I                      =  2.00E-01
   k_P                      =  2.00E-01
   k_D                      =  5.00E-02
   k_D2                     =  0.00E+00
   cont_factor              =  3.00E+00
   cfl_switch               =    1
   i_time_cont              =   20
 
   cont_n_reg               =    1
   controller type          = NONE
 
   rk_tol                   =  1.00E-12
 
   using RK4(3)6[2R+]C ERK scheme!
 ------------------------------------------------------------------------------
 initializing transport module...
 
 opening mixavg.in ...
 opening transport link file...
 setting lengths of transport work arrays...
 allocating transport work arrays...
 creating transport work arrays from transport link file...

 TRANLIB:  CHEMKIN-III MULTICOMPONENT TRANSPORT LIBRARY,
 DOUBLE PRECISION Vers. 4.6 1999/06/03      
 Copyright 1995, Sandia Corporation.
 The U.S. Government retains a limited license in this software.


 ------------------------------------------------------------------------------
 initializing filter module...
 
 using explicit filter of order 10
 filter will be applied every    10 time steps
 ------------------------------------------------------------------------------
 initializing derivative module...
 
 ------------------------------------------------------------------------------
 initializing thermchem module...
 
   ***WARNING***
    Table T is lower than valid range for polynomial on species  1
    polynomial lower temperature limit:   300.0
    cp&h table lower temperature limit:   250.0
 
   ***WARNING***
    Table T is lower than valid range for polynomial on species  2
    polynomial lower temperature limit:   300.0
    cp&h table lower temperature limit:   250.0
 
   ***WARNING***
    Table T is lower than valid range for polynomial on species  4
    polynomial lower temperature limit:   300.0
    cp&h table lower temperature limit:   250.0
 
   ***WARNING***
    Table T is lower than valid range for polynomial on species  5
    polynomial lower temperature limit:   300.0
    cp&h table lower temperature limit:   250.0
 
   ***WARNING***
    Table T is lower than valid range for polynomial on species  7
    polynomial lower temperature limit:   300.0
    cp&h table lower temperature limit:   250.0
 
   ***WARNING***
    Table T is lower than valid range for polynomial on species  9
    polynomial lower temperature limit:   300.0
    cp&h table lower temperature limit:   250.0
 
   ***WARNING***
    Table T is lower than valid range for polynomial on species 12
    polynomial lower temperature limit:   300.0
    cp&h table lower temperature limit:   250.0
 
   ***WARNING***
    Table T is lower than valid range for polynomial on species 13
    polynomial lower temperature limit:   300.0
    cp&h table lower temperature limit:   250.0
 
   ***WARNING***
    Table T is lower than valid range for polynomial on species 14
    polynomial lower temperature limit:   300.0
    cp&h table lower temperature limit:   250.0
 
   ***WARNING***
    Table T exceeds valid range for polynomials on species 14
    polynomial upper temperature limit:  3000.0
    cp&h table upper temperature limit:  3500.0
 
   ***WARNING***
    Table T is lower than valid range for polynomial on species 15
    polynomial lower temperature limit:   300.0
    cp&h table lower temperature limit:   250.0
 
   ***WARNING***
    Table T is lower than valid range for polynomial on species 17
    polynomial lower temperature limit:   300.0
    cp&h table lower temperature limit:   250.0
 
   ***WARNING***
    Table T is lower than valid range for polynomial on species 18
    polynomial lower temperature limit:   300.0
    cp&h table lower temperature limit:   250.0
 
   ***WARNING***
    Table T is lower than valid range for polynomial on species 20
    polynomial lower temperature limit:   300.0
    cp&h table lower temperature limit:   250.0
 
   ***WARNING***
    Table T is lower than valid range for polynomial on species 21
    polynomial lower temperature limit:   270.0
    cp&h table lower temperature limit:   250.0
 
   ***WARNING***
    Table T exceeds valid range for polynomials on species 21
    polynomial upper temperature limit:  3000.0
    cp&h table upper temperature limit:  3500.0
 
   ***WARNING***
    Table T is lower than valid range for polynomial on species 22
    polynomial lower temperature limit:   300.0
    cp&h table lower temperature limit:   250.0
 
   ***WARNING***
    Table T is lower than valid range for polynomial on species 23
    polynomial lower temperature limit:   300.0
    cp&h table lower temperature limit:   250.0
 
   ***WARNING***
    Table T is lower than valid range for polynomial on species 24
    polynomial lower temperature limit:   300.0
    cp&h table lower temperature limit:   250.0
 
   ***WARNING***
    Table T is lower than valid range for polynomial on species 25
    polynomial lower temperature limit:   300.0
    cp&h table lower temperature limit:   250.0
 
   ***WARNING***
    Table T is lower than valid range for polynomial on species 26
    polynomial lower temperature limit:   300.0
    cp&h table lower temperature limit:   250.0
 
   ***WARNING***
    Table T is lower than valid range for polynomial on species 27
    polynomial lower temperature limit:   300.0
    cp&h table lower temperature limit:   250.0
 
   ***WARNING***
    Table T is lower than valid range for polynomial on species 28
    polynomial lower temperature limit:   300.0
    cp&h table lower temperature limit:   250.0
 
   ***WARNING***
    Table T is lower than valid range for polynomial on species 29
    polynomial lower temperature limit:   300.0
    cp&h table lower temperature limit:   250.0
 
   ***WARNING***
    Table T is lower than valid range for polynomial on species 30
    polynomial lower temperature limit:   300.0
    cp&h table lower temperature limit:   250.0
 
 ------------------------------------------------------------------------------
 initializing grid module...
 
 ------------------------------------------------------------------------------
 initializing boundary condition module...
 
 ------------------------------------------------------------------------------
 initializing variables...
 
 initializing bomb (stand back)
 
 Mixture fraction module successfully initialized...
 storing hard inflow conditions...
 
 continuing with initialization...
 
 maximum speed of sound =  571.97 m/s
 mimimum speed of sound =  546.67 m/s
 
 maximum acoustic time = 3.03E-05 sec
 minimum acoustic time = 3.17E-05 sec
 
 initialization completed for time =  0.00E+00
 ------------------------------------------------------------------------------
Legion Init:
Local Grid Size = ( 16,  16,  16)
Global Grid Size = ( 16,  16,  16)
Proc Grid Size = (  1,   1,   1)
Proc ID = (  0,   0,   0)
nvar_tot = 34, n_spec = 30, n_reg = 3, iorder = 8, iforder = 10
subranks set to 1 from environment
handshake 0x1dbdc60 created on rank 0
Available cores:
  Node 0: 0 1 2 3 4 5 6 7
  Node 1: 8 9 10 11 12 13 14 15
Local Proc Assignments: 0
Leftover Processors   : 1 2 3 4 5 6 7 8 9 10 11 12 13 14 15
processor assignment for machine thread -1 ((nil)) = leftovers
processor assignment for AM polling thread -1 (0x7fff09d33900) = leftovers
processor assignment for DMA worker -1 (0x7fff09d33900) = leftovers
MPI thread waiting on Legion thread...
HERE
handshake 0x1dbdc60: ext init - counts = L=0, E=0
ext sleeping...
processor assignment for utility worker -1 (0x2b2b11f31c60) = leftovers
processor assignment for local worker 0 (0x2b2b11f31cd0) = 0
There are 34 q fields and 630 temp fields
in top level task: kfs260 (21)
Total simulation volume: 4096
Attempting to connect 1 processors with 1 points per processor
connect task, pt = (0, 0, 0)
handshake 0x1dbdc60: legion init - counts = L=0, E=1
signalling
ext awake...
completed initialization
connect_mpi finished
getting result for (0,0)
result for (0,0) = 1, 80000001, (0, 0, 0), 1
all mappers updated
update subrank bounds task, pt = (0, 0, 0)
args = 0x2b2b1241d4c0, 24
temperature handed to legion - waiting for ack
rank = 0x1dbdb40
my proc = 80000001
init temp task, pt = (0, 0, 0)
Legion: waiting on mpi
Legion: done waiting on MPI
temp data is 0x1db5ae0
Legion: data copied - ack'ing MPI
 Mixture fraction module successfully initialized...
 generating active.in file...
 
my proc = 80000001
 ------------------------------------------------------------------------------
 writing save    files for: i_time =       0, time = 0.0000E+00 (sec)
 precision is d
 ------------------------------------------------------------------------------
IO Started at 23:23.936
IO Finished at 23:23.936
Per-thread IO =             1.1MB
Total IO =             1.1MB
Time taken =           0.000s
Total IO Rate =        InfinityMB/s
 ------------------------------------------------------------------------------
 ------------------------------------------------------------------------------
 rhsf fortran           0           0           0  0.141841173171997     
 rhsf legion           0           0           0  0.390945911407471     
 rhsf fortran           0           0           0  0.130061864852905     
 rhsf legion           0           0           0  0.678620100021362     
 rhsf fortran           0           0           0  0.131318807601929     
 rhsf legion           0           0           0  0.578958034515381     
 rhsf fortran           0           0           0  0.129848003387451     
 rhsf legion           0           0           0  0.557984828948975     
 rhsf fortran           0           0           0  0.129595994949341     
 rhsf legion           0           0           0  0.627807855606079     
 rhsf fortran           0           0           0  0.129474878311157     
 rhsf legion           0           0           0  0.681092023849487     
RHSF TOP Execution Time: 4343.085 ms
all done!
12:23:28        1  5.0000E-09  5.000E-09  0.000E+00   890.28   30.00
 writing save    files for: i_time =       1, time = 5.0000E-09 (sec)
 precision is d
 ------------------------------------------------------------------------------
IO Started at 23:28.370
IO Finished at 23:28.374
Per-thread IO =             1.1MB
Total IO =             1.1MB
Time taken =           0.004s
Total IO Rate =         286.720MB/s
 ------------------------------------------------------------------------------
 ------------------------------------------------------------------------------
 ==============================================================================
 Timestepping began at: 
 date = 11/11/2013
 time = 12:23:23
 Timestepping ended at: 
 date = 11/11/2013
 time = 12:23:28
S3D Time taken:      4.4 s
S3D Cost :   1084.8 microseconds per gridpoint per tiemstep
 ==============================================================================
 ------------------------------------------------------------------------------
 S3D started at:
 
 date = 11/11/2013
 time = 12:23:23
 
 S3D ended at:
 
 date = 11/11/2013
 time = 12:23:28
 ==============================================================================
 Program finished normally, goodbye!
 ==============================================================================
--------------------------------------------------------------------------
mpirun noticed that the job aborted, but has no info as to the process
that caused that situation.
--------------------------------------------------------------------------
