Nodes,Regent,MPI,OpenMP
1,1637.648111,1381.015184,1322.370879
2,1630.157479,,
4,1635.83069,1383.159343,1310.410969
8,1636.773778,,
16,1630.076349,1384.733486,1308.911231
32,1623.665795,,
64,1632.581955,1383.22511,1271.482087
128,1629.252468,,
256,1623.603076,1382.764873,1199.313992
512,1625.880027,,
1024,1622.347924,1382.098371,1177.916134
