 ==============================================================================
 Hello, and welcome to S3D!
 ==============================================================================
 ==============================================================
 --------------------S3D BUILD CONFIGURATION-----------------
 Build directory:
  /nics/d/home/sequoia/sean_legion/legion_s3d/leg_hept 
 ------------------------------------------------------
  S3D Options: 
 Using mixture averaged transport: ON
 Using adaptive RK integration: OFF
 Using chemical mechanism: C7H16_52species
 Using srcs for timescale analysis: OFF
 ------------------------------------------------------
  Defines:
 SYSTEMCALLWONTWORK
 SAVEFILEINSEPDIR
 ARCH_OPTERON
 BLOCKIO
 MIXAVG
 ------------------------------------------------------
  FORTRAN COMPILER FLAGS: 
  -convert big_endian -r8 -fpp -fp-model strict  
  C COMPILER FLAGS: 
   
 ------------------------------------------------------
  S3D Version: 
   
   
 ------------------------------------------------------
  Chemistry routine header: 
  C                                                                      C
  C----------------------------------------------------------------------C
  C                                                                      C
        SUBROUTINE GETRATES  (P, T, Y, DIFF, DT, ICKWRK, RCKWRK, WDOT)
 ------------------------------------------------------
  Transport routine header: 
  C     CVS $Revision: 1.3 $ created $Date: 2005/06/16 22:37:27 $
  C
        SUBROUTINE MCABS
 ------------------------------------------------------
 ==============================================================
 ------------------------------------------------------------------------------
 this run started at:
 
 date = 11/12/2013
 time = 17:44:53
 ------------------------------------------------------------------------------
 initializing chemkin module...
 
 opening chemkin link file...
 setting chemkin work array lengths...
 allocating chemkin work arrays...
 filling chemkin work arrays based on chemkin link file...

 CKLIB: CHEMKIN-III GAS-PHASE CHEMICAL KINETICS LIBRARY,
 DOUBLE PRECISION Vers. 5.36 2000/12/15      
 Copyright 1995, Sandia Corporation.
 The U.S. Government retains a limited license in this software.


 number of elements in reaction mechansim =    4
 number of species in reaction mechansim  =   52
 number of steps in reaction mechansims   =   48
 
 the following was extracted from the ../input/chem.asc file:
 
 element names are as follows:
 index   name
   1     h               
   2     c               
   3     o               
   4     n               
 
 species names are as follows:
 index   name
   1     h               
   2     h2              
   3     o               
   4     o2              
   5     oh              
   6     h2o             
   7     co              
   8     co2             
   9     ch3             
  10     ch4             
  11     ho2             
  12     h2o2            
  13     ch2o            
  14     c2h6            
  15     c2h4            
  16     c2h5            
  17     c2h             
  18     c2h2            
  19     ch3oh           
  20     ch2co           
  21     hcco            
  22     ch3cho          
  23     c3h4-a          
  24     c3h4-p          
  25     c3h6            
  26     c4h6            
  27     c4h7            
  28     c4h8-1          
  29     pc4h9           
  30     ch3coch2        
  31     c2h5cho         
  32     c5h9            
  33     c5h10-1         
  34     c5h11-1         
  35     ch3o2           
  36     ch3o2h          
  37     c2h3co          
  38     c2h3cho         
  39     c3h5-a          
  40     c3h3            
  41     nc3h7cho        
  42     c2h5coch2       
  43     ch3chco         
  44     nc3h7coch3      
  45     nc3h7coch2      
  46     nc7h16          
  47     c7h15-1         
  48     c7h15o2         
  49     c7h14ooho2      
  50     c7h14o          
  51     nc7ket          
  52     n2              
 
 species molecular weights are as follows:
 index   name  value (kg/mol)
   1     h                 1.00797E-03
   2     h2                2.01594E-03
   3     o                 1.59994E-02
   4     o2                3.19988E-02
   5     oh                1.70074E-02
   6     h2o               1.80153E-02
   7     co                2.80106E-02
   8     co2               4.40100E-02
   9     ch3               1.50351E-02
  10     ch4               1.60430E-02
  11     ho2               3.30068E-02
  12     h2o2              3.40147E-02
  13     ch2o              3.00265E-02
  14     c2h6              3.00701E-02
  15     c2h4              2.80542E-02
  16     c2h5              2.90622E-02
  17     c2h               2.50303E-02
  18     c2h2              2.60382E-02
  19     ch3oh             3.20424E-02
  20     ch2co             4.20376E-02
  21     hcco              4.10297E-02
  22     ch3cho            4.40536E-02
  23     c3h4-a            4.00653E-02
  24     c3h4-p            4.00653E-02
  25     c3h6              4.20813E-02
  26     c4h6              5.40924E-02
  27     c4h7              5.51004E-02
  28     c4h8-1            5.61084E-02
  29     pc4h9             5.71163E-02
  30     ch3coch2          5.70727E-02
  31     c2h5cho           5.80807E-02
  32     c5h9              6.91275E-02
  33     c5h10-1           7.01355E-02
  34     c5h11-1           7.11434E-02
  35     ch3o2             4.70339E-02
  36     ch3o2h            4.80418E-02
  37     c2h3co            5.50568E-02
  38     c2h3cho           5.60647E-02
  39     c3h5-a            4.10733E-02
  40     c3h3              3.90574E-02
  41     nc3h7cho          7.21078E-02
  42     c2h5coch2         7.10998E-02
  43     ch3chco           5.60647E-02
  44     nc3h7coch3        8.61348E-02
  45     nc3h7coch2        8.51269E-02
  46     nc7h16            1.00206E-01
  47     c7h15-1           9.91976E-02
  48     c7h15o2           1.31196E-01
  49     c7h14ooho2        1.63195E-01
  50     c7h14o            1.14189E-01
  51     nc7ket            1.46188E-01
  52     n2                2.80134E-02
 
 opening stiff.in ...
 ------------------------------------------------------------------------------
 initializing param module...
 
 number of elements in reaction mechansim =    4
 number of species in reaction mechansim  =   52
 number of steps in reaction mechansims   =   48
 
 number of reaction third-body reactions =    0
 ------------------------------------------------------------------------------
 initializing topology module...
 
 Initialized topology module, npx =     1 npy =     1 npz =     1 npes =     1
 ------------------------------------------------------------------------------
 initializing reference module...
 
 the various reference values are as follows:
 
   universal gas constant (J/mol-K)   =  8.31451E+00
   freestream temperature (K)         =  3.00000E+02
   reference ratio of specifice heats =  1.40000E+00
   reference speed of sound (m/s)     =  3.47200E+02
   reference density (kg/m^3)         =  1.17660E+00
   reference conductivity (W/m-K)     =  2.61400E-02
   reference temperature (K)          =  1.20000E+02
   reference pressure (Pa)            =  1.41837E+05
   standard atmospheric pressure (Pa) =  1.01325E+05
   reference time (s)                 =  1.29889E-05
   reference specific heat (J/kg-K)   =  1.00457E+03
   reference length (m)               =  4.50975E-03
   reference viscosity (Pa-s)         =  1.84230E+00
   acoustic Reynolds number           =  1.00000E+05
   Mach number                        =  1.00000E-03
   convective Reynolds number         =  1.00000E+02
 
 ------------------------------------------------------------------------------
 initializing ERK module...
 
 ERK module information is as follows:
 
   rk_method                =  -64
   cont_switch              =    0
   tstep_init (seconds)     =  5.00E-09
   tstep_min (seconds)      =  5.00E-09
   tstep_max (seconds)      =  1.00E-03
   rk_rtol                  =  1.00E-03
   rk_atol                  =  1.00E-15
   cont_safety              =  9.00E-01
   k_I                      =  2.00E-01
   k_P                      =  2.00E-01
   k_D                      =  5.00E-02
   k_D2                     =  0.00E+00
   cont_factor              =  3.00E+00
   cfl_switch               =    1
   i_time_cont              =   20
 
   cont_n_reg               =    1
   controller type          = NONE
 
   rk_tol                   =  1.00E-12
 
   using RK4(3)6[2R+]C ERK scheme!
 ------------------------------------------------------------------------------
 initializing transport module...
 
 opening mixavg.in ...
 Lagging is switched on
 WARNING - with coefficient lagging, theoretical
 temporal convergence order may not be observed
 
 opening transport link file...
 setting lengths of transport work arrays...
 allocating transport work arrays...
 creating transport work arrays from transport link file...

 TRANLIB:  CHEMKIN-III MULTICOMPONENT TRANSPORT LIBRARY,
 DOUBLE PRECISION Vers. 4.6 1999/06/03      
 Copyright 1995, Sandia Corporation.
 The U.S. Government retains a limited license in this software.


 ------------------------------------------------------------------------------
 initializing filter module...
 
 using explicit filter of order 10
 filter will be applied every    10 time steps
 ------------------------------------------------------------------------------
 initializing derivative module...
 
 ------------------------------------------------------------------------------
 initializing thermchem module...
 
   ***WARNING***
    Table T is lower than valid range for polynomial on species  1
    polynomial lower temperature limit:   300.0
    cp&h table lower temperature limit:   250.0
 
   ***WARNING***
    Table T is lower than valid range for polynomial on species  2
    polynomial lower temperature limit:   300.0
    cp&h table lower temperature limit:   250.0
 
   ***WARNING***
    Table T is lower than valid range for polynomial on species  3
    polynomial lower temperature limit:   300.0
    cp&h table lower temperature limit:   250.0
 
   ***WARNING***
    Table T is lower than valid range for polynomial on species  4
    polynomial lower temperature limit:   300.0
    cp&h table lower temperature limit:   250.0
 
   ***WARNING***
    Table T is lower than valid range for polynomial on species  5
    polynomial lower temperature limit:   300.0
    cp&h table lower temperature limit:   250.0
 
   ***WARNING***
    Table T is lower than valid range for polynomial on species  6
    polynomial lower temperature limit:   300.0
    cp&h table lower temperature limit:   250.0
 
   ***WARNING***
    Table T is lower than valid range for polynomial on species  7
    polynomial lower temperature limit:   300.0
    cp&h table lower temperature limit:   250.0
 
   ***WARNING***
    Table T is lower than valid range for polynomial on species  8
    polynomial lower temperature limit:   300.0
    cp&h table lower temperature limit:   250.0
 
   ***WARNING***
    Table T is lower than valid range for polynomial on species  9
    polynomial lower temperature limit:   300.0
    cp&h table lower temperature limit:   250.0
 
   ***WARNING***
    Table T is lower than valid range for polynomial on species 10
    polynomial lower temperature limit:   300.0
    cp&h table lower temperature limit:   250.0
 
   ***WARNING***
    Table T is lower than valid range for polynomial on species 11
    polynomial lower temperature limit:   300.0
    cp&h table lower temperature limit:   250.0
 
   ***WARNING***
    Table T is lower than valid range for polynomial on species 12
    polynomial lower temperature limit:   300.0
    cp&h table lower temperature limit:   250.0
 
   ***WARNING***
    Table T is lower than valid range for polynomial on species 13
    polynomial lower temperature limit:   300.0
    cp&h table lower temperature limit:   250.0
 
   ***WARNING***
    Table T is lower than valid range for polynomial on species 14
    polynomial lower temperature limit:   300.0
    cp&h table lower temperature limit:   250.0
 
   ***WARNING***
    Table T is lower than valid range for polynomial on species 15
    polynomial lower temperature limit:   300.0
    cp&h table lower temperature limit:   250.0
 
   ***WARNING***
    Table T is lower than valid range for polynomial on species 16
    polynomial lower temperature limit:   300.0
    cp&h table lower temperature limit:   250.0
 
   ***WARNING***
    Table T is lower than valid range for polynomial on species 17
    polynomial lower temperature limit:   300.0
    cp&h table lower temperature limit:   250.0
 
   ***WARNING***
    Table T is lower than valid range for polynomial on species 18
    polynomial lower temperature limit:   300.0
    cp&h table lower temperature limit:   250.0
 
   ***WARNING***
    Table T is lower than valid range for polynomial on species 19
    polynomial lower temperature limit:   300.0
    cp&h table lower temperature limit:   250.0
 
   ***WARNING***
    Table T is lower than valid range for polynomial on species 20
    polynomial lower temperature limit:   300.0
    cp&h table lower temperature limit:   250.0
 
   ***WARNING***
    Table T is lower than valid range for polynomial on species 21
    polynomial lower temperature limit:   300.0
    cp&h table lower temperature limit:   250.0
 
   ***WARNING***
    Table T is lower than valid range for polynomial on species 22
    polynomial lower temperature limit:   300.0
    cp&h table lower temperature limit:   250.0
 
   ***WARNING***
    Table T is lower than valid range for polynomial on species 23
    polynomial lower temperature limit:   300.0
    cp&h table lower temperature limit:   250.0
 
   ***WARNING***
    Table T is lower than valid range for polynomial on species 24
    polynomial lower temperature limit:   300.0
    cp&h table lower temperature limit:   250.0
 
   ***WARNING***
    Table T is lower than valid range for polynomial on species 25
    polynomial lower temperature limit:   300.0
    cp&h table lower temperature limit:   250.0
 
   ***WARNING***
    Table T is lower than valid range for polynomial on species 26
    polynomial lower temperature limit:   300.0
    cp&h table lower temperature limit:   250.0
 
   ***WARNING***
    Table T is lower than valid range for polynomial on species 27
    polynomial lower temperature limit:   300.0
    cp&h table lower temperature limit:   250.0
 
   ***WARNING***
    Table T is lower than valid range for polynomial on species 28
    polynomial lower temperature limit:   300.0
    cp&h table lower temperature limit:   250.0
 
   ***WARNING***
    Table T is lower than valid range for polynomial on species 29
    polynomial lower temperature limit:   300.0
    cp&h table lower temperature limit:   250.0
 
   ***WARNING***
    Table T is lower than valid range for polynomial on species 30
    polynomial lower temperature limit:   300.0
    cp&h table lower temperature limit:   250.0
 
   ***WARNING***
    Table T is lower than valid range for polynomial on species 31
    polynomial lower temperature limit:   300.0
    cp&h table lower temperature limit:   250.0
 
   ***WARNING***
    Table T is lower than valid range for polynomial on species 32
    polynomial lower temperature limit:   300.0
    cp&h table lower temperature limit:   250.0
 
   ***WARNING***
    Table T is lower than valid range for polynomial on species 33
    polynomial lower temperature limit:   300.0
    cp&h table lower temperature limit:   250.0
 
   ***WARNING***
    Table T is lower than valid range for polynomial on species 34
    polynomial lower temperature limit:   300.0
    cp&h table lower temperature limit:   250.0
 
   ***WARNING***
    Table T is lower than valid range for polynomial on species 35
    polynomial lower temperature limit:   300.0
    cp&h table lower temperature limit:   250.0
 
   ***WARNING***
    Table T is lower than valid range for polynomial on species 36
    polynomial lower temperature limit:   300.0
    cp&h table lower temperature limit:   250.0
 
   ***WARNING***
    Table T is lower than valid range for polynomial on species 37
    polynomial lower temperature limit:   300.0
    cp&h table lower temperature limit:   250.0
 
   ***WARNING***
    Table T is lower than valid range for polynomial on species 38
    polynomial lower temperature limit:   300.0
    cp&h table lower temperature limit:   250.0
 
   ***WARNING***
    Table T is lower than valid range for polynomial on species 39
    polynomial lower temperature limit:   300.0
    cp&h table lower temperature limit:   250.0
 
   ***WARNING***
    Table T is lower than valid range for polynomial on species 40
    polynomial lower temperature limit:   300.0
    cp&h table lower temperature limit:   250.0
 
   ***WARNING***
    Table T is lower than valid range for polynomial on species 41
    polynomial lower temperature limit:   300.0
    cp&h table lower temperature limit:   250.0
 
   ***WARNING***
    Table T is lower than valid range for polynomial on species 42
    polynomial lower temperature limit:   300.0
    cp&h table lower temperature limit:   250.0
 
   ***WARNING***
    Table T is lower than valid range for polynomial on species 43
    polynomial lower temperature limit:   300.0
    cp&h table lower temperature limit:   250.0
 
   ***WARNING***
    Table T is lower than valid range for polynomial on species 44
    polynomial lower temperature limit:   300.0
    cp&h table lower temperature limit:   250.0
 
   ***WARNING***
    Table T is lower than valid range for polynomial on species 45
    polynomial lower temperature limit:   300.0
    cp&h table lower temperature limit:   250.0
 
   ***WARNING***
    Table T is lower than valid range for polynomial on species 46
    polynomial lower temperature limit:   300.0
    cp&h table lower temperature limit:   250.0
 
   ***WARNING***
    Table T is lower than valid range for polynomial on species 47
    polynomial lower temperature limit:   300.0
    cp&h table lower temperature limit:   250.0
 
   ***WARNING***
    Table T is lower than valid range for polynomial on species 48
    polynomial lower temperature limit:   300.0
    cp&h table lower temperature limit:   250.0
 
   ***WARNING***
    Table T is lower than valid range for polynomial on species 49
    polynomial lower temperature limit:   300.0
    cp&h table lower temperature limit:   250.0
 
   ***WARNING***
    Table T is lower than valid range for polynomial on species 50
    polynomial lower temperature limit:   300.0
    cp&h table lower temperature limit:   250.0
 
   ***WARNING***
    Table T is lower than valid range for polynomial on species 51
    polynomial lower temperature limit:   300.0
    cp&h table lower temperature limit:   250.0
 
   ***WARNING***
    Table T is lower than valid range for polynomial on species 52
    polynomial lower temperature limit:   300.0
    cp&h table lower temperature limit:   250.0
 
 ------------------------------------------------------------------------------
 initializing grid module...
 
 ------------------------------------------------------------------------------
 initializing boundary condition module...
 
 ------------------------------------------------------------------------------
 initializing variables...
 
 initializing bomb (stand back)
 
 Mixture fraction module successfully initialized...
 storing hard inflow conditions...
 
 continuing with initialization...
 
 maximum speed of sound =  572.42 m/s
 mimimum speed of sound =  546.43 m/s
 
 maximum acoustic time = 3.03E-05 sec
 minimum acoustic time = 3.17E-05 sec
 
 initialization completed for time =  0.00E+00
 ------------------------------------------------------------------------------
Legion Init:
Local Grid Size = ( 96,  96,  96)
Global Grid Size = ( 96,  96,  96)
Proc Grid Size = (  1,   1,   1)
Proc ID = (  0,   0,   0)
nvar_tot = 56, n_spec = 52, n_reg = 3, iorder = 8, iforder = 10
subranks set to 12 from environment
handshake 0x2c953c0 created on rank 0
Available cores:
  Node 0: 0 1 2 3 4 5 6 7
  Node 1: 8 9 10 11 12 13 14 15
Local Proc Assignments: 0 8
Leftover Processors   : 1 2 3 4 5 6 7 9 10 11 12 13 14 15
processor assignment for machine thread -1 ((nil)) = leftovers
processor assignment for AM polling thread -1 (0x7fff2437e300) = leftovers
processor assignment for DMA worker -1 (0x7fff2437e300) = leftovers
processor assignment for DMA worker -1 (0x7fff2437e300) = leftovers
processor assignment for DMA worker -1 (0x7fff2437e300) = leftovers
processor assignment for DMA worker -1 (0x7fff2437e300) = leftovers
processor assignment for GPU worker -1 (0x7fff2437e2a0) = leftovers
processor assignment for GPU worker -1 (0x7fff2437e2a0) = leftovers
processor assignment for GPU worker -1 (0x7fff2437e2a0) = leftovers
MPI thread waiting on Legion thread...
handshake 0x2c953c0: ext init - counts = L=0, E=0
ext sleeping...
HERE
processor assignment for utility worker -1 (0x2b041d955c60) = leftovers
processor assignment for local worker 0 (0x2b041d955cd0) = 0
processor assignment for local worker 1 (0x2b041d955cd0) = 8
There are 56 q fields and 1048 temp fields
in top level task: kfs116 (27)
Total simulation volume: 884736
Attempting to connect 2 processors with 1 points per processor
connect task, pt = (0, 0, 0)
handshake 0x2c953c0: legion init - counts = L=0, E=1
signalling
ext awake...
completed initialization
connect task, pt = (0, 0, 0)
handshake 0x2c953c0: legion init - counts = L=1, E=1
connect_mpi finished
getting result for (0,0)
result for (0,0) = 1, 80000001, (0, 0, 0), 12
getting result for (1,0)
result for (1,0) = 1, 80000002, (0, 0, 0), 12
all mappers updated
update subrank bounds task, pt = (0, 0, 0)
args = 0x2b041e005220, 288
temperature handed to legion - waiting for ack
rank = 0x2c952a0
my proc = 80000001
init temp task, pt = (0, 0, 0)
Legion: waiting on mpi
Legion: done waiting on MPI
temp data is 0x2b0098bfc040
Legion: data copied - ack'ing MPI
my proc = 80000001
 Mixture fraction module successfully initialized...
 generating active.in file...
 
 ------------------------------------------------------------------------------
 writing save    files for: i_time =       0, time = 0.0000E+00 (sec)
 precision is d
 ------------------------------------------------------------------------------
IO Started at 45:03.440
IO Finished at 45:03.441
Per-thread IO =           403.4MB
Total IO =           403.4MB
Time taken =           0.001s
Total IO Rate =      403439.616MB/s
 ------------------------------------------------------------------------------
 ------------------------------------------------------------------------------
 rhsf fortran           0           0           0   64.8198909759521     
 rhsf legion           0           0           0   1.95840215682983     
 rhsf fortran           0           0           0   21.6740100383759     
 rhsf legion           0           0           0   1.89294981956482     
 rhsf fortran           0           0           0   21.6748750209808     
 rhsf legion           0           0           0   1.85338521003723     
 rhsf fortran           0           0           0   21.6774368286133     
 rhsf legion           0           0           0   1.85164904594421     
 rhsf fortran           0           0           0   21.6620221138000     
 rhsf legion           0           0           0   1.90192294120789     
 rhsf fortran           0           0           0   21.6708078384399     
 rhsf legion           0           0           0   1.95178008079529     
RHSF TOP Execution Time: 186265.317 ms
all done!
THERE
17:48:10        1  5.0000E-09  5.000E-09  0.000E+00   892.36   30.00
 writing save    files for: i_time =       1, time = 5.0000E-09 (sec)
 precision is d
 ------------------------------------------------------------------------------
IO Started at 48:10.908
IO Finished at 48:10.908
Per-thread IO =           403.4MB
Total IO =           403.4MB
Time taken =           0.000s
Total IO Rate =        InfinityMB/s
 ------------------------------------------------------------------------------
 ------------------------------------------------------------------------------
 ==============================================================================
 Timestepping began at: 
 date = 11/12/2013
 time = 17:45:03
 Timestepping ended at: 
 date = 11/12/2013
 time = 17:48:10
S3D Time taken:    187.5 s
S3D Cost :    211.9 microseconds per gridpoint per tiemstep
 ==============================================================================
 ------------------------------------------------------------------------------
 S3D started at:
 
 date = 11/12/2013
 time = 17:44:53
 
 S3D ended at:
 
 date = 11/12/2013
 time = 17:48:10
 ==============================================================================
 Program finished normally, goodbye!
 ==============================================================================
--------------------------------------------------------------------------
mpirun noticed that the job aborted, but has no info as to the process
that caused that situation.
--------------------------------------------------------------------------
