h
o
oh
hco
ch3
h2o2
ch3o
c2h5
c2h
c2h3
ch2oh
ch3co
ch2cho
ch3cho
nc3h7
c4h7
c4h8-1
pc4h9
ch3coch2
c2h5cho
c5h9
c5h10-1
c5h11-1
c2h5o
ch3o2
ch3o2h
c2h3o1-2
c2h3co
c3h5o
c4h7o
c3h5-a
c3h2
ch2(s)
nc3h7co
c2h5coch2
nc3h7coch2
nc7h16
c7h15-1
c7h15
c7h15o2
c7h14ooh
c7h14ooho2
nc7ket
