digraph {
ranksep = 0.35;
nodesep = 0.10;
margin = 0;
node [ margin = "0.055,0.0275" ];

all [ label = "all", shape = ellipse ];
private_shared [ label = "", xlabel = "private vs shared", shape = rectangle, style = filled, color = black, width = "1", height = "0.1" ];
all_private [ label = "all private", shape = ellipse ];
all_shared [ label = "all shared", shape = ellipse ];
cells [ label = "", xlabel = "cells", shape = rectangle, style = filled, color = black, width = "1", height = "0.1" ];
shared [ label = "", xlabel = "shared", shape = rectangle, style = filled, color = black, width = "1", height = "0.1" ];
ghost [ label = "", xlabel = "ghost", shape = rectangle, width = "1", height = "0.1" ];
cells0 [ label = "cells[0]", shape = ellipse ];
cellsI [ label = ". . .", shape = none, width = "0" ];
cellsN [ label = "cells[N-1]", shape = ellipse ];
shared0 [ label = "shared[0]", shape = ellipse ];
sharedI [ label = ". . .", shape = none, width = "0" ];
sharedN [ label = "shared[N-1]", shape = ellipse ];
ghost0 [ label = "ghost[0]", shape = ellipse ];
ghostI [ label = ". . .", shape = none, width = "0" ];
ghostN [ label = "ghost[N-1]", shape = ellipse ];

all -> private_shared;
private_shared -> all_private;
private_shared -> all_shared;
all_private -> cells;
all_shared -> shared;
all_shared -> ghost;
cells -> cells0;
cells -> cellsI [style = invisible, arrowhead = none];
cells -> cellsN;
shared -> shared0;
shared -> sharedI [style = invisible, arrowhead = none];
shared -> sharedN;
ghost -> ghost0;
ghost -> ghostI [style = invisible, arrowhead = none];
ghost -> ghostN;
}