digraph {
rankdir = LR;
ranksep = "0.35";
margin = 0;
node [ margin = "0.055,0.0275" ];

subgraph cluster_0 {
margin = 10;
label = "for t = 0, T"
labeljust = l

dummy [ label = "", shape = none ];

7 [ label = "own.a", shape = ellipse ];
5 [ label = "own.b", shape = ellipse ];
subgraph {
rank = same;
8 [ label = "own.a", shape = ellipse ];
6 [ label = "own.b", shape = ellipse ];
}
9 [ label = "for i = N0, N1", shape = rectangle ];
14 [ label = "ghost.b", shape = ellipse ];
16 [ label = "own.a", shape = ellipse ];
17 [ label = "for j = N0, N1", shape = rectangle ];
21 [ label = "copy", shape = rectangle ];
22 [ label = "full_in", shape = ellipse ];
23 [ label = "full_out", shape = ellipse ];
24 [ label = "full_in", shape = ellipse ];
25 [ label = "advance", shape = rectangle ];
26 [ label = "full_out", shape = ellipse ];
27 [ label = "advance", shape = rectangle ];
28 [ label = "empty_in", shape = ellipse ];
29 [ label = "empty_out", shape = ellipse ];
30 [ label = "empty_in", shape = ellipse ];
31 [ label = "advance", shape = rectangle ];
32 [ label = "empty_out", shape = ellipse ];
33 [ label = "advance", shape = rectangle ];
5 -> 9 [ label = "R", style = "solid" ];
6 -> 21 [ label = "R", style = "solid" ];
6 -> 17 [ label = "R", style = "solid" ];
7 -> 9 [ label = "R", style = "solid" ];
8 -> 17 [ label = "R", style = "solid" ];
9 -> 8 [ label = "W", style = "solid" ];
9 -> 6 [ label = "W", style = "solid" ];
14 -> 17 [ label = "R", style = "solid" ];
17 -> 28 [ label = "Signal", style = "dotted" ];
17 -> 16 [ label = "W", style = "solid" ];
21 -> 14 [ label = "W", style = "solid" ];
21 -> 23 [ label = "Signal", style = "dotted" ];
22 -> 25 [ label = "R", style = "solid" ];
23 -> 27 [ label = "R", style = "solid" ];
24 -> 17 [ label = "Wait", style = "dotted" ];
25 -> 24 [ label = "W", style = "solid" ];
27 -> 26 [ label = "W", style = "solid" ];
28 -> 31 [ label = "R", style = "solid" ];
29 -> 33 [ label = "R", style = "solid" ];
29 -> 21 [ label = "Wait", style = "dotted" ];
31 -> 30 [ label = "W", style = "solid" ];
33 -> 32 [ label = "W", style = "solid" ];

dummy -> 22 [ style = invisible, arrowhead = none ];
24 -> 28 [ style = invisible, arrowhead = none ];
}
}
