 ==============================================================================
 Hello, and welcome to S3D!
 ==============================================================================
 ==============================================================
 --------------------S3D BUILD CONFIGURATION-----------------
 Build directory:
  /nics/d/home/sequoia/sean_legion/legion_s3d/leg_dme 
 ------------------------------------------------------
  S3D Options: 
 Using mixture averaged transport: ON
 Using adaptive RK integration: OFF
 Using chemical mechanism: CH3OCH3_30species
 Using srcs for timescale analysis: OFF
 ------------------------------------------------------
  Defines:
 SYSTEMCALLWONTWORK
 SAVEFILEINSEPDIR
 ARCH_OPTERON
 BLOCKIO
 MIXAVG
 ------------------------------------------------------
  FORTRAN COMPILER FLAGS: 
  -convert big_endian -r8 -fpp -fp-model strict -O3 -ip  
  C COMPILER FLAGS: 
   
 ------------------------------------------------------
  S3D Version: 
   
   
 ------------------------------------------------------
  Chemistry routine header: 
  C----------------------------------------------------------------------C
  C     	
  C     26-step reduced mechanism for DME/air
  C     (Non-stiff version)
  C
  C     Developed by:
  C
  C       Tianfeng Lu & Zhaoyu Luo
  C       Department of Mechanical Engineering
  C       University of Connecticut
  C       191 Audotorium Road U-3139
  C       Storrs, CT 06269
  C
  C       Email: tlu@engr.uconn.edu
  C
  C     July 18, 2009
  C                                                                      C
  C----------------------------------------------------------------------C
  C                                                                      C
        SUBROUTINE GETRATES  (P, T, Y, DIFF, DT, ICKWRK, RCKWRK, WDOT)
 ------------------------------------------------------
  Transport routine header: 
  C     CVS $Revision: 1.3 $ created $Date: 2005/06/16 22:37:27 $
  C
        SUBROUTINE MCABS
 ------------------------------------------------------
 ==============================================================
 ------------------------------------------------------------------------------
 this run started at:
 
 date = 04/17/2014
 time = 23:10:14
 ------------------------------------------------------------------------------
 initializing chemkin module...
 
 opening chemkin link file...
 setting chemkin work array lengths...
 allocating chemkin work arrays...
 filling chemkin work arrays based on chemkin link file...

 CKLIB: CHEMKIN-III GAS-PHASE CHEMICAL KINETICS LIBRARY,
 DOUBLE PRECISION Vers. 5.36 2000/12/15      
 Copyright 1995, Sandia Corporation.
 The U.S. Government retains a limited license in this software.


 number of elements in reaction mechansim =    4
 number of species in reaction mechansim  =   30
 number of steps in reaction mechansims   =    0
 
 the following was extracted from the ../input/chem.asc file:
 
 element names are as follows:
 index   name
   1     C               
   2     H               
   3     O               
   4     N               
 
 species names are as follows:
 index   name
   1     H               
   2     H2              
   3     CH3             
   4     O               
   5     CH4             
   6     OH              
   7     H2O             
   8     C2H2            
   9     CO              
  10     C2H4            
  11     C2H5            
  12     CH2O            
  13     C2H6            
  14     CH3O            
  15     O2              
  16     HO2             
  17     H2O2            
  18     CO2             
  19     CH3HCO          
  20     HCOOH           
  21     CH3OCH3         
  22     CH3OCO          
  23     CH3OCHO         
  24     CH3OCH2OH       
  25     OCH2OCHO        
  26     HOCH2OCO        
  27     CH3OCH2O2       
  28     HO2CH2OCHO      
  29     O2CH2OCH2O2H    
  30     N2              
 
 species molecular weights are as follows:
 index   name  value (kg/mol)
   1     H                 1.00797E-03
   2     H2                2.01594E-03
   3     CH3               1.50351E-02
   4     O                 1.59994E-02
   5     CH4               1.60430E-02
   6     OH                1.70074E-02
   7     H2O               1.80153E-02
   8     C2H2              2.60382E-02
   9     CO                2.80106E-02
  10     C2H4              2.80542E-02
  11     C2H5              2.90622E-02
  12     CH2O              3.00265E-02
  13     C2H6              3.00701E-02
  14     CH3O              3.10345E-02
  15     O2                3.19988E-02
  16     HO2               3.30068E-02
  17     H2O2              3.40147E-02
  18     CO2               4.40100E-02
  19     CH3HCO            4.40536E-02
  20     HCOOH             4.60259E-02
  21     CH3OCH3           4.60695E-02
  22     CH3OCO            5.90450E-02
  23     CH3OCHO           6.00530E-02
  24     CH3OCH2OH         6.20689E-02
  25     OCH2OCHO          7.50444E-02
  26     HOCH2OCO          7.50444E-02
  27     CH3OCH2O2         7.70603E-02
  28     HO2CH2OCHO        9.20518E-02
  29     O2CH2OCH2O2H      1.09059E-01
  30     N2                2.80134E-02
 
 opening stiff.in ...
 ------------------------------------------------------------------------------
 initializing param module...
 
 number of elements in reaction mechansim =    4
 number of species in reaction mechansim  =   30
 number of steps in reaction mechansims   =    0
 
 number of reaction third-body reactions =    0
 Fastest chemical timescale is:   0.000000000000000E+000  (s)
 ------------------------------------------------------------------------------
 initializing topology module...
 
 Initialized topology module, npx =     4 npy =     2 npz =     2 npes =    16
 ------------------------------------------------------------------------------
 initializing reference module...
 
 the various reference values are as follows:
 
   universal gas constant (J/mol-K)   =  8.31451E+00
   freestream temperature (K)         =  3.00000E+02
   reference ratio of specifice heats =  1.40000E+00
   reference speed of sound (m/s)     =  3.47200E+02
   reference density (kg/m^3)         =  1.17660E+00
   reference conductivity (W/m-K)     =  2.61400E-02
   reference temperature (K)          =  1.20000E+02
   reference pressure (Pa)            =  1.41837E+05
   standard atmospheric pressure (Pa) =  1.01325E+05
   reference time (s)                 =  1.29889E-05
   reference specific heat (J/kg-K)   =  1.00457E+03
   reference length (m)               =  4.50975E-03
   reference viscosity (Pa-s)         =  1.84230E+00
   acoustic Reynolds number           =  1.00000E+05
   Mach number                        =  1.00000E-03
   convective Reynolds number         =  1.00000E+02
 
 ------------------------------------------------------------------------------
 initializing ERK module...
 
 ERK module information is as follows:
 
   rk_method                =  -64
   cont_switch              =    0
   tstep_init (seconds)     =  1.00E-09
   tstep_min (seconds)      =  1.00E-09
   tstep_max (seconds)      =  1.00E-03
   rk_rtol                  =  1.00E-03
   rk_atol                  =  1.00E-15
   cont_safety              =  9.00E-01
   k_I                      =  2.00E-01
   k_P                      =  2.00E-01
   k_D                      =  5.00E-02
   k_D2                     =  0.00E+00
   cont_factor              =  3.00E+00
   cfl_switch               =    1
   i_time_cont              =   20
 
   cont_n_reg               =    1
   controller type          = NONE
 
   rk_tol                   =  1.00E-12
 
   using RK4(3)6[2R+]C ERK scheme!
 ------------------------------------------------------------------------------
 initializing transport module...
 
 opening mixavg.in ...
 Lagging is switched on
 WARNING - with coefficient lagging, theoretical
 temporal convergence order may not be observed
 
 opening transport link file...
 setting lengths of transport work arrays...
 allocating transport work arrays...
 creating transport work arrays from transport link file...

 TRANLIB:  CHEMKIN-III MULTICOMPONENT TRANSPORT LIBRARY,
 DOUBLE PRECISION Vers. 4.6 1999/06/03      
 Copyright 1995, Sandia Corporation.
 The U.S. Government retains a limited license in this software.


 ------------------------------------------------------------------------------
 initializing filter module...
 
 using explicit filter of order 10
 filter will be applied every    10 time steps
 ------------------------------------------------------------------------------
 initializing derivative module...
 
 ------------------------------------------------------------------------------
 initializing thermchem module...
 
   ***WARNING***
    Table T is lower than valid range for polynomial on species  1
    polynomial lower temperature limit:   300.0
    cp&h table lower temperature limit:   250.0
 
   ***WARNING***
    Table T is lower than valid range for polynomial on species  2
    polynomial lower temperature limit:   300.0
    cp&h table lower temperature limit:   250.0
 
   ***WARNING***
    Table T is lower than valid range for polynomial on species  4
    polynomial lower temperature limit:   300.0
    cp&h table lower temperature limit:   250.0
 
   ***WARNING***
    Table T is lower than valid range for polynomial on species  5
    polynomial lower temperature limit:   300.0
    cp&h table lower temperature limit:   250.0
 
   ***WARNING***
    Table T is lower than valid range for polynomial on species  7
    polynomial lower temperature limit:   300.0
    cp&h table lower temperature limit:   250.0
 
   ***WARNING***
    Table T is lower than valid range for polynomial on species  9
    polynomial lower temperature limit:   300.0
    cp&h table lower temperature limit:   250.0
 
   ***WARNING***
    Table T is lower than valid range for polynomial on species 12
    polynomial lower temperature limit:   300.0
    cp&h table lower temperature limit:   250.0
 
   ***WARNING***
    Table T is lower than valid range for polynomial on species 13
    polynomial lower temperature limit:   300.0
    cp&h table lower temperature limit:   250.0
 
   ***WARNING***
    Table T is lower than valid range for polynomial on species 14
    polynomial lower temperature limit:   300.0
    cp&h table lower temperature limit:   250.0
 
   ***WARNING***
    Table T exceeds valid range for polynomials on species 14
    polynomial upper temperature limit:  3000.0
    cp&h table upper temperature limit:  3500.0
 
   ***WARNING***
    Table T is lower than valid range for polynomial on species 15
    polynomial lower temperature limit:   300.0
    cp&h table lower temperature limit:   250.0
 
   ***WARNING***
    Table T is lower than valid range for polynomial on species 17
    polynomial lower temperature limit:   300.0
    cp&h table lower temperature limit:   250.0
 
   ***WARNING***
    Table T is lower than valid range for polynomial on species 18
    polynomial lower temperature limit:   300.0
    cp&h table lower temperature limit:   250.0
 
   ***WARNING***
    Table T is lower than valid range for polynomial on species 20
    polynomial lower temperature limit:   300.0
    cp&h table lower temperature limit:   250.0
 
   ***WARNING***
    Table T is lower than valid range for polynomial on species 21
    polynomial lower temperature limit:   270.0
    cp&h table lower temperature limit:   250.0
 
   ***WARNING***
    Table T exceeds valid range for polynomials on species 21
    polynomial upper temperature limit:  3000.0
    cp&h table upper temperature limit:  3500.0
 
   ***WARNING***
    Table T is lower than valid range for polynomial on species 22
    polynomial lower temperature limit:   300.0
    cp&h table lower temperature limit:   250.0
 
   ***WARNING***
    Table T is lower than valid range for polynomial on species 23
    polynomial lower temperature limit:   300.0
    cp&h table lower temperature limit:   250.0
 
   ***WARNING***
    Table T is lower than valid range for polynomial on species 24
    polynomial lower temperature limit:   300.0
    cp&h table lower temperature limit:   250.0
 
   ***WARNING***
    Table T is lower than valid range for polynomial on species 25
    polynomial lower temperature limit:   300.0
    cp&h table lower temperature limit:   250.0
 
   ***WARNING***
    Table T is lower than valid range for polynomial on species 26
    polynomial lower temperature limit:   300.0
    cp&h table lower temperature limit:   250.0
 
   ***WARNING***
    Table T is lower than valid range for polynomial on species 27
    polynomial lower temperature limit:   300.0
    cp&h table lower temperature limit:   250.0
 
   ***WARNING***
    Table T is lower than valid range for polynomial on species 28
    polynomial lower temperature limit:   300.0
    cp&h table lower temperature limit:   250.0
 
   ***WARNING***
    Table T is lower than valid range for polynomial on species 29
    polynomial lower temperature limit:   300.0
    cp&h table lower temperature limit:   250.0
 
   ***WARNING***
    Table T is lower than valid range for polynomial on species 30
    polynomial lower temperature limit:   300.0
    cp&h table lower temperature limit:   250.0
 
 ------------------------------------------------------------------------------
 initializing grid module...
 
 ------------------------------------------------------------------------------
 initializing boundary condition module...
 
 ------------------------------------------------------------------------------
 initializing variables...
 
 initializing bomb (stand back)
 
 Mixture fraction module successfully initialized...
 storing hard inflow conditions...
 
 continuing with initialization...
 
Legion Init:
Local Grid Size = ( 48,  48,  48)
Global Grid Size = (192,  96,  96)
Proc Grid Size = (  4,   2,   2)
Proc ID = (  0,   1,   0)
nvar_tot = 34, n_spec = 30, n_reg = 3, iorder = 8, iforder = 10
subranks set to 8 from environment
fuse fields set to 8 from environment
set mixed stencils to 'true' from environment
Legion Init:
Local Grid Size = ( 48,  48,  48)
Global Grid Size = (192,  96,  96)
Proc Grid Size = (  4,   2,   2)
Proc ID = (  1,   1,   1)
nvar_tot = 34, n_spec = 30, n_reg = 3, iorder = 8, iforder = 10
subranks set to 8 from environment
fuse fields set to 8 from environment
set mixed stencils to 'true' from environment
Legion Init:
Local Grid Size = ( 48,  48,  48)
Global Grid Size = (192,  96,  96)
Proc Grid Size = (  4,   2,   2)
Proc ID = (  3,   0,   0)
nvar_tot = 34, n_spec = 30, n_reg = 3, iorder = 8, iforder = 10
subranks set to 8 from environment
fuse fields set to 8 from environment
set mixed stencils to 'true' from environment
Legion Init:
Local Grid Size = ( 48,  48,  48)
Global Grid Size = (192,  96,  96)
Proc Grid Size = (  4,   2,   2)
Proc ID = (  3,   1,   1)
nvar_tot = 34, n_spec = 30, n_reg = 3, iorder = 8, iforder = 10
subranks set to 8 from environment
fuse fields set to 8 from environment
set mixed stencils to 'true' from environment
Legion Init:
Local Grid Size = ( 48,  48,  48)
Global Grid Size = (192,  96,  96)
Proc Grid Size = (  4,   2,   2)
Proc ID = (  3,   1,   0)
nvar_tot = 34, n_spec = 30, n_reg = 3, iorder = 8, iforder = 10
subranks set to 8 from environment
fuse fields set to 8 from environment
set mixed stencils to 'true' from environment
Legion Init:
Local Grid Size = ( 48,  48,  48)
Global Grid Size = (192,  96,  96)
Proc Grid Size = (  4,   2,   2)
Proc ID = (  1,   0,   1)
nvar_tot = 34, n_spec = 30, n_reg = 3, iorder = 8, iforder = 10
subranks set to 8 from environment
fuse fields set to 8 from environment
set mixed stencils to 'true' from environment
Legion Init:
Local Grid Size = ( 48,  48,  48)
Global Grid Size = (192,  96,  96)
Proc Grid Size = (  4,   2,   2)
Proc ID = (  1,   1,   0)
nvar_tot = 34, n_spec = 30, n_reg = 3, iorder = 8, iforder = 10
subranks set to 8 from environment
fuse fields set to 8 from environment
set mixed stencils to 'true' from environment
Legion Init:
Local Grid Size = ( 48,  48,  48)
Global Grid Size = (192,  96,  96)
Proc Grid Size = (  4,   2,   2)
Proc ID = (  3,   0,   1)
nvar_tot = 34, n_spec = 30, n_reg = 3, iorder = 8, iforder = 10
subranks set to 8 from environment
fuse fields set to 8 from environment
set mixed stencils to 'true' from environment
Legion Init:
Local Grid Size = ( 48,  48,  48)
Global Grid Size = (192,  96,  96)
Proc Grid Size = (  4,   2,   2)
Proc ID = (  1,   0,   0)
nvar_tot = 34, n_spec = 30, n_reg = 3, iorder = 8, iforder = 10
subranks set to 8 from environment
fuse fields set to 8 from environment
set mixed stencils to 'true' from environment
Legion Init:
Local Grid Size = ( 48,  48,  48)
Global Grid Size = (192,  96,  96)
Proc Grid Size = (  4,   2,   2)
Proc ID = (  2,   0,   0)
nvar_tot = 34, n_spec = 30, n_reg = 3, iorder = 8, iforder = 10
subranks set to 8 from environment
fuse fields set to 8 from environment
set mixed stencils to 'true' from environment
Legion Init:
Local Grid Size = ( 48,  48,  48)
Global Grid Size = (192,  96,  96)
Proc Grid Size = (  4,   2,   2)
Proc ID = (  2,   1,   0)
nvar_tot = 34, n_spec = 30, n_reg = 3, iorder = 8, iforder = 10
subranks set to 8 from environment
fuse fields set to 8 from environment
set mixed stencils to 'true' from environment
Legion Init:
Local Grid Size = ( 48,  48,  48)
Global Grid Size = (192,  96,  96)
Proc Grid Size = (  4,   2,   2)
Proc ID = (  0,   0,   1)
nvar_tot = 34, n_spec = 30, n_reg = 3, iorder = 8, iforder = 10
subranks set to 8 from environment
fuse fields set to 8 from environment
set mixed stencils to 'true' from environment
Legion Init:
Local Grid Size = ( 48,  48,  48)
Global Grid Size = (192,  96,  96)
Proc Grid Size = (  4,   2,   2)
Proc ID = (  0,   1,   1)
nvar_tot = 34, n_spec = 30, n_reg = 3, iorder = 8, iforder = 10
subranks set to 8 from environment
fuse fields set to 8 from environment
set mixed stencils to 'true' from environment
Legion Init:
Local Grid Size = ( 48,  48,  48)
Global Grid Size = (192,  96,  96)
Proc Grid Size = (  4,   2,   2)
Proc ID = (  2,   1,   1)
nvar_tot = 34, n_spec = 30, n_reg = 3, iorder = 8, iforder = 10
subranks set to 8 from environment
fuse fields set to 8 from environment
set mixed stencils to 'true' from environment
Legion Init:
Local Grid Size = ( 48,  48,  48)
Global Grid Size = (192,  96,  96)
Proc Grid Size = (  4,   2,   2)
Proc ID = (  2,   0,   1)
nvar_tot = 34, n_spec = 30, n_reg = 3, iorder = 8, iforder = 10
subranks set to 8 from environment
fuse fields set to 8 from environment
set mixed stencils to 'true' from environment
 maximum speed of sound =  572.59 m/s
 mimimum speed of sound =  546.67 m/s
 
 maximum acoustic time = 3.02E-05 sec
 minimum acoustic time = 3.17E-05 sec
 
 initialization completed for time =  0.00E+00
 ------------------------------------------------------------------------------
Legion Init:
Local Grid Size = ( 48,  48,  48)
Global Grid Size = (192,  96,  96)
Proc Grid Size = (  4,   2,   2)
Proc ID = (  0,   0,   0)
nvar_tot = 34, n_spec = 30, n_reg = 3, iorder = 8, iforder = 10
subranks set to 8 from environment
fuse fields set to 8 from environment
set mixed stencils to 'true' from environment
Pinned Memory Usage: GASNET=0, RMEM=1024, LMB=32, SDP=512, total=1568
HERE
HERE
HERE
HERE
HERE
HERE
HERE
HERE
HERE
HERE
HERE
HERE
HERE
HERE
HERE
HERE
There are 34 q fields, 63 state fields, and 630 temp fields
There are 34 q fields, 63 state fields, and 630 temp fields
There are 34 q fields, 63 state fields, and 630 temp fields
There are 34 q fields, 63 state fields, and 630 temp fields
There are 34 q fields, 63 state fields, and 630 temp fields
There are 34 q fields, 63 state fields, and 630 temp fields
There are 34 q fields, 63 state fields, and 630 temp fields
There are 34 q fields, 63 state fields, and 630 temp fields
There are 34 q fields, 63 state fields, and 630 temp fields
There are 34 q fields, 63 state fields, and 630 temp fields
There are 34 q fields, 63 state fields, and 630 temp fields
There are 34 q fields, 63 state fields, and 630 temp fields
There are 34 q fields, 63 state fields, and 630 temp fields
There are 34 q fields, 63 state fields, and 630 temp fields
There are 34 q fields, 63 state fields, and 630 temp fields
There are 34 q fields, 63 state fields, and 630 temp fields
in top level task: kfs258 (39)
Total simulation volume: 1769472
Attempting to connect 128 processors with 1 points per processor
configuring ERK: stages = 6
configuring ERK: stages = 6
configuring ERK: stages = 6
configuring ERK: stages = 6
configuring ERK: stages = 6
configuring ERK: stages = 6
configuring ERK: stages = 6
configuring ERK: stages = 6
configuring ERK: stages = 6
configuring ERK: stages = 6
configuring ERK: stages = 6
configuring ERK: stages = 6
configuring ERK: stages = 6
configuring ERK: stages = 6
configuring ERK: stages = 6
configuring ERK: stages = 6
connect_mpi finished
all mappers updated
update subrank bounds task, pt = (0, 0, 0)
args = 0x2acc724600e0, 192
update subrank bounds task, pt = (2, 0, 0)
args = 0x2b46c1f05880, 192
update subrank bounds task, pt = (0, 0, 1)
args = 0x2b455f004fa0, 192
update subrank bounds task, pt = (2, 0, 1)
args = 0x2aaf8b40aea0, 192
update subrank bounds task, pt = (0, 1, 1)
args = 0x2b4377402180, 192
update subrank bounds task, pt = (0, 1, 0)
args = 0x2f04b00, 192
update subrank bounds task, pt = (3, 0, 0)
args = 0x354f7e0, 192
update subrank bounds task, pt = (3, 1, 1)
args = 0x2b48caf09880, 192
update subrank bounds task, pt = (1, 0, 1)
args = 0x1bb27c0, 192
update subrank bounds task, pt = (3, 0, 1)
args = 0x226ab80, 192
update subrank bounds task, pt = (1, 0, 0)
args = 0x2aefacf073a0, 192
update subrank bounds task, pt = (2, 1, 0)
args = 0x2b99fa601200, 192
update subrank bounds task, pt = (2, 1, 1)
args = 0x2b9815784de0, 192
update subrank bounds task, pt = (1, 1, 1)
args = 0x2b8e33e03fa0, 192
update subrank bounds task, pt = (3, 1, 0)
args = 0x1b7bc40, 192
update subrank bounds task, pt = (1, 1, 0)
args = 0x2afdab6010c0, 192
rank = 0x1523940
rank = 0x1560ac0
rank = 0x2f61a80
rank = 0x3289460
rank = 0x227a320
rank = 0x28d3f60
rank = 0x1a1f920
rank = 0x2c609c0
rank = 0x2ed8520
rank = 0x1a81e00
rank = 0x2a897a0
rank = 0x20f4820
rank = 0x245b320
rank = 0x3126860
rank = 0x328c740
rank = 0x19e12a0
my proc = 80000002
my proc = 80200002
my proc = 80800002
my proc = 80400002
my proc = 80a00002
my proc = 81000002
 Mixture fraction module successfully initialized...
 generating active.in file...
 
performing full integrations
my proc = 80600002
 ------------------------------------------------------------------------------
performing full integrations
my proc = 80c00002
performing full integrations
 field initialized with i_temporalfeed=           0
performing full integrations
performing full integrations
performing full integrations
performing full integrations
my proc = 80e00002
my proc = 81200002
performing full integrations
my proc = 81400002
performing full integrations
performing full integrations
my proc = 81600002
performing full integrations
my proc = 81800002
performing full integrations
performing full integrations
my proc = 81a00002
my proc = 81c00002
performing full integrations
my proc = 81e00002
performing full integrations
performing full integrations
 writing save    files for: i_time =       0, time = 0.0000E+00 (sec)
 precision is d
 ------------------------------------------------------------------------------
IO Started at 10:19.539
IO Finished at 10:19.540
Per-thread IO =            31.0MB
Total IO =           495.5MB
Time taken =           0.001s
Total IO Rate =      495452.160MB/s
 ------------------------------------------------------------------------------
 ------------------------------------------------------------------------------
RHSF TOP Execution Time: 14074.563 ms
all done!
 writing save    files for: i_time =      10, time = 1.0000E-08 (sec)
 precision is d
 ------------------------------------------------------------------------------
IO Started at 10:33.762
IO Finished at 10:33.763
Per-thread IO =            31.0MB
Total IO =           495.5MB
Time taken =           0.001s
Total IO Rate =      495452.160MB/s
 ------------------------------------------------------------------------------
 ------------------------------------------------------------------------------
 ==============================================================================
 Timestepping began at: 
 date = 04/17/2014
 time = 23:10:19
 Timestepping ended at: 
 date = 04/17/2014
 time = 23:10:33
S3D Time taken:     14.2 s
S3D Cost :     12.9 microseconds per gridpoint per tiemstep
 ==============================================================================
 ------------------------------------------------------------------------------
 S3D started at:
 
 date = 04/17/2014
 time = 23:10:14
 
 S3D ended at:
 
 date = 04/17/2014
 time = 23:10:33
 ==============================================================================
 Program finished normally, goodbye!
 ==============================================================================
--------------------------------------------------------------------------
mpirun noticed that process rank 3 with PID 47624 on node kfs225 exited on signal 11 (Segmentation fault).
--------------------------------------------------------------------------
