 ==============================================================================
 Hello, and welcome to S3D!
 ==============================================================================
 ==============================================================
 --------------------S3D BUILD CONFIGURATION-----------------
 Build directory:
  /nics/d/home/sequoia/sean_legion/legion_s3d/leg_hept 
 ------------------------------------------------------
  S3D Options: 
 Using mixture averaged transport: ON
 Using adaptive RK integration: OFF
 Using chemical mechanism: C7H16_52species
 Using srcs for timescale analysis: OFF
 ------------------------------------------------------
  Defines:
 SYSTEMCALLWONTWORK
 SAVEFILEINSEPDIR
 ARCH_OPTERON
 BLOCKIO
 MIXAVG
 ------------------------------------------------------
  FORTRAN COMPILER FLAGS: 
  -convert big_endian -r8 -fpp -fp-model strict -O3 -ip  
  C COMPILER FLAGS: 
   
 ------------------------------------------------------
  S3D Version: 
   
   
 ------------------------------------------------------
  Chemistry routine header: 
  C                                                                      C
  C----------------------------------------------------------------------C
  C                                                                      C
        SUBROUTINE GETRATES  (P, T, Y, DIFF, DT, ICKWRK, RCKWRK, WDOT)
 ------------------------------------------------------
  Transport routine header: 
  C     CVS $Revision: 1.3 $ created $Date: 2005/06/16 22:37:27 $
  C
        SUBROUTINE MCABS
 ------------------------------------------------------
 ==============================================================
 ------------------------------------------------------------------------------
 this run started at:
 
 date = 04/17/2014
 time = 23:07:46
 ------------------------------------------------------------------------------
 initializing chemkin module...
 
 opening chemkin link file...
 setting chemkin work array lengths...
 allocating chemkin work arrays...
 filling chemkin work arrays based on chemkin link file...

 CKLIB: CHEMKIN-III GAS-PHASE CHEMICAL KINETICS LIBRARY,
 DOUBLE PRECISION Vers. 5.36 2000/12/15      
 Copyright 1995, Sandia Corporation.
 The U.S. Government retains a limited license in this software.


 number of elements in reaction mechansim =    4
 number of species in reaction mechansim  =   52
 number of steps in reaction mechansims   =   48
 
 the following was extracted from the ../input/chem.asc file:
 
 element names are as follows:
 index   name
   1     h               
   2     c               
   3     o               
   4     n               
 
 species names are as follows:
 index   name
   1     h               
   2     h2              
   3     o               
   4     o2              
   5     oh              
   6     h2o             
   7     co              
   8     co2             
   9     ch3             
  10     ch4             
  11     ho2             
  12     h2o2            
  13     ch2o            
  14     c2h6            
  15     c2h4            
  16     c2h5            
  17     c2h             
  18     c2h2            
  19     ch3oh           
  20     ch2co           
  21     hcco            
  22     ch3cho          
  23     c3h4-a          
  24     c3h4-p          
  25     c3h6            
  26     c4h6            
  27     c4h7            
  28     c4h8-1          
  29     pc4h9           
  30     ch3coch2        
  31     c2h5cho         
  32     c5h9            
  33     c5h10-1         
  34     c5h11-1         
  35     ch3o2           
  36     ch3o2h          
  37     c2h3co          
  38     c2h3cho         
  39     c3h5-a          
  40     c3h3            
  41     nc3h7cho        
  42     c2h5coch2       
  43     ch3chco         
  44     nc3h7coch3      
  45     nc3h7coch2      
  46     nc7h16          
  47     c7h15-1         
  48     c7h15o2         
  49     c7h14ooho2      
  50     c7h14o          
  51     nc7ket          
  52     n2              
 
 species molecular weights are as follows:
 index   name  value (kg/mol)
   1     h                 1.00797E-03
   2     h2                2.01594E-03
   3     o                 1.59994E-02
   4     o2                3.19988E-02
   5     oh                1.70074E-02
   6     h2o               1.80153E-02
   7     co                2.80106E-02
   8     co2               4.40100E-02
   9     ch3               1.50351E-02
  10     ch4               1.60430E-02
  11     ho2               3.30068E-02
  12     h2o2              3.40147E-02
  13     ch2o              3.00265E-02
  14     c2h6              3.00701E-02
  15     c2h4              2.80542E-02
  16     c2h5              2.90622E-02
  17     c2h               2.50303E-02
  18     c2h2              2.60382E-02
  19     ch3oh             3.20424E-02
  20     ch2co             4.20376E-02
  21     hcco              4.10297E-02
  22     ch3cho            4.40536E-02
  23     c3h4-a            4.00653E-02
  24     c3h4-p            4.00653E-02
  25     c3h6              4.20813E-02
  26     c4h6              5.40924E-02
  27     c4h7              5.51004E-02
  28     c4h8-1            5.61084E-02
  29     pc4h9             5.71163E-02
  30     ch3coch2          5.70727E-02
  31     c2h5cho           5.80807E-02
  32     c5h9              6.91275E-02
  33     c5h10-1           7.01355E-02
  34     c5h11-1           7.11434E-02
  35     ch3o2             4.70339E-02
  36     ch3o2h            4.80418E-02
  37     c2h3co            5.50568E-02
  38     c2h3cho           5.60647E-02
  39     c3h5-a            4.10733E-02
  40     c3h3              3.90574E-02
  41     nc3h7cho          7.21078E-02
  42     c2h5coch2         7.10998E-02
  43     ch3chco           5.60647E-02
  44     nc3h7coch3        8.61348E-02
  45     nc3h7coch2        8.51269E-02
  46     nc7h16            1.00206E-01
  47     c7h15-1           9.91976E-02
  48     c7h15o2           1.31196E-01
  49     c7h14ooho2        1.63195E-01
  50     c7h14o            1.14189E-01
  51     nc7ket            1.46188E-01
  52     n2                2.80134E-02
 
 opening stiff.in ...
 ------------------------------------------------------------------------------
 initializing param module...
 
 number of elements in reaction mechansim =    4
 number of species in reaction mechansim  =   52
 number of steps in reaction mechansims   =   48
 
 number of reaction third-body reactions =    0
 Fastest chemical timescale is:   0.000000000000000E+000  (s)
 ------------------------------------------------------------------------------
 initializing topology module...
 
 Initialized topology module, npx =     4 npy =     2 npz =     2 npes =    16
 ------------------------------------------------------------------------------
 initializing reference module...
 
 the various reference values are as follows:
 
   universal gas constant (J/mol-K)   =  8.31451E+00
   freestream temperature (K)         =  3.00000E+02
   reference ratio of specifice heats =  1.40000E+00
   reference speed of sound (m/s)     =  3.47200E+02
   reference density (kg/m^3)         =  1.17660E+00
   reference conductivity (W/m-K)     =  2.61400E-02
   reference temperature (K)          =  1.20000E+02
   reference pressure (Pa)            =  1.41837E+05
   standard atmospheric pressure (Pa) =  1.01325E+05
   reference time (s)                 =  1.29889E-05
   reference specific heat (J/kg-K)   =  1.00457E+03
   reference length (m)               =  4.50975E-03
   reference viscosity (Pa-s)         =  1.84230E+00
   acoustic Reynolds number           =  1.00000E+05
   Mach number                        =  1.00000E-03
   convective Reynolds number         =  1.00000E+02
 
 ------------------------------------------------------------------------------
 initializing ERK module...
 
 ERK module information is as follows:
 
   rk_method                =  -64
   cont_switch              =    0
   tstep_init (seconds)     =  1.00E-09
   tstep_min (seconds)      =  1.00E-09
   tstep_max (seconds)      =  1.00E-03
   rk_rtol                  =  1.00E-03
   rk_atol                  =  1.00E-15
   cont_safety              =  9.00E-01
   k_I                      =  2.00E-01
   k_P                      =  2.00E-01
   k_D                      =  5.00E-02
   k_D2                     =  0.00E+00
   cont_factor              =  3.00E+00
   cfl_switch               =    1
   i_time_cont              =   20
 
   cont_n_reg               =    1
   controller type          = NONE
 
   rk_tol                   =  1.00E-12
 
   using RK4(3)6[2R+]C ERK scheme!
 ------------------------------------------------------------------------------
 initializing transport module...
 
 opening mixavg.in ...
 Lagging is switched on
 WARNING - with coefficient lagging, theoretical
 temporal convergence order may not be observed
 
 opening transport link file...
 setting lengths of transport work arrays...
 allocating transport work arrays...
 creating transport work arrays from transport link file...

 TRANLIB:  CHEMKIN-III MULTICOMPONENT TRANSPORT LIBRARY,
 DOUBLE PRECISION Vers. 4.6 1999/06/03      
 Copyright 1995, Sandia Corporation.
 The U.S. Government retains a limited license in this software.


 ------------------------------------------------------------------------------
 initializing filter module...
 
 using explicit filter of order 10
 filter will be applied every    10 time steps
 ------------------------------------------------------------------------------
 initializing derivative module...
 
 ------------------------------------------------------------------------------
 initializing thermchem module...
 
   ***WARNING***
    Table T is lower than valid range for polynomial on species  1
    polynomial lower temperature limit:   300.0
    cp&h table lower temperature limit:   250.0
 
   ***WARNING***
    Table T is lower than valid range for polynomial on species  2
    polynomial lower temperature limit:   300.0
    cp&h table lower temperature limit:   250.0
 
   ***WARNING***
    Table T is lower than valid range for polynomial on species  3
    polynomial lower temperature limit:   300.0
    cp&h table lower temperature limit:   250.0
 
   ***WARNING***
    Table T is lower than valid range for polynomial on species  4
    polynomial lower temperature limit:   300.0
    cp&h table lower temperature limit:   250.0
 
   ***WARNING***
    Table T is lower than valid range for polynomial on species  5
    polynomial lower temperature limit:   300.0
    cp&h table lower temperature limit:   250.0
 
   ***WARNING***
    Table T is lower than valid range for polynomial on species  6
    polynomial lower temperature limit:   300.0
    cp&h table lower temperature limit:   250.0
 
   ***WARNING***
    Table T is lower than valid range for polynomial on species  7
    polynomial lower temperature limit:   300.0
    cp&h table lower temperature limit:   250.0
 
   ***WARNING***
    Table T is lower than valid range for polynomial on species  8
    polynomial lower temperature limit:   300.0
    cp&h table lower temperature limit:   250.0
 
   ***WARNING***
    Table T is lower than valid range for polynomial on species  9
    polynomial lower temperature limit:   300.0
    cp&h table lower temperature limit:   250.0
 
   ***WARNING***
    Table T is lower than valid range for polynomial on species 10
    polynomial lower temperature limit:   300.0
    cp&h table lower temperature limit:   250.0
 
   ***WARNING***
    Table T is lower than valid range for polynomial on species 11
    polynomial lower temperature limit:   300.0
    cp&h table lower temperature limit:   250.0
 
   ***WARNING***
    Table T is lower than valid range for polynomial on species 12
    polynomial lower temperature limit:   300.0
    cp&h table lower temperature limit:   250.0
 
   ***WARNING***
    Table T is lower than valid range for polynomial on species 13
    polynomial lower temperature limit:   300.0
    cp&h table lower temperature limit:   250.0
 
   ***WARNING***
    Table T is lower than valid range for polynomial on species 14
    polynomial lower temperature limit:   300.0
    cp&h table lower temperature limit:   250.0
 
   ***WARNING***
    Table T is lower than valid range for polynomial on species 15
    polynomial lower temperature limit:   300.0
    cp&h table lower temperature limit:   250.0
 
   ***WARNING***
    Table T is lower than valid range for polynomial on species 16
    polynomial lower temperature limit:   300.0
    cp&h table lower temperature limit:   250.0
 
   ***WARNING***
    Table T is lower than valid range for polynomial on species 17
    polynomial lower temperature limit:   300.0
    cp&h table lower temperature limit:   250.0
 
   ***WARNING***
    Table T is lower than valid range for polynomial on species 18
    polynomial lower temperature limit:   300.0
    cp&h table lower temperature limit:   250.0
 
   ***WARNING***
    Table T is lower than valid range for polynomial on species 19
    polynomial lower temperature limit:   300.0
    cp&h table lower temperature limit:   250.0
 
   ***WARNING***
    Table T is lower than valid range for polynomial on species 20
    polynomial lower temperature limit:   300.0
    cp&h table lower temperature limit:   250.0
 
   ***WARNING***
    Table T is lower than valid range for polynomial on species 21
    polynomial lower temperature limit:   300.0
    cp&h table lower temperature limit:   250.0
 
   ***WARNING***
    Table T is lower than valid range for polynomial on species 22
    polynomial lower temperature limit:   300.0
    cp&h table lower temperature limit:   250.0
 
   ***WARNING***
    Table T is lower than valid range for polynomial on species 23
    polynomial lower temperature limit:   300.0
    cp&h table lower temperature limit:   250.0
 
   ***WARNING***
    Table T is lower than valid range for polynomial on species 24
    polynomial lower temperature limit:   300.0
    cp&h table lower temperature limit:   250.0
 
   ***WARNING***
    Table T is lower than valid range for polynomial on species 25
    polynomial lower temperature limit:   300.0
    cp&h table lower temperature limit:   250.0
 
   ***WARNING***
    Table T is lower than valid range for polynomial on species 26
    polynomial lower temperature limit:   300.0
    cp&h table lower temperature limit:   250.0
 
   ***WARNING***
    Table T is lower than valid range for polynomial on species 27
    polynomial lower temperature limit:   300.0
    cp&h table lower temperature limit:   250.0
 
   ***WARNING***
    Table T is lower than valid range for polynomial on species 28
    polynomial lower temperature limit:   300.0
    cp&h table lower temperature limit:   250.0
 
   ***WARNING***
    Table T is lower than valid range for polynomial on species 29
    polynomial lower temperature limit:   300.0
    cp&h table lower temperature limit:   250.0
 
   ***WARNING***
    Table T is lower than valid range for polynomial on species 30
    polynomial lower temperature limit:   300.0
    cp&h table lower temperature limit:   250.0
 
   ***WARNING***
    Table T is lower than valid range for polynomial on species 31
    polynomial lower temperature limit:   300.0
    cp&h table lower temperature limit:   250.0
 
   ***WARNING***
    Table T is lower than valid range for polynomial on species 32
    polynomial lower temperature limit:   300.0
    cp&h table lower temperature limit:   250.0
 
   ***WARNING***
    Table T is lower than valid range for polynomial on species 33
    polynomial lower temperature limit:   300.0
    cp&h table lower temperature limit:   250.0
 
   ***WARNING***
    Table T is lower than valid range for polynomial on species 34
    polynomial lower temperature limit:   300.0
    cp&h table lower temperature limit:   250.0
 
   ***WARNING***
    Table T is lower than valid range for polynomial on species 35
    polynomial lower temperature limit:   300.0
    cp&h table lower temperature limit:   250.0
 
   ***WARNING***
    Table T is lower than valid range for polynomial on species 36
    polynomial lower temperature limit:   300.0
    cp&h table lower temperature limit:   250.0
 
   ***WARNING***
    Table T is lower than valid range for polynomial on species 37
    polynomial lower temperature limit:   300.0
    cp&h table lower temperature limit:   250.0
 
   ***WARNING***
    Table T is lower than valid range for polynomial on species 38
    polynomial lower temperature limit:   300.0
    cp&h table lower temperature limit:   250.0
 
   ***WARNING***
    Table T is lower than valid range for polynomial on species 39
    polynomial lower temperature limit:   300.0
    cp&h table lower temperature limit:   250.0
 
   ***WARNING***
    Table T is lower than valid range for polynomial on species 40
    polynomial lower temperature limit:   300.0
    cp&h table lower temperature limit:   250.0
 
   ***WARNING***
    Table T is lower than valid range for polynomial on species 41
    polynomial lower temperature limit:   300.0
    cp&h table lower temperature limit:   250.0
 
   ***WARNING***
    Table T is lower than valid range for polynomial on species 42
    polynomial lower temperature limit:   300.0
    cp&h table lower temperature limit:   250.0
 
   ***WARNING***
    Table T is lower than valid range for polynomial on species 43
    polynomial lower temperature limit:   300.0
    cp&h table lower temperature limit:   250.0
 
   ***WARNING***
    Table T is lower than valid range for polynomial on species 44
    polynomial lower temperature limit:   300.0
    cp&h table lower temperature limit:   250.0
 
   ***WARNING***
    Table T is lower than valid range for polynomial on species 45
    polynomial lower temperature limit:   300.0
    cp&h table lower temperature limit:   250.0
 
   ***WARNING***
    Table T is lower than valid range for polynomial on species 46
    polynomial lower temperature limit:   300.0
    cp&h table lower temperature limit:   250.0
 
   ***WARNING***
    Table T is lower than valid range for polynomial on species 47
    polynomial lower temperature limit:   300.0
    cp&h table lower temperature limit:   250.0
 
   ***WARNING***
    Table T is lower than valid range for polynomial on species 48
    polynomial lower temperature limit:   300.0
    cp&h table lower temperature limit:   250.0
 
   ***WARNING***
    Table T is lower than valid range for polynomial on species 49
    polynomial lower temperature limit:   300.0
    cp&h table lower temperature limit:   250.0
 
   ***WARNING***
    Table T is lower than valid range for polynomial on species 50
    polynomial lower temperature limit:   300.0
    cp&h table lower temperature limit:   250.0
 
   ***WARNING***
    Table T is lower than valid range for polynomial on species 51
    polynomial lower temperature limit:   300.0
    cp&h table lower temperature limit:   250.0
 
   ***WARNING***
    Table T is lower than valid range for polynomial on species 52
    polynomial lower temperature limit:   300.0
    cp&h table lower temperature limit:   250.0
 
 ------------------------------------------------------------------------------
 initializing grid module...
 
 ------------------------------------------------------------------------------
 initializing boundary condition module...
 
 ------------------------------------------------------------------------------
 initializing variables...
 
 initializing bomb (stand back)
 
 Mixture fraction module successfully initialized...
 storing hard inflow conditions...
 
 continuing with initialization...
 
Legion Init:
Local Grid Size = ( 64,  64,  64)
Global Grid Size = (256, 128, 128)
Proc Grid Size = (  4,   2,   2)
Proc ID = (  0,   1,   0)
nvar_tot = 56, n_spec = 52, n_reg = 3, iorder = 8, iforder = 10
subranks set to 8 from environment
fuse fields set to 6 from environment
set mixed stencils to 'true' from environment
Legion Init:
Local Grid Size = ( 64,  64,  64)
Global Grid Size = (256, 128, 128)
Proc Grid Size = (  4,   2,   2)
Proc ID = (  1,   1,   1)
nvar_tot = 56, n_spec = 52, n_reg = 3, iorder = 8, iforder = 10
subranks set to 8 from environment
fuse fields set to 6 from environment
set mixed stencils to 'true' from environment
Legion Init:
Local Grid Size = ( 64,  64,  64)
Global Grid Size = (256, 128, 128)
Proc Grid Size = (  4,   2,   2)
Proc ID = (  3,   1,   0)
nvar_tot = 56, n_spec = 52, n_reg = 3, iorder = 8, iforder = 10
subranks set to 8 from environment
fuse fields set to 6 from environment
set mixed stencils to 'true' from environment
Legion Init:
Local Grid Size = ( 64,  64,  64)
Global Grid Size = (256, 128, 128)
Proc Grid Size = (  4,   2,   2)
Proc ID = (  3,   0,   0)
nvar_tot = 56, n_spec = 52, n_reg = 3, iorder = 8, iforder = 10
subranks set to 8 from environment
fuse fields set to 6 from environment
set mixed stencils to 'true' from environment
Legion Init:
Local Grid Size = ( 64,  64,  64)
Global Grid Size = (256, 128, 128)
Proc Grid Size = (  4,   2,   2)
Proc ID = (  3,   1,   1)
nvar_tot = 56, n_spec = 52, n_reg = 3, iorder = 8, iforder = 10
subranks set to 8 from environment
fuse fields set to 6 from environment
set mixed stencils to 'true' from environment
Legion Init:
Local Grid Size = ( 64,  64,  64)
Global Grid Size = (256, 128, 128)
Proc Grid Size = (  4,   2,   2)
Proc ID = (  1,   0,   1)
nvar_tot = 56, n_spec = 52, n_reg = 3, iorder = 8, iforder = 10
subranks set to 8 from environment
fuse fields set to 6 from environment
set mixed stencils to 'true' from environment
Legion Init:
Local Grid Size = ( 64,  64,  64)
Global Grid Size = (256, 128, 128)
Proc Grid Size = (  4,   2,   2)
Proc ID = (  1,   1,   0)
nvar_tot = 56, n_spec = 52, n_reg = 3, iorder = 8, iforder = 10
subranks set to 8 from environment
fuse fields set to 6 from environment
set mixed stencils to 'true' from environment
Legion Init:
Local Grid Size = ( 64,  64,  64)
Global Grid Size = (256, 128, 128)
Proc Grid Size = (  4,   2,   2)
Proc ID = (  1,   0,   0)
nvar_tot = 56, n_spec = 52, n_reg = 3, iorder = 8, iforder = 10
subranks set to 8 from environment
fuse fields set to 6 from environment
set mixed stencils to 'true' from environment
Legion Init:
Local Grid Size = ( 64,  64,  64)
Global Grid Size = (256, 128, 128)
Proc Grid Size = (  4,   2,   2)
Proc ID = (  2,   0,   0)
nvar_tot = 56, n_spec = 52, n_reg = 3, iorder = 8, iforder = 10
subranks set to 8 from environment
fuse fields set to 6 from environment
set mixed stencils to 'true' from environment
Legion Init:
Local Grid Size = ( 64,  64,  64)
Global Grid Size = (256, 128, 128)
Proc Grid Size = (  4,   2,   2)
Proc ID = (  3,   0,   1)
nvar_tot = 56, n_spec = 52, n_reg = 3, iorder = 8, iforder = 10
subranks set to 8 from environment
fuse fields set to 6 from environment
set mixed stencils to 'true' from environment
Legion Init:
Local Grid Size = ( 64,  64,  64)
Global Grid Size = (256, 128, 128)
Proc Grid Size = (  4,   2,   2)
Proc ID = (  2,   1,   0)
nvar_tot = 56, n_spec = 52, n_reg = 3, iorder = 8, iforder = 10
subranks set to 8 from environment
fuse fields set to 6 from environment
set mixed stencils to 'true' from environment
Legion Init:
Local Grid Size = ( 64,  64,  64)
Global Grid Size = (256, 128, 128)
Proc Grid Size = (  4,   2,   2)
Proc ID = (  0,   0,   1)
nvar_tot = 56, n_spec = 52, n_reg = 3, iorder = 8, iforder = 10
subranks set to 8 from environment
fuse fields set to 6 from environment
set mixed stencils to 'true' from environment
Legion Init:
Local Grid Size = ( 64,  64,  64)
Global Grid Size = (256, 128, 128)
Proc Grid Size = (  4,   2,   2)
Proc ID = (  2,   1,   1)
nvar_tot = 56, n_spec = 52, n_reg = 3, iorder = 8, iforder = 10
subranks set to 8 from environment
fuse fields set to 6 from environment
set mixed stencils to 'true' from environment
Legion Init:
Local Grid Size = ( 64,  64,  64)
Global Grid Size = (256, 128, 128)
Proc Grid Size = (  4,   2,   2)
Proc ID = (  0,   1,   1)
nvar_tot = 56, n_spec = 52, n_reg = 3, iorder = 8, iforder = 10
subranks set to 8 from environment
fuse fields set to 6 from environment
set mixed stencils to 'true' from environment
Legion Init:
Local Grid Size = ( 64,  64,  64)
Global Grid Size = (256, 128, 128)
Proc Grid Size = (  4,   2,   2)
Proc ID = (  2,   0,   1)
nvar_tot = 56, n_spec = 52, n_reg = 3, iorder = 8, iforder = 10
subranks set to 8 from environment
fuse fields set to 6 from environment
set mixed stencils to 'true' from environment
 maximum speed of sound =  572.43 m/s
 mimimum speed of sound =  546.43 m/s
 
 maximum acoustic time = 3.03E-05 sec
 minimum acoustic time = 3.17E-05 sec
 
 initialization completed for time =  0.00E+00
 ------------------------------------------------------------------------------
Legion Init:
Local Grid Size = ( 64,  64,  64)
Global Grid Size = (256, 128, 128)
Proc Grid Size = (  4,   2,   2)
Proc ID = (  0,   0,   0)
nvar_tot = 56, n_spec = 52, n_reg = 3, iorder = 8, iforder = 10
subranks set to 8 from environment
fuse fields set to 6 from environment
set mixed stencils to 'true' from environment
Pinned Memory Usage: GASNET=0, RMEM=1024, LMB=32, SDP=512, total=1568
HERE
HERE
HERE
HERE
HERE
HERE
HERE
HERE
HERE
HERE
HERE
HERE
HERE
HERE
HERE
HERE
There are 56 q fields, 107 state fields, and 1048 temp fields
There are 56 q fields, 107 state fields, and 1048 temp fields
There are 56 q fields, 107 state fields, and 1048 temp fields
There are 56 q fields, 107 state fields, and 1048 temp fields
There are 56 q fields, 107 state fields, and 1048 temp fields
There are 56 q fields, 107 state fields, and 1048 temp fields
There are 56 q fields, 107 state fields, and 1048 temp fields
There are 56 q fields, 107 state fields, and 1048 temp fields
There are 56 q fields, 107 state fields, and 1048 temp fields
There are 56 q fields, 107 state fields, and 1048 temp fields
There are 56 q fields, 107 state fields, and 1048 temp fields
There are 56 q fields, 107 state fields, and 1048 temp fields
There are 56 q fields, 107 state fields, and 1048 temp fields
There are 56 q fields, 107 state fields, and 1048 temp fields
There are 56 q fields, 107 state fields, and 1048 temp fields
There are 56 q fields, 107 state fields, and 1048 temp fields
in top level task: kfs258 (39)
Total simulation volume: 4194304
Attempting to connect 160 processors with 1 points per processor
configuring ERK: stages = 6
configuring ERK: stages = 6
configuring ERK: stages = 6
configuring ERK: stages = 6
configuring ERK: stages = 6
configuring ERK: stages = 6
configuring ERK: stages = 6
configuring ERK: stages = 6
configuring ERK: stages = 6
configuring ERK: stages = 6
configuring ERK: stages = 6
configuring ERK: stages = 6
configuring ERK: stages = 6
configuring ERK: stages = 6
configuring ERK: stages = 6
configuring ERK: stages = 6
connect_mpi finished
all mappers updated
update subrank bounds task, pt = (0, 0, 0)
args = 0x2b2e8c52f840, 192
update subrank bounds task, pt = (3, 1, 0)
args = 0x2b6b97d06620, 192
update subrank bounds task, pt = (1, 1, 0)
args = 0x2af2ff2168e0, 192
update subrank bounds task, pt = (3, 0, 1)
args = 0x2b4ac8d0a780, 192
update subrank bounds task, pt = (2, 0, 0)
args = 0x2ae52ca77100, 192
update subrank bounds task, pt = (0, 0, 1)
args = 0x2ba9a3704c00, 192
update subrank bounds task, pt = (3, 0, 0)
args = 0x2b9b80713040, 192
update subrank bounds task, pt = (3, 1, 1)
args = 0x2b297ac070c0, 192
update subrank bounds task, pt = (1, 0, 0)
args = 0x1770a80, 192
update subrank bounds task, pt = (2, 1, 0)
args = 0x2b802f501f60, 192
update subrank bounds task, pt = (2, 1, 1)
args = 0x2b155ee04420, 192
update subrank bounds task, pt = (2, 0, 1)
args = 0x1efeb00, 192
update subrank bounds task, pt = (0, 1, 1)
args = 0x2b68ce001aa0, 192
update subrank bounds task, pt = (0, 1, 0)
args = 0x2b8371b06f60, 192
update subrank bounds task, pt = (1, 1, 1)
args = 0x2b43df9031e0, 192
update subrank bounds task, pt = (1, 0, 1)
args = 0x2b01964ad920, 192
rank = 0x2874980
rank = 0x21af440
rank = 0x1808b80
rank = 0x23138a0
rank = 0x2537a80
rank = 0x14e1f60
rank = 0x305a540
rank = 0x2bc5240
rank = 0x1b3c4e0
rank = 0x269e320
rank = 0x229e600
rank = 0x140f540
rank = 0x1d36be0
rank = 0x11ea440
rank = 0x2a77800
rank = 0x22f2b40
my proc = 80000002
my proc = 80200002
 Mixture fraction module successfully initialized...
my proc = 80400002
 generating active.in file...
 
my proc = 80600002
performing full integrations
 ------------------------------------------------------------------------------
my proc = 80800002
my proc = 80a00002
my proc = 80c00002
performing full integrations
 field initialized with i_temporalfeed=           0
performing full integrations
performing full integrations
performing full integrations
performing full integrations
performing full integrations
my proc = 80e00002
performing full integrations
my proc = 81000002
my proc = 81200002
my proc = 81800002
my proc = 81a00002
my proc = 81400002
performing full integrations
my proc = 81c00002
my proc = 81600002
performing full integrations
performing full integrations
performing full integrations
my proc = 81e00002
performing full integrations
performing full integrations
performing full integrations
performing full integrations
 writing save    files for: i_time =       0, time = 0.0000E+00 (sec)
 precision is d
 ------------------------------------------------------------------------------
IO Started at 07:54.105
IO Finished at 07:54.105
Per-thread IO =           119.5MB
Total IO =          1912.6MB
Time taken =           0.000s
Total IO Rate =        InfinityMB/s
 ------------------------------------------------------------------------------
 ------------------------------------------------------------------------------
RHSF TOP Execution Time: 25446.351 ms
all done!
 writing save    files for: i_time =      10, time = 1.0000E-08 (sec)
 precision is d
 ------------------------------------------------------------------------------
IO Started at 08:20.190
IO Finished at 08:20.191
Per-thread IO =           119.5MB
Total IO =          1912.6MB
Time taken =           0.001s
Total IO Rate =     1912602.624MB/s
 ------------------------------------------------------------------------------
 ------------------------------------------------------------------------------
 ==============================================================================
 Timestepping began at: 
 date = 04/17/2014
 time = 23:07:54
 Timestepping ended at: 
 date = 04/17/2014
 time = 23:08:20
S3D Time taken:     26.1 s
S3D Cost :     10.0 microseconds per gridpoint per tiemstep
 ==============================================================================
 ------------------------------------------------------------------------------
 S3D started at:
 
 date = 04/17/2014
 time = 23:07:46
 
 S3D ended at:
 
 date = 04/17/2014
 time = 23:08:20
 ==============================================================================
 Program finished normally, goodbye!
 ==============================================================================
--------------------------------------------------------------------------
mpirun noticed that the job aborted, but has no info as to the process
that caused that situation.
--------------------------------------------------------------------------
