 ==============================================================================
 Hello, and welcome to S3D!
 ==============================================================================
 ==============================================================
 --------------------S3D BUILD CONFIGURATION-----------------
 Build directory:
  /ccs/home/mebauer/legion_s3d/leg_hept 
 ------------------------------------------------------
  S3D Options: 
 Using mixture averaged transport: ON
 Using adaptive RK integration: OFF
 Using chemical mechanism: C7H16_52species
 Using srcs for timescale analysis: OFF
 ------------------------------------------------------
  Defines:
 SYSTEMCALLWONTWORK
 SAVEFILEINSEPDIR
 ARCH_OPTERON
 BLOCKIO
 MIXAVG
 ------------------------------------------------------
  FORTRAN COMPILER FLAGS: 
  -cpp -fdefault-real-8 -fdefault-double-8 -march=bdver1 -mtune=bdver1 -O3 
  C COMPILER FLAGS: 
   
 ------------------------------------------------------
  S3D Version: 
   
   
 ------------------------------------------------------
  Chemistry routine header: 
  C                                                                      C
  C----------------------------------------------------------------------C
  C                                                                      C
        SUBROUTINE GETRATES  (P, T, Y, DIFF, DT, ICKWRK, RCKWRK, WDOT)
 ------------------------------------------------------
  Transport routine header: 
  C     CVS $Revision: 1.3 $ created $Date: 2005/06/16 22:37:27 $
  C
        SUBROUTINE MCABS
 ------------------------------------------------------
 ==============================================================
 ------------------------------------------------------------------------------
 this run started at:

 date = 04/12/2014
 time = 01:14:21
 ------------------------------------------------------------------------------
 initializing chemkin module...

 opening chemkin link file...
 setting chemkin work array lengths...
 allocating chemkin work arrays...
 filling chemkin work arrays based on chemkin link file...

 CKLIB: CHEMKIN-III GAS-PHASE CHEMICAL KINETICS LIBRARY,
 DOUBLE PRECISION Vers. 5.36 2000/12/15      
 Copyright 1995, Sandia Corporation.
 The U.S. Government retains a limited license in this software.


 number of elements in reaction mechansim =    4
 number of species in reaction mechansim  =   52
 number of steps in reaction mechansims   =   48

 the following was extracted from the ../input/chem.asc file:

 element names are as follows:
 index   name
   1     h               
   2     c               
   3     o               
   4     n               

 species names are as follows:
 index   name
   1     h               
   2     h2              
   3     o               
   4     o2              
   5     oh              
   6     h2o             
   7     co              
   8     co2             
   9     ch3             
  10     ch4             
  11     ho2             
  12     h2o2            
  13     ch2o            
  14     c2h6            
  15     c2h4            
  16     c2h5            
  17     c2h             
  18     c2h2            
  19     ch3oh           
  20     ch2co           
  21     hcco            
  22     ch3cho          
  23     c3h4-a          
  24     c3h4-p          
  25     c3h6            
  26     c4h6            
  27     c4h7            
  28     c4h8-1          
  29     pc4h9           
  30     ch3coch2        
  31     c2h5cho         
  32     c5h9            
  33     c5h10-1         
  34     c5h11-1         
  35     ch3o2           
  36     ch3o2h          
  37     c2h3co          
  38     c2h3cho         
  39     c3h5-a          
  40     c3h3            
  41     nc3h7cho        
  42     c2h5coch2       
  43     ch3chco         
  44     nc3h7coch3      
  45     nc3h7coch2      
  46     nc7h16          
  47     c7h15-1         
  48     c7h15o2         
  49     c7h14ooho2      
  50     c7h14o          
  51     nc7ket          
  52     n2              

 species molecular weights are as follows:
 index   name  value (kg/mol)
   1     h                 1.00797E-03
   2     h2                2.01594E-03
   3     o                 1.59994E-02
   4     o2                3.19988E-02
   5     oh                1.70074E-02
   6     h2o               1.80153E-02
   7     co                2.80106E-02
   8     co2               4.40100E-02
   9     ch3               1.50351E-02
  10     ch4               1.60430E-02
  11     ho2               3.30068E-02
  12     h2o2              3.40147E-02
  13     ch2o              3.00265E-02
  14     c2h6              3.00701E-02
  15     c2h4              2.80542E-02
  16     c2h5              2.90622E-02
  17     c2h               2.50303E-02
  18     c2h2              2.60382E-02
  19     ch3oh             3.20424E-02
  20     ch2co             4.20376E-02
  21     hcco              4.10297E-02
  22     ch3cho            4.40536E-02
  23     c3h4-a            4.00653E-02
  24     c3h4-p            4.00653E-02
  25     c3h6              4.20813E-02
  26     c4h6              5.40924E-02
  27     c4h7              5.51004E-02
  28     c4h8-1            5.61084E-02
  29     pc4h9             5.71163E-02
  30     ch3coch2          5.70727E-02
  31     c2h5cho           5.80807E-02
  32     c5h9              6.91275E-02
  33     c5h10-1           7.01355E-02
  34     c5h11-1           7.11434E-02
  35     ch3o2             4.70339E-02
  36     ch3o2h            4.80418E-02
  37     c2h3co            5.50568E-02
  38     c2h3cho           5.60647E-02
  39     c3h5-a            4.10733E-02
  40     c3h3              3.90574E-02
  41     nc3h7cho          7.21078E-02
  42     c2h5coch2         7.10998E-02
  43     ch3chco           5.60647E-02
  44     nc3h7coch3        8.61348E-02
  45     nc3h7coch2        8.51269E-02
  46     nc7h16            1.00206E-01
  47     c7h15-1           9.91976E-02
  48     c7h15o2           1.31196E-01
  49     c7h14ooho2        1.63195E-01
  50     c7h14o            1.14189E-01
  51     nc7ket            1.46188E-01
  52     n2                2.80134E-02

 opening stiff.in ...
 ------------------------------------------------------------------------------
 initializing param module...

 number of elements in reaction mechansim =    4
 number of species in reaction mechansim  =   52
 number of steps in reaction mechansims   =   48

 number of reaction third-body reactions =    0
 ------------------------------------------------------------------------------
 initializing topology module...

 Initialized topology module, npx =     4 npy =     4 npz =     4 npes =    64
 ------------------------------------------------------------------------------
 Fastest chemical timescale is:    0.0000000000000000       (s)
 initializing reference module...

 the various reference values are as follows:

   universal gas constant (J/mol-K)   =  8.31451E+00
   freestream temperature (K)         =  3.00000E+02
   reference ratio of specifice heats =  1.40000E+00
   reference speed of sound (m/s)     =  3.47200E+02
   reference density (kg/m^3)         =  1.17660E+00
   reference conductivity (W/m-K)     =  2.61400E-02
   reference temperature (K)          =  1.20000E+02
   reference pressure (Pa)            =  1.41837E+05
   standard atmospheric pressure (Pa) =  1.01325E+05
   reference time (s)                 =  1.29889E-05
   reference specific heat (J/kg-K)   =  1.00457E+03
   reference length (m)               =  4.50975E-03
   reference viscosity (Pa-s)         =  1.84230E+00
   acoustic Reynolds number           =  1.00000E+05
   Mach number                        =  1.00000E-03
   convective Reynolds number         =  1.00000E+02

 ------------------------------------------------------------------------------
 initializing ERK module...

 ERK module information is as follows:

   rk_method                =  -64
   cont_switch              =    0
   tstep_init (seconds)     =  1.00E-09
   tstep_min (seconds)      =  1.00E-09
   tstep_max (seconds)      =  1.00E-03
   rk_rtol                  =  1.00E-03
   rk_atol                  =  1.00E-15
   cont_safety              =  9.00E-01
   k_I                      =  2.00E-01
   k_P                      =  2.00E-01
   k_D                      =  5.00E-02
   k_D2                     =  0.00E+00
   cont_factor              =  3.00E+00
   cfl_switch               =    1
   i_time_cont              =   20

   cont_n_reg               =    1
   controller type          = NONE

   rk_tol                   =  1.00E-12

   using RK4(3)6[2R+]C ERK scheme!
 ------------------------------------------------------------------------------
 initializing transport module...
 
 opening mixavg.in ...
 Lagging is switched on
 WARNING - with coefficient lagging, theoretical
 temporal convergence order may not be observed

 opening transport link file...
 setting lengths of transport work arrays...
 allocating transport work arrays...
 creating transport work arrays from transport link file...

 TRANLIB:  CHEMKIN-III MULTICOMPONENT TRANSPORT LIBRARY,
 DOUBLE PRECISION Vers. 4.6 1999/06/03      
 Copyright 1995, Sandia Corporation.
 The U.S. Government retains a limited license in this software.


 ------------------------------------------------------------------------------
 initializing filter module...

 using explicit filter of order 10
 filter will be applied every     0 time steps
 ------------------------------------------------------------------------------
 initializing derivative module...

 ------------------------------------------------------------------------------
 initializing thermchem module...

   ***WARNING***
    Table T is lower than valid range for polynomial on species  1
    polynomial lower temperature limit:   300.0
    cp&h table lower temperature limit:   250.0

   ***WARNING***
    Table T is lower than valid range for polynomial on species  2
    polynomial lower temperature limit:   300.0
    cp&h table lower temperature limit:   250.0

   ***WARNING***
    Table T is lower than valid range for polynomial on species  3
    polynomial lower temperature limit:   300.0
    cp&h table lower temperature limit:   250.0

   ***WARNING***
    Table T is lower than valid range for polynomial on species  4
    polynomial lower temperature limit:   300.0
    cp&h table lower temperature limit:   250.0

   ***WARNING***
    Table T is lower than valid range for polynomial on species  5
    polynomial lower temperature limit:   300.0
    cp&h table lower temperature limit:   250.0

   ***WARNING***
    Table T is lower than valid range for polynomial on species  6
    polynomial lower temperature limit:   300.0
    cp&h table lower temperature limit:   250.0

   ***WARNING***
    Table T is lower than valid range for polynomial on species  7
    polynomial lower temperature limit:   300.0
    cp&h table lower temperature limit:   250.0

   ***WARNING***
    Table T is lower than valid range for polynomial on species  8
    polynomial lower temperature limit:   300.0
    cp&h table lower temperature limit:   250.0

   ***WARNING***
    Table T is lower than valid range for polynomial on species  9
    polynomial lower temperature limit:   300.0
    cp&h table lower temperature limit:   250.0

   ***WARNING***
    Table T is lower than valid range for polynomial on species 10
    polynomial lower temperature limit:   300.0
    cp&h table lower temperature limit:   250.0

   ***WARNING***
    Table T is lower than valid range for polynomial on species 11
    polynomial lower temperature limit:   300.0
    cp&h table lower temperature limit:   250.0

   ***WARNING***
    Table T is lower than valid range for polynomial on species 12
    polynomial lower temperature limit:   300.0
    cp&h table lower temperature limit:   250.0

   ***WARNING***
    Table T is lower than valid range for polynomial on species 13
    polynomial lower temperature limit:   300.0
    cp&h table lower temperature limit:   250.0

   ***WARNING***
    Table T is lower than valid range for polynomial on species 14
    polynomial lower temperature limit:   300.0
    cp&h table lower temperature limit:   250.0

   ***WARNING***
    Table T is lower than valid range for polynomial on species 15
    polynomial lower temperature limit:   300.0
    cp&h table lower temperature limit:   250.0

   ***WARNING***
    Table T is lower than valid range for polynomial on species 16
    polynomial lower temperature limit:   300.0
    cp&h table lower temperature limit:   250.0

   ***WARNING***
    Table T is lower than valid range for polynomial on species 17
    polynomial lower temperature limit:   300.0
    cp&h table lower temperature limit:   250.0

   ***WARNING***
    Table T is lower than valid range for polynomial on species 18
    polynomial lower temperature limit:   300.0
    cp&h table lower temperature limit:   250.0

   ***WARNING***
    Table T is lower than valid range for polynomial on species 19
    polynomial lower temperature limit:   300.0
    cp&h table lower temperature limit:   250.0

   ***WARNING***
    Table T is lower than valid range for polynomial on species 20
    polynomial lower temperature limit:   300.0
    cp&h table lower temperature limit:   250.0

   ***WARNING***
    Table T is lower than valid range for polynomial on species 21
    polynomial lower temperature limit:   300.0
    cp&h table lower temperature limit:   250.0

   ***WARNING***
    Table T is lower than valid range for polynomial on species 22
    polynomial lower temperature limit:   300.0
    cp&h table lower temperature limit:   250.0

   ***WARNING***
    Table T is lower than valid range for polynomial on species 23
    polynomial lower temperature limit:   300.0
    cp&h table lower temperature limit:   250.0

   ***WARNING***
    Table T is lower than valid range for polynomial on species 24
    polynomial lower temperature limit:   300.0
    cp&h table lower temperature limit:   250.0

   ***WARNING***
    Table T is lower than valid range for polynomial on species 25
    polynomial lower temperature limit:   300.0
    cp&h table lower temperature limit:   250.0

   ***WARNING***
    Table T is lower than valid range for polynomial on species 26
    polynomial lower temperature limit:   300.0
    cp&h table lower temperature limit:   250.0

   ***WARNING***
    Table T is lower than valid range for polynomial on species 27
    polynomial lower temperature limit:   300.0
    cp&h table lower temperature limit:   250.0

   ***WARNING***
    Table T is lower than valid range for polynomial on species 28
    polynomial lower temperature limit:   300.0
    cp&h table lower temperature limit:   250.0

   ***WARNING***
    Table T is lower than valid range for polynomial on species 29
    polynomial lower temperature limit:   300.0
    cp&h table lower temperature limit:   250.0

   ***WARNING***
    Table T is lower than valid range for polynomial on species 30
    polynomial lower temperature limit:   300.0
    cp&h table lower temperature limit:   250.0

   ***WARNING***
    Table T is lower than valid range for polynomial on species 31
    polynomial lower temperature limit:   300.0
    cp&h table lower temperature limit:   250.0

   ***WARNING***
    Table T is lower than valid range for polynomial on species 32
    polynomial lower temperature limit:   300.0
    cp&h table lower temperature limit:   250.0

   ***WARNING***
    Table T is lower than valid range for polynomial on species 33
    polynomial lower temperature limit:   300.0
    cp&h table lower temperature limit:   250.0

   ***WARNING***
    Table T is lower than valid range for polynomial on species 34
    polynomial lower temperature limit:   300.0
    cp&h table lower temperature limit:   250.0

   ***WARNING***
    Table T is lower than valid range for polynomial on species 35
    polynomial lower temperature limit:   300.0
    cp&h table lower temperature limit:   250.0

   ***WARNING***
    Table T is lower than valid range for polynomial on species 36
    polynomial lower temperature limit:   300.0
    cp&h table lower temperature limit:   250.0

   ***WARNING***
    Table T is lower than valid range for polynomial on species 37
    polynomial lower temperature limit:   300.0
    cp&h table lower temperature limit:   250.0

   ***WARNING***
    Table T is lower than valid range for polynomial on species 38
    polynomial lower temperature limit:   300.0
    cp&h table lower temperature limit:   250.0

   ***WARNING***
    Table T is lower than valid range for polynomial on species 39
    polynomial lower temperature limit:   300.0
    cp&h table lower temperature limit:   250.0

   ***WARNING***
    Table T is lower than valid range for polynomial on species 40
    polynomial lower temperature limit:   300.0
    cp&h table lower temperature limit:   250.0

   ***WARNING***
    Table T is lower than valid range for polynomial on species 41
    polynomial lower temperature limit:   300.0
    cp&h table lower temperature limit:   250.0

   ***WARNING***
    Table T is lower than valid range for polynomial on species 42
    polynomial lower temperature limit:   300.0
    cp&h table lower temperature limit:   250.0

   ***WARNING***
    Table T is lower than valid range for polynomial on species 43
    polynomial lower temperature limit:   300.0
    cp&h table lower temperature limit:   250.0

   ***WARNING***
    Table T is lower than valid range for polynomial on species 44
    polynomial lower temperature limit:   300.0
    cp&h table lower temperature limit:   250.0

   ***WARNING***
    Table T is lower than valid range for polynomial on species 45
    polynomial lower temperature limit:   300.0
    cp&h table lower temperature limit:   250.0

   ***WARNING***
    Table T is lower than valid range for polynomial on species 46
    polynomial lower temperature limit:   300.0
    cp&h table lower temperature limit:   250.0

   ***WARNING***
    Table T is lower than valid range for polynomial on species 47
    polynomial lower temperature limit:   300.0
    cp&h table lower temperature limit:   250.0

   ***WARNING***
    Table T is lower than valid range for polynomial on species 48
    polynomial lower temperature limit:   300.0
    cp&h table lower temperature limit:   250.0

   ***WARNING***
    Table T is lower than valid range for polynomial on species 49
    polynomial lower temperature limit:   300.0
    cp&h table lower temperature limit:   250.0

   ***WARNING***
    Table T is lower than valid range for polynomial on species 50
    polynomial lower temperature limit:   300.0
    cp&h table lower temperature limit:   250.0

   ***WARNING***
    Table T is lower than valid range for polynomial on species 51
    polynomial lower temperature limit:   300.0
    cp&h table lower temperature limit:   250.0

   ***WARNING***
    Table T is lower than valid range for polynomial on species 52
    polynomial lower temperature limit:   300.0
    cp&h table lower temperature limit:   250.0

 ------------------------------------------------------------------------------
 initializing grid module...

 ------------------------------------------------------------------------------
 initializing boundary condition module...

 ------------------------------------------------------------------------------
 initializing variables...

 initializing bomb (stand back)

 Mixture fraction module successfully initialized...
 storing hard inflow conditions...

 continuing with initialization...

 maximum speed of sound =  572.44 m/s
 mimimum speed of sound =  546.43 m/s

 maximum acoustic time = 3.03E-05 sec
 minimum acoustic time = 3.17E-05 sec

 initialization completed for time =  0.00E+00
 ------------------------------------------------------------------------------
Legion Init:
Local Grid Size = ( 48,  48,  48)
Global Grid Size = (192, 192, 192)
Proc Grid Size = (  4,   4,   4)
Proc ID = (  0,   0,   0)
nvar_tot = 56, n_spec = 52, n_reg = 3, iorder = 8, iforder = 10
subranks set to 0 from environment
fuse fields set to 13 from environment
set all gpus to 'true' from environment
Legion Init:
Local Grid Size = ( 48,  48,  48)
Global Grid Size = (192, 192, 192)
Proc Grid Size = (  4,   4,   4)
Proc ID = (  3,   3,   3)
nvar_tot = 56, n_spec = 52, n_reg = 3, iorder = 8, iforder = 10
subranks set to 0 from environment
fuse fields set to 13 from environment
set all gpus to 'true' from environment
Legion Init:
Local Grid Size = ( 48,  48,  48)
Global Grid Size = (192, 192, 192)
Proc Grid Size = (  4,   4,   4)
Proc ID = (  3,   2,   2)
nvar_tot = 56, n_spec = 52, n_reg = 3, iorder = 8, iforder = 10
subranks set to 0 from environment
fuse fields set to 13 from environment
set all gpus to 'true' from environment
Legion Init:
Local Grid Size = ( 48,  48,  48)
Global Grid Size = (192, 192, 192)
Proc Grid Size = (  4,   4,   4)
Proc ID = (  1,   2,   1)
nvar_tot = 56, n_spec = 52, n_reg = 3, iorder = 8, iforder = 10
subranks set to 0 from environment
fuse fields set to 13 from environment
set all gpus to 'true' from environment
Legion Init:
Local Grid Size = ( 48,  48,  48)
Global Grid Size = (192, 192, 192)
Proc Grid Size = (  4,   4,   4)
Proc ID = (  0,   3,   2)
nvar_tot = 56, n_spec = 52, n_reg = 3, iorder = 8, iforder = 10
subranks set to 0 from environment
fuse fields set to 13 from environment
set all gpus to 'true' from environment
Legion Init:
Local Grid Size = ( 48,  48,  48)
Global Grid Size = (192, 192, 192)
Proc Grid Size = (  4,   4,   4)
Proc ID = (  3,   1,   0)
nvar_tot = 56, n_spec = 52, n_reg = 3, iorder = 8, iforder = 10
subranks set to 0 from environment
fuse fields set to 13 from environment
set all gpus to 'true' from environment
Legion Init:
Local Grid Size = ( 48,  48,  48)
Global Grid Size = (192, 192, 192)
Proc Grid Size = (  4,   4,   4)
Proc ID = (  0,   2,   0)
nvar_tot = 56, n_spec = 52, n_reg = 3, iorder = 8, iforder = 10
subranks set to 0 from environment
fuse fields set to 13 from environment
set all gpus to 'true' from environment
Legion Init:
Local Grid Size = ( 48,  48,  48)
Global Grid Size = (192, 192, 192)
Proc Grid Size = (  4,   4,   4)
Proc ID = (  3,   0,   2)
nvar_tot = 56, n_spec = 52, n_reg = 3, iorder = 8, iforder = 10
subranks set to 0 from environment
fuse fields set to 13 from environment
set all gpus to 'true' from environment
Legion Init:
Local Grid Size = ( 48,  48,  48)
Global Grid Size = (192, 192, 192)
Proc Grid Size = (  4,   4,   4)
Proc ID = (  1,   3,   3)
nvar_tot = 56, n_spec = 52, n_reg = 3, iorder = 8, iforder = 10
subranks set to 0 from environment
fuse fields set to 13 from environment
set all gpus to 'true' from environment
Legion Init:
Local Grid Size = ( 48,  48,  48)
Global Grid Size = (192, 192, 192)
Proc Grid Size = (  4,   4,   4)
Proc ID = (  3,   0,   3)
nvar_tot = 56, n_spec = 52, n_reg = 3, iorder = 8, iforder = 10
subranks set to 0 from environment
fuse fields set to 13 from environment
set all gpus to 'true' from environment
Legion Init:
Local Grid Size = ( 48,  48,  48)
Global Grid Size = (192, 192, 192)
Proc Grid Size = (  4,   4,   4)
Proc ID = (  0,   1,   2)
nvar_tot = 56, n_spec = 52, n_reg = 3, iorder = 8, iforder = 10
subranks set to 0 from environment
fuse fields set to 13 from environment
set all gpus to 'true' from environment
Legion Init:
Local Grid Size = ( 48,  48,  48)
Global Grid Size = (192, 192, 192)
Proc Grid Size = (  4,   4,   4)
Proc ID = (  3,   1,   1)
nvar_tot = 56, n_spec = 52, n_reg = 3, iorder = 8, iforder = 10
subranks set to 0 from environment
fuse fields set to 13 from environment
set all gpus to 'true' from environment
Legion Init:
Local Grid Size = ( 48,  48,  48)
Global Grid Size = (192, 192, 192)
Proc Grid Size = (  4,   4,   4)
Proc ID = (  3,   2,   3)
nvar_tot = 56, n_spec = 52, n_reg = 3, iorder = 8, iforder = 10
subranks set to 0 from environment
fuse fields set to 13 from environment
set all gpus to 'true' from environment
Legion Init:
Local Grid Size = ( 48,  48,  48)
Global Grid Size = (192, 192, 192)
Proc Grid Size = (  4,   4,   4)
Proc ID = (  3,   1,   3)
nvar_tot = 56, n_spec = 52, n_reg = 3, iorder = 8, iforder = 10
subranks set to 0 from environment
fuse fields set to 13 from environment
set all gpus to 'true' from environment
Legion Init:
Local Grid Size = ( 48,  48,  48)
Global Grid Size = (192, 192, 192)
Proc Grid Size = (  4,   4,   4)
Proc ID = (  1,   0,   3)
nvar_tot = 56, n_spec = 52, n_reg = 3, iorder = 8, iforder = 10
subranks set to 0 from environment
fuse fields set to 13 from environment
set all gpus to 'true' from environment
Legion Init:
Local Grid Size = ( 48,  48,  48)
Global Grid Size = (192, 192, 192)
Proc Grid Size = (  4,   4,   4)
Proc ID = (  3,   3,   1)
nvar_tot = 56, n_spec = 52, n_reg = 3, iorder = 8, iforder = 10
subranks set to 0 from environment
fuse fields set to 13 from environment
set all gpus to 'true' from environment
Legion Init:
Local Grid Size = ( 48,  48,  48)
Global Grid Size = (192, 192, 192)
Proc Grid Size = (  4,   4,   4)
Proc ID = (  1,   1,   1)
nvar_tot = 56, n_spec = 52, n_reg = 3, iorder = 8, iforder = 10
subranks set to 0 from environment
fuse fields set to 13 from environment
set all gpus to 'true' from environment
Legion Init:
Local Grid Size = ( 48,  48,  48)
Global Grid Size = (192, 192, 192)
Proc Grid Size = (  4,   4,   4)
Proc ID = (  3,   0,   0)
nvar_tot = 56, n_spec = 52, n_reg = 3, iorder = 8, iforder = 10
subranks set to 0 from environment
fuse fields set to 13 from environment
set all gpus to 'true' from environment
Legion Init:
Local Grid Size = ( 48,  48,  48)
Global Grid Size = (192, 192, 192)
Proc Grid Size = (  4,   4,   4)
Proc ID = (  0,   2,   3)
nvar_tot = 56, n_spec = 52, n_reg = 3, iorder = 8, iforder = 10
subranks set to 0 from environment
fuse fields set to 13 from environment
set all gpus to 'true' from environment
Legion Init:
Local Grid Size = ( 48,  48,  48)
Global Grid Size = (192, 192, 192)
Proc Grid Size = (  4,   4,   4)
Proc ID = (  1,   3,   2)
nvar_tot = 56, n_spec = 52, n_reg = 3, iorder = 8, iforder = 10
subranks set to 0 from environment
fuse fields set to 13 from environment
set all gpus to 'true' from environment
Legion Init:
Local Grid Size = ( 48,  48,  48)
Global Grid Size = (192, 192, 192)
Proc Grid Size = (  4,   4,   4)
Proc ID = (  3,   1,   2)
nvar_tot = 56, n_spec = 52, n_reg = 3, iorder = 8, iforder = 10
subranks set to 0 from environment
fuse fields set to 13 from environment
set all gpus to 'true' from environment
Legion Init:
Local Grid Size = ( 48,  48,  48)
Global Grid Size = (192, 192, 192)
Proc Grid Size = (  4,   4,   4)
Proc ID = (  1,   0,   2)
nvar_tot = 56, n_spec = 52, n_reg = 3, iorder = 8, iforder = 10
subranks set to 0 from environment
fuse fields set to 13 from environment
set all gpus to 'true' from environment
Legion Init:
Local Grid Size = ( 48,  48,  48)
Global Grid Size = (192, 192, 192)
Proc Grid Size = (  4,   4,   4)
Proc ID = (  2,   1,   1)
nvar_tot = 56, n_spec = 52, n_reg = 3, iorder = 8, iforder = 10
subranks set to 0 from environment
fuse fields set to 13 from environment
set all gpus to 'true' from environment
Legion Init:
Local Grid Size = ( 48,  48,  48)
Global Grid Size = (192, 192, 192)
Proc Grid Size = (  4,   4,   4)
Proc ID = (  0,   2,   2)
nvar_tot = 56, n_spec = 52, n_reg = 3, iorder = 8, iforder = 10
subranks set to 0 from environment
fuse fields set to 13 from environment
set all gpus to 'true' from environment
Legion Init:
Local Grid Size = ( 48,  48,  48)
Global Grid Size = (192, 192, 192)
Proc Grid Size = (  4,   4,   4)
Proc ID = (  2,   0,   2)
nvar_tot = 56, n_spec = 52, n_reg = 3, iorder = 8, iforder = 10
subranks set to 0 from environment
fuse fields set to 13 from environment
set all gpus to 'true' from environment
Legion Init:
Local Grid Size = ( 48,  48,  48)
Global Grid Size = (192, 192, 192)
Proc Grid Size = (  4,   4,   4)
Proc ID = (  1,   3,   0)
nvar_tot = 56, n_spec = 52, n_reg = 3, iorder = 8, iforder = 10
subranks set to 0 from environment
fuse fields set to 13 from environment
set all gpus to 'true' from environment
Legion Init:
Local Grid Size = ( 48,  48,  48)
Global Grid Size = (192, 192, 192)
Proc Grid Size = (  4,   4,   4)
Proc ID = (  3,   2,   0)
nvar_tot = 56, n_spec = 52, n_reg = 3, iorder = 8, iforder = 10
subranks set to 0 from environment
fuse fields set to 13 from environment
set all gpus to 'true' from environment
Legion Init:
Local Grid Size = ( 48,  48,  48)
Global Grid Size = (192, 192, 192)
Proc Grid Size = (  4,   4,   4)
Proc ID = (  1,   0,   0)
nvar_tot = 56, n_spec = 52, n_reg = 3, iorder = 8, iforder = 10
subranks set to 0 from environment
fuse fields set to 13 from environment
set all gpus to 'true' from environment
Legion Init:
Local Grid Size = ( 48,  48,  48)
Global Grid Size = (192, 192, 192)
Proc Grid Size = (  4,   4,   4)
Proc ID = (  1,   2,   3)
nvar_tot = 56, n_spec = 52, n_reg = 3, iorder = 8, iforder = 10
subranks set to 0 from environment
fuse fields set to 13 from environment
set all gpus to 'true' from environment
Legion Init:
Local Grid Size = ( 48,  48,  48)
Global Grid Size = (192, 192, 192)
Proc Grid Size = (  4,   4,   4)
Proc ID = (  3,   3,   2)
nvar_tot = 56, n_spec = 52, n_reg = 3, iorder = 8, iforder = 10
subranks set to 0 from environment
fuse fields set to 13 from environment
set all gpus to 'true' from environment
Legion Init:
Local Grid Size = ( 48,  48,  48)
Global Grid Size = (192, 192, 192)
Proc Grid Size = (  4,   4,   4)
Proc ID = (  1,   0,   1)
nvar_tot = 56, n_spec = 52, n_reg = 3, iorder = 8, iforder = 10
subranks set to 0 from environment
fuse fields set to 13 from environment
set all gpus to 'true' from environment
Legion Init:
Local Grid Size = ( 48,  48,  48)
Global Grid Size = (192, 192, 192)
Proc Grid Size = (  4,   4,   4)
Proc ID = (  2,   3,   0)
nvar_tot = 56, n_spec = 52, n_reg = 3, iorder = 8, iforder = 10
subranks set to 0 from environment
fuse fields set to 13 from environment
set all gpus to 'true' from environment
Legion Init:
Local Grid Size = ( 48,  48,  48)
Global Grid Size = (192, 192, 192)
Proc Grid Size = (  4,   4,   4)
Proc ID = (  1,   2,   0)
nvar_tot = 56, n_spec = 52, n_reg = 3, iorder = 8, iforder = 10
subranks set to 0 from environment
fuse fields set to 13 from environment
set all gpus to 'true' from environment
Legion Init:
Local Grid Size = ( 48,  48,  48)
Global Grid Size = (192, 192, 192)
Proc Grid Size = (  4,   4,   4)
Proc ID = (  2,   0,   3)
nvar_tot = 56, n_spec = 52, n_reg = 3, iorder = 8, iforder = 10
subranks set to 0 from environment
fuse fields set to 13 from environment
set all gpus to 'true' from environment
Legion Init:
Local Grid Size = ( 48,  48,  48)
Global Grid Size = (192, 192, 192)
Proc Grid Size = (  4,   4,   4)
Proc ID = (  0,   0,   3)
nvar_tot = 56, n_spec = 52, n_reg = 3, iorder = 8, iforder = 10
subranks set to 0 from environment
fuse fields set to 13 from environment
set all gpus to 'true' from environment
Legion Init:
Local Grid Size = ( 48,  48,  48)
Global Grid Size = (192, 192, 192)
Proc Grid Size = (  4,   4,   4)
Proc ID = (  2,   3,   2)
nvar_tot = 56, n_spec = 52, n_reg = 3, iorder = 8, iforder = 10
subranks set to 0 from environment
fuse fields set to 13 from environment
set all gpus to 'true' from environment
Legion Init:
Local Grid Size = ( 48,  48,  48)
Global Grid Size = (192, 192, 192)
Proc Grid Size = (  4,   4,   4)
Proc ID = (  1,   1,   2)
nvar_tot = 56, n_spec = 52, n_reg = 3, iorder = 8, iforder = 10
subranks set to 0 from environment
fuse fields set to 13 from environment
set all gpus to 'true' from environment
Legion Init:
Local Grid Size = ( 48,  48,  48)
Global Grid Size = (192, 192, 192)
Proc Grid Size = (  4,   4,   4)
Proc ID = (  3,   2,   1)
nvar_tot = 56, n_spec = 52, n_reg = 3, iorder = 8, iforder = 10
subranks set to 0 from environment
fuse fields set to 13 from environment
set all gpus to 'true' from environment
Legion Init:
Local Grid Size = ( 48,  48,  48)
Global Grid Size = (192, 192, 192)
Proc Grid Size = (  4,   4,   4)
Proc ID = (  2,   0,   1)
nvar_tot = 56, n_spec = 52, n_reg = 3, iorder = 8, iforder = 10
subranks set to 0 from environment
fuse fields set to 13 from environment
set all gpus to 'true' from environment
Legion Init:
Local Grid Size = ( 48,  48,  48)
Global Grid Size = (192, 192, 192)
Proc Grid Size = (  4,   4,   4)
Proc ID = (  3,   3,   0)
nvar_tot = 56, n_spec = 52, n_reg = 3, iorder = 8, iforder = 10
subranks set to 0 from environment
fuse fields set to 13 from environment
set all gpus to 'true' from environment
Legion Init:
Local Grid Size = ( 48,  48,  48)
Global Grid Size = (192, 192, 192)
Proc Grid Size = (  4,   4,   4)
Proc ID = (  0,   3,   1)
nvar_tot = 56, n_spec = 52, n_reg = 3, iorder = 8, iforder = 10
subranks set to 0 from environment
fuse fields set to 13 from environment
set all gpus to 'true' from environment
Legion Init:
Local Grid Size = ( 48,  48,  48)
Global Grid Size = (192, 192, 192)
Proc Grid Size = (  4,   4,   4)
Proc ID = (  3,   0,   1)
nvar_tot = 56, n_spec = 52, n_reg = 3, iorder = 8, iforder = 10
subranks set to 0 from environment
fuse fields set to 13 from environment
set all gpus to 'true' from environment
Legion Init:
Local Grid Size = ( 48,  48,  48)
Global Grid Size = (192, 192, 192)
Proc Grid Size = (  4,   4,   4)
Proc ID = (  0,   0,   1)
nvar_tot = 56, n_spec = 52, n_reg = 3, iorder = 8, iforder = 10
subranks set to 0 from environment
fuse fields set to 13 from environment
set all gpus to 'true' from environment
Legion Init:
Local Grid Size = ( 48,  48,  48)
Global Grid Size = (192, 192, 192)
Proc Grid Size = (  4,   4,   4)
Proc ID = (  0,   3,   0)
nvar_tot = 56, n_spec = 52, n_reg = 3, iorder = 8, iforder = 10
subranks set to 0 from environment
fuse fields set to 13 from environment
set all gpus to 'true' from environment
Legion Init:
Local Grid Size = ( 48,  48,  48)
Global Grid Size = (192, 192, 192)
Proc Grid Size = (  4,   4,   4)
Proc ID = (  2,   2,   0)
nvar_tot = 56, n_spec = 52, n_reg = 3, iorder = 8, iforder = 10
subranks set to 0 from environment
fuse fields set to 13 from environment
set all gpus to 'true' from environment
Legion Init:
Local Grid Size = ( 48,  48,  48)
Global Grid Size = (192, 192, 192)
Proc Grid Size = (  4,   4,   4)
Proc ID = (  2,   3,   3)
nvar_tot = 56, n_spec = 52, n_reg = 3, iorder = 8, iforder = 10
subranks set to 0 from environment
fuse fields set to 13 from environment
set all gpus to 'true' from environment
Legion Init:
Local Grid Size = ( 48,  48,  48)
Global Grid Size = (192, 192, 192)
Proc Grid Size = (  4,   4,   4)
Proc ID = (  1,   2,   2)
nvar_tot = 56, n_spec = 52, n_reg = 3, iorder = 8, iforder = 10
subranks set to 0 from environment
fuse fields set to 13 from environment
set all gpus to 'true' from environment
Legion Init:
Local Grid Size = ( 48,  48,  48)
Global Grid Size = (192, 192, 192)
Proc Grid Size = (  4,   4,   4)
Proc ID = (  1,   3,   1)
nvar_tot = 56, n_spec = 52, n_reg = 3, iorder = 8, iforder = 10
subranks set to 0 from environment
fuse fields set to 13 from environment
set all gpus to 'true' from environment
Legion Init:
Local Grid Size = ( 48,  48,  48)
Global Grid Size = (192, 192, 192)
Proc Grid Size = (  4,   4,   4)
Proc ID = (  0,   2,   1)
nvar_tot = 56, n_spec = 52, n_reg = 3, iorder = 8, iforder = 10
subranks set to 0 from environment
fuse fields set to 13 from environment
set all gpus to 'true' from environment
Legion Init:
Local Grid Size = ( 48,  48,  48)
Global Grid Size = (192, 192, 192)
Proc Grid Size = (  4,   4,   4)
Proc ID = (  1,   1,   0)
nvar_tot = 56, n_spec = 52, n_reg = 3, iorder = 8, iforder = 10
subranks set to 0 from environment
fuse fields set to 13 from environment
set all gpus to 'true' from environment
Legion Init:
Local Grid Size = ( 48,  48,  48)
Global Grid Size = (192, 192, 192)
Proc Grid Size = (  4,   4,   4)
Proc ID = (  1,   1,   3)
nvar_tot = 56, n_spec = 52, n_reg = 3, iorder = 8, iforder = 10
subranks set to 0 from environment
fuse fields set to 13 from environment
set all gpus to 'true' from environment
Legion Init:
Local Grid Size = ( 48,  48,  48)
Global Grid Size = (192, 192, 192)
Proc Grid Size = (  4,   4,   4)
Proc ID = (  2,   1,   2)
nvar_tot = 56, n_spec = 52, n_reg = 3, iorder = 8, iforder = 10
subranks set to 0 from environment
fuse fields set to 13 from environment
set all gpus to 'true' from environment
Legion Init:
Local Grid Size = ( 48,  48,  48)
Global Grid Size = (192, 192, 192)
Proc Grid Size = (  4,   4,   4)
Proc ID = (  2,   1,   0)
nvar_tot = 56, n_spec = 52, n_reg = 3, iorder = 8, iforder = 10
subranks set to 0 from environment
fuse fields set to 13 from environment
set all gpus to 'true' from environment
Legion Init:
Local Grid Size = ( 48,  48,  48)
Global Grid Size = (192, 192, 192)
Proc Grid Size = (  4,   4,   4)
Proc ID = (  0,   1,   0)
nvar_tot = 56, n_spec = 52, n_reg = 3, iorder = 8, iforder = 10
subranks set to 0 from environment
fuse fields set to 13 from environment
set all gpus to 'true' from environment
Legion Init:
Local Grid Size = ( 48,  48,  48)
Global Grid Size = (192, 192, 192)
Proc Grid Size = (  4,   4,   4)
Proc ID = (  2,   0,   0)
nvar_tot = 56, n_spec = 52, n_reg = 3, iorder = 8, iforder = 10
subranks set to 0 from environment
fuse fields set to 13 from environment
set all gpus to 'true' from environment
Legion Init:
Local Grid Size = ( 48,  48,  48)
Global Grid Size = (192, 192, 192)
Proc Grid Size = (  4,   4,   4)
Proc ID = (  2,   1,   3)
nvar_tot = 56, n_spec = 52, n_reg = 3, iorder = 8, iforder = 10
subranks set to 0 from environment
fuse fields set to 13 from environment
set all gpus to 'true' from environment
Legion Init:
Local Grid Size = ( 48,  48,  48)
Global Grid Size = (192, 192, 192)
Proc Grid Size = (  4,   4,   4)
Proc ID = (  2,   2,   2)
nvar_tot = 56, n_spec = 52, n_reg = 3, iorder = 8, iforder = 10
subranks set to 0 from environment
fuse fields set to 13 from environment
set all gpus to 'true' from environment
Legion Init:
Local Grid Size = ( 48,  48,  48)
Global Grid Size = (192, 192, 192)
Proc Grid Size = (  4,   4,   4)
Proc ID = (  2,   3,   1)
nvar_tot = 56, n_spec = 52, n_reg = 3, iorder = 8, iforder = 10
subranks set to 0 from environment
fuse fields set to 13 from environment
set all gpus to 'true' from environment
Legion Init:
Local Grid Size = ( 48,  48,  48)
Global Grid Size = (192, 192, 192)
Proc Grid Size = (  4,   4,   4)
Proc ID = (  0,   1,   1)
nvar_tot = 56, n_spec = 52, n_reg = 3, iorder = 8, iforder = 10
subranks set to 0 from environment
fuse fields set to 13 from environment
set all gpus to 'true' from environment
Legion Init:
Local Grid Size = ( 48,  48,  48)
Global Grid Size = (192, 192, 192)
Proc Grid Size = (  4,   4,   4)
Proc ID = (  2,   2,   1)
nvar_tot = 56, n_spec = 52, n_reg = 3, iorder = 8, iforder = 10
subranks set to 0 from environment
fuse fields set to 13 from environment
set all gpus to 'true' from environment
Legion Init:
Local Grid Size = ( 48,  48,  48)
Global Grid Size = (192, 192, 192)
Proc Grid Size = (  4,   4,   4)
Proc ID = (  0,   0,   2)
nvar_tot = 56, n_spec = 52, n_reg = 3, iorder = 8, iforder = 10
subranks set to 0 from environment
fuse fields set to 13 from environment
set all gpus to 'true' from environment
Legion Init:
Local Grid Size = ( 48,  48,  48)
Global Grid Size = (192, 192, 192)
Proc Grid Size = (  4,   4,   4)
Proc ID = (  0,   1,   3)
nvar_tot = 56, n_spec = 52, n_reg = 3, iorder = 8, iforder = 10
subranks set to 0 from environment
fuse fields set to 13 from environment
set all gpus to 'true' from environment
Legion Init:
Local Grid Size = ( 48,  48,  48)
Global Grid Size = (192, 192, 192)
Proc Grid Size = (  4,   4,   4)
Proc ID = (  2,   2,   3)
nvar_tot = 56, n_spec = 52, n_reg = 3, iorder = 8, iforder = 10
subranks set to 0 from environment
fuse fields set to 13 from environment
set all gpus to 'true' from environment
Legion Init:
Local Grid Size = ( 48,  48,  48)
Global Grid Size = (192, 192, 192)
Proc Grid Size = (  4,   4,   4)
Proc ID = (  0,   3,   3)
nvar_tot = 56, n_spec = 52, n_reg = 3, iorder = 8, iforder = 10
subranks set to 0 from environment
fuse fields set to 13 from environment
set all gpus to 'true' from environment
Pinned Memory Usage: GASNET=0, RMEM=1024, LMB=128, SDP=384, total=1536
HERE
HERE
HERE
HERE
HERE
HERE
HERE
HERE
HERE
HERE
HERE
HERE
HERE
HERE
HERE
HERE
HERE
HERE
HERE
HERE
HERE
HERE
HERE
HERE
HERE
HERE
HERE
HERE
HERE
HERE
HERE
HERE
HERE
HERE
HERE
HERE
HERE
HERE
HERE
HERE
HERE
HERE
HERE
HERE
HERE
HERE
HERE
HERE
HERE
HERE
HERE
HERE
HERE
HERE
HERE
HERE
HERE
HERE
HERE
HERE
HERE
HERE
HERE
HERE
There are 56 q fields, 107 state fields, and 1048 temp fields
There are 56 q fields, 107 state fields, and 1048 temp fields
There are 56 q fields, 107 state fields, and 1048 temp fields
There are 56 q fields, 107 state fields, and 1048 temp fields
There are 56 q fields, 107 state fields, and 1048 temp fields
There are 56 q fields, 107 state fields, and 1048 temp fields
There are 56 q fields, 107 state fields, and 1048 temp fields
There are 56 q fields, 107 state fields, and 1048 temp fields
There are 56 q fields, 107 state fields, and 1048 temp fields
There are 56 q fields, 107 state fields, and 1048 temp fields
There are 56 q fields, 107 state fields, and 1048 temp fields
There are 56 q fields, 107 state fields, and 1048 temp fields
There are 56 q fields, 107 state fields, and 1048 temp fields
There are 56 q fields, 107 state fields, and 1048 temp fields
There are 56 q fields, 107 state fields, and 1048 temp fields
There are 56 q fields, 107 state fields, and 1048 temp fields
There are 56 q fields, 107 state fields, and 1048 temp fields
There are 56 q fields, 107 state fields, and 1048 temp fields
There are 56 q fields, 107 state fields, and 1048 temp fields
There are 56 q fields, 107 state fields, and 1048 temp fields
There are 56 q fields, 107 state fields, and 1048 temp fields
There are 56 q fields, 107 state fields, and 1048 temp fields
There are 56 q fields, 107 state fields, and 1048 temp fields
There are 56 q fields, 107 state fields, and 1048 temp fields
There are 56 q fields, 107 state fields, and 1048 temp fields
There are 56 q fields, 107 state fields, and 1048 temp fields
There are 56 q fields, 107 state fields, and 1048 temp fields
There are 56 q fields, 107 state fields, and 1048 temp fields
There are 56 q fields, 107 state fields, and 1048 temp fields
There are 56 q fields, 107 state fields, and 1048 temp fields
There are 56 q fields, 107 state fields, and 1048 temp fields
There are 56 q fields, 107 state fields, and 1048 temp fields
There are 56 q fields, 107 state fields, and 1048 temp fields
There are 56 q fields, 107 state fields, and 1048 temp fields
There are 56 q fields, 107 state fields, and 1048 temp fields
There are 56 q fields, 107 state fields, and 1048 temp fields
There are 56 q fields, 107 state fields, and 1048 temp fields
There are 56 q fields, 107 state fields, and 1048 temp fields
There are 56 q fields, 107 state fields, and 1048 temp fields
There are 56 q fields, 107 state fields, and 1048 temp fields
There are 56 q fields, 107 state fields, and 1048 temp fields
There are 56 q fields, 107 state fields, and 1048 temp fields
There are 56 q fields, 107 state fields, and 1048 temp fields
There are 56 q fields, 107 state fields, and 1048 temp fields
There are 56 q fields, 107 state fields, and 1048 temp fields
There are 56 q fields, 107 state fields, and 1048 temp fields
There are 56 q fields, 107 state fields, and 1048 temp fields
There are 56 q fields, 107 state fields, and 1048 temp fields
There are 56 q fields, 107 state fields, and 1048 temp fields
There are 56 q fields, 107 state fields, and 1048 temp fields
There are 56 q fields, 107 state fields, and 1048 temp fields
There are 56 q fields, 107 state fields, and 1048 temp fields
There are 56 q fields, 107 state fields, and 1048 temp fields
There are 56 q fields, 107 state fields, and 1048 temp fields
There are 56 q fields, 107 state fields, and 1048 temp fields
There are 56 q fields, 107 state fields, and 1048 temp fields
There are 56 q fields, 107 state fields, and 1048 temp fields
There are 56 q fields, 107 state fields, and 1048 temp fields
There are 56 q fields, 107 state fields, and 1048 temp fields
There are 56 q fields, 107 state fields, and 1048 temp fields
There are 56 q fields, 107 state fields, and 1048 temp fields
There are 56 q fields, 107 state fields, and 1048 temp fields
There are 56 q fields, 107 state fields, and 1048 temp fields
There are 56 q fields, 107 state fields, and 1048 temp fields
in top level task: nid04141 (37)
Total simulation volume: 7077888
Attempting to connect 256 processors with 1 points per processor
configuring ERK: stages = 6
configuring ERK: stages = 6
configuring ERK: stages = 6
configuring ERK: stages = 6
configuring ERK: stages = 6
configuring ERK: stages = 6
configuring ERK: stages = 6
configuring ERK: stages = 6
configuring ERK: stages = 6
configuring ERK: stages = 6
configuring ERK: stages = 6
configuring ERK: stages = 6
configuring ERK: stages = 6
configuring ERK: stages = 6
configuring ERK: stages = 6
configuring ERK: stages = 6
configuring ERK: stages = 6
configuring ERK: stages = 6
configuring ERK: stages = 6
configuring ERK: stages = 6
configuring ERK: stages = 6
configuring ERK: stages = 6
configuring ERK: stages = 6
configuring ERK: stages = 6
configuring ERK: stages = 6
configuring ERK: stages = 6
configuring ERK: stages = 6
configuring ERK: stages = 6
configuring ERK: stages = 6
configuring ERK: stages = 6
configuring ERK: stages = 6
configuring ERK: stages = 6
configuring ERK: stages = 6
configuring ERK: stages = 6
configuring ERK: stages = 6
configuring ERK: stages = 6
configuring ERK: stages = 6
configuring ERK: stages = 6
configuring ERK: stages = 6
configuring ERK: stages = 6
configuring ERK: stages = 6
configuring ERK: stages = 6
configuring ERK: stages = 6
configuring ERK: stages = 6
configuring ERK: stages = 6
configuring ERK: stages = 6
configuring ERK: stages = 6
configuring ERK: stages = 6
configuring ERK: stages = 6
connect_mpi finished
configuring ERK: stages = 6
configuring ERK: stages = 6
configuring ERK: stages = 6
configuring ERK: stages = 6
configuring ERK: stages = 6
configuring ERK: stages = 6
configuring ERK: stages = 6
configuring ERK: stages = 6
configuring ERK: stages = 6
configuring ERK: stages = 6
configuring ERK: stages = 6
configuring ERK: stages = 6
configuring ERK: stages = 6
configuring ERK: stages = 6
configuring ERK: stages = 6
all mappers updated
update subrank bounds task, pt = (0, 0, 0)
args = (nil), 0
update subrank bounds task, pt = (1, 0, 0)
args = (nil), 0
update subrank bounds task, pt = (1, 2, 0)
args = (nil), 0
update subrank bounds task, pt = (3, 3, 0)
args = (nil), 0
update subrank bounds task, pt = (3, 0, 1)
args = (nil), 0
update subrank bounds task, pt = (0, 0, 1)
args = (nil), 0
update subrank bounds task, pt = (3, 2, 0)
args = (nil), 0
update subrank bounds task, pt = (2, 2, 0)
args = (nil), 0
update subrank bounds task, pt = (1, 3, 1)
args = (nil), 0
update subrank bounds task, pt = (3, 2, 1)
args = (nil), 0
update subrank bounds task, pt = (3, 1, 1)
args = (nil), 0
update subrank bounds task, pt = (0, 1, 1)
args = (nil), 0
update subrank bounds task, pt = (0, 3, 0)
args = (nil), 0
update subrank bounds task, pt = (1, 1, 0)
args = (nil), 0
update subrank bounds task, pt = (1, 1, 2)
args = (nil), 0
update subrank bounds task, pt = (3, 3, 1)
args = (nil), 0
update subrank bounds task, pt = (0, 2, 1)
args = (nil), 0
update subrank bounds task, pt = (2, 1, 0)
args = (nil), 0
update subrank bounds task, pt = (3, 0, 0)
args = (nil), 0
update subrank bounds task, pt = (2, 0, 0)
args = (nil), 0
update subrank bounds task, pt = (3, 3, 2)
args = (nil), 0
update subrank bounds task, pt = (1, 2, 2)
args = (nil), 0
update subrank bounds task, pt = (2, 1, 2)
args = (nil), 0
update subrank bounds task, pt = (0, 0, 2)
args = (nil), 0
update subrank bounds task, pt = (1, 2, 1)
args = (nil), 0
update subrank bounds task, pt = (1, 0, 1)
args = (nil), 0
update subrank bounds task, pt = (0, 1, 0)
args = (nil), 0
update subrank bounds task, pt = (3, 3, 3)
args = (nil), 0
update subrank bounds task, pt = (3, 2, 2)
args = (nil), 0
update subrank bounds task, pt = (2, 2, 2)
args = (nil), 0
update subrank bounds task, pt = (2, 3, 1)
args = (nil), 0
update subrank bounds task, pt = (2, 2, 1)
args = (nil), 0
update subrank bounds task, pt = (0, 3, 2)
args = (nil), 0
update subrank bounds task, pt = (3, 1, 0)
args = (nil), 0
update subrank bounds task, pt = (3, 0, 2)
args = (nil), 0
update subrank bounds task, pt = (0, 2, 0)
args = (nil), 0
update subrank bounds task, pt = (1, 3, 3)
args = (nil), 0
update subrank bounds task, pt = (0, 1, 2)
args = (nil), 0
update subrank bounds task, pt = (3, 0, 3)
args = (nil), 0
update subrank bounds task, pt = (0, 1, 3)
args = (nil), 0
update subrank bounds task, pt = (1, 0, 3)
args = (nil), 0
update subrank bounds task, pt = (3, 2, 3)
args = (nil), 0
update subrank bounds task, pt = (3, 1, 3)
args = (nil), 0
update subrank bounds task, pt = (1, 0, 2)
args = (nil), 0
update subrank bounds task, pt = (0, 2, 3)
args = (nil), 0
update subrank bounds task, pt = (2, 0, 2)
args = (nil), 0
update subrank bounds task, pt = (1, 1, 1)
args = (nil), 0
update subrank bounds task, pt = (1, 3, 2)
args = (nil), 0
update subrank bounds task, pt = (3, 1, 2)
args = (nil), 0
update subrank bounds task, pt = (2, 1, 1)
args = (nil), 0
update subrank bounds task, pt = (1, 3, 0)
args = (nil), 0
update subrank bounds task, pt = (0, 2, 2)
args = (nil), 0
update subrank bounds task, pt = (2, 3, 0)
args = (nil), 0
update subrank bounds task, pt = (2, 0, 1)
args = (nil), 0
update subrank bounds task, pt = (1, 2, 3)
args = (nil), 0
update subrank bounds task, pt = (2, 0, 3)
args = (nil), 0
update subrank bounds task, pt = (0, 0, 3)
args = (nil), 0
update subrank bounds task, pt = (2, 3, 2)
args = (nil), 0
update subrank bounds task, pt = (0, 3, 1)
args = (nil), 0
update subrank bounds task, pt = (2, 2, 3)
args = (nil), 0
update subrank bounds task, pt = (2, 3, 3)
args = (nil), 0
update subrank bounds task, pt = (1, 1, 3)
args = (nil), 0
update subrank bounds task, pt = (0, 3, 3)
args = (nil), 0
update subrank bounds task, pt = (2, 1, 3)
args = (nil), 0
rank = 0xfbcad0
rank = 0xdf6a00
rank = 0xfbcbd0
rank = 0xfbcad0
rank = 0xfbcab0
rank = 0xfbcbc0
rank = 0xfbcae0
rank = 0xfbcab0
rank = 0xfbcbb0
rank = 0xfbcbb0
rank = 0xfbcad0
rank = 0xfbcba0
rank = 0xfbcb00
rank = 0xfbcac0
rank = 0xfbcbb0
rank = 0xfbcbb0
rank = 0xfbcac0
rank = 0xfbcbb0
rank = 0xfbcbb0
rank = 0xfbcbb0
rank = 0xfbcc90
rank = 0xfbcac0
rank = 0xfbcbb0
rank = 0xfbcbb0
rank = 0xfbcae0
rank = 0xfbcbb0
rank = 0xfbcad0
rank = 0xfbcbb0
rank = 0xfbcab0
rank = 0xfbcbb0
rank = 0xfbcbb0
rank = 0xfbcad0
rank = 0xfbcac0
rank = 0xfbcbb0
rank = 0xfbcba0
rank = 0xfbcab0
rank = 0xfbcbb0
rank = 0xfbcac0
rank = 0xfbcab0
rank = 0xfbcbb0
rank = 0xfbcac0
rank = 0xfbcac0
rank = 0xfbcbb0
rank = 0xfbcba0
rank = 0xfbcab0
rank = 0xfbcad0
rank = 0xfbcbc0
rank = 0xfbcbb0
rank = 0xfbcd70
rank = 0xfbcac0
rank = 0xfbcc70
rank = 0xfbcba0
rank = 0xfbcab0
rank = 0xfbcd70
rank = 0xfbcbc0
rank = 0xfbcac0
rank = 0xfbcab0
rank = 0xfbcab0
rank = 0xfbcbb0
rank = 0xfbcbb0
rank = 0xfbcbc0
rank = 0xfbcab0
rank = 0xfbcad0
rank = 0xfbcae0
my proc = 80000004
my proc = 80080004
 Mixture fraction module successfully initialized...
 generating active.in file...

my proc = 80200004
my proc = 80100004
my proc = 80180004
 field initialized with i_temporalfeed=           0
my proc = 80280004
my proc = 80300004
my proc = 80400004
performing full integrations
my proc = 80480004
 ------------------------------------------------------------------------------
my proc = 80380004
performing full integrations
performing full integrations
performing full integrations
my proc = 80500004
my proc = 80600004
performing full integrations
my proc = 80580004
my proc = 80680004
performing full integrations
performing full integrations
my proc = 80700004
my proc = 80800004
performing full integrations
performing full integrations
performing full integrations
my proc = 80780004
performing full integrations
performing full integrations
performing full integrations
performing full integrations
performing full integrations
performing full integrations
performing full integrations
my proc = 80880004
my proc = 80900004
my proc = 80a00004
my proc = 80980004
my proc = 80c00004
my proc = 81000004
my proc = 80a80004
my proc = 80b00004
performing full integrations
my proc = 81080004
my proc = 80e00004
performing full integrations
my proc = 80c80004
my proc = 81200004
my proc = 80b80004
performing full integrations
performing full integrations
my proc = 81800004
my proc = 80e80004
my proc = 80d00004
my proc = 81100004
performing full integrations
my proc = 81400004
my proc = 81280004
performing full integrations
performing full integrations
performing full integrations
performing full integrations
performing full integrations
performing full integrations
my proc = 81a00004
my proc = 81880004
my proc = 80d80004
performing full integrations
my proc = 81300004
my proc = 80f00004
my proc = 81180004
performing full integrations
performing full integrations
my proc = 81480004
my proc = 81600004
performing full integrations
performing full integrations
my proc = 81900004
performing full integrations
performing full integrations
my proc = 81a80004
performing full integrations
my proc = 80f80004
my proc = 81c00004
my proc = 81380004
my proc = 81500004
my proc = 81980004
performing full integrations
performing full integrations
my proc = 81680004
performing full integrations
my proc = 81e00004
my proc = 81b00004
performing full integrations
my proc = 81580004
performing full integrations
performing full integrations
my proc = 81700004
my proc = 81c80004
performing full integrations
performing full integrations
my proc = 81e80004
my proc = 81b80004
my proc = 81d00004
performing full integrations
performing full integrations
my proc = 81780004
performing full integrations
performing full integrations
performing full integrations
my proc = 81f00004
performing full integrations
my proc = 81d80004
performing full integrations
performing full integrations
performing full integrations
my proc = 81f80004
performing full integrations
performing full integrations
performing full integrations
performing full integrations
performing full integrations
 writing save    files for: i_time =       0, time = 0.0000E+00 (sec)
 precision is d
 ------------------------------------------------------------------------------
IO Started at 14:31.194
IO Finished at 14:31.195
Per-thread IO =            50.4MB
Total IO =          3227.5MB
Time taken =           0.001s
Total IO Rate =     3227516.928MB/s
 ------------------------------------------------------------------------------
 ------------------------------------------------------------------------------
performing full integrations
performing full integrations
performing full integrations
performing full integrations
performing full integrations
performing full integrations
 writing save    files for: i_time =      10, time = 1.0000E-08 (sec)
 precision is d
 ------------------------------------------------------------------------------
IO Started at 14:40.064
IO Finished at 14:40.065
Per-thread IO =            50.4MB
Total IO =          3227.5MB
Time taken =           0.001s
Total IO Rate =     3227516.928MB/s
 ------------------------------------------------------------------------------
 ------------------------------------------------------------------------------
 ==============================================================================
 Timestepping began at: 
 date = 04/12/2014
 time = 01:14:31
 Timestepping ended at: 
 date = 04/12/2014
 time = 01:14:40
S3D Time taken:      8.9 s
S3D Cost :      8.0 microseconds per gridpoint per tiemstep
 ==============================================================================
 ------------------------------------------------------------------------------
 S3D started at:

 date = 04/12/2014
 time = 01:14:21

 S3D ended at:

 date = 04/12/2014
 time = 01:14:40
 ==============================================================================
 Program finished normally, goodbye!
 ==============================================================================
CU: cuCtxPopCurrent(&proc_ctx) = 4 (unspecified launch failure)
s3d.x: /ccs/home/mebauer/new_legion/legion/runtime/lowlevel_gpu.cc:416: void LegionRuntime::LowLevel::GPUProcessor::Internal::handle_copies(): Assertion `0' failed.
*** Caught a fatal signal: SIGABRT(6) on node 35/64
CU: cuCtxPopCurrent(&proc_ctx) = 4 (unspecified launch failure)
s3d.x: /ccs/home/mebauer/new_legion/legion/runtime/lowlevel_gpu.cc:416: void LegionRuntime::LowLevel::GPUProcessor::Internal::handle_copies(): Assertion `0' failed.
*** Caught a fatal signal: SIGABRT(6) on node 59/64
CU: cuCtxPopCurrent(&proc_ctx) = 4 (unspecified launch failure)
s3d.x: /ccs/home/mebauer/new_legion/legion/runtime/lowlevel_gpu.cc:416: void LegionRuntime::LowLevel::GPUProcessor::Internal::handle_copies(): Assertion `0' failed.
*** Caught a fatal signal: SIGABRT(6) on node 51/64
CU: cuCtxPushCurrent(proc_ctx) = 4 (unspecified launch failure)
s3d.x: /ccs/home/mebauer/new_legion/legion/runtime/lowlevel_gpu.cc:399: void LegionRuntime::LowLevel::GPUProcessor::Internal::handle_copies(): Assertion `0' failed.
*** Caught a fatal signal: SIGABRT(6) on node 36/64
CU: cuCtxPushCurrent(proc_ctx) = 4 (unspecified launch failure)
s3d.x: /ccs/home/mebauer/new_legion/legion/runtime/lowlevel_gpu.cc:399: void LegionRuntime::LowLevel::GPUProcessor::Internal::handle_copies(): Assertion `0' failed.
*** Caught a fatal signal: SIGABRT(6) on node 31/64
CU: cuCtxPopCurrent(&proc_ctx) = 4 (unspecified launch failure)
s3d.x: /ccs/home/mebauer/new_legion/legion/runtime/lowlevel_gpu.cc:416: void LegionRuntime::LowLevel::GPUProcessor::Internal::handle_copies(): Assertion `0' failed.
*** Caught a fatal signal: SIGABRT(6) on node 22/64
CU: cuCtxPushCurrent(proc_ctx) = 4 (unspecified launch failure)
s3d.x: /ccs/home/mebauer/new_legion/legion/runtime/lowlevel_gpu.cc:399: void LegionRuntime::LowLevel::GPUProcessor::Internal::handle_copies(): Assertion `0' failed.
*** Caught a fatal signal: SIGABRT(6) on node 52/64
CU: cuCtxPushCurrent(proc_ctx) = 4 (unspecified launch failure)
s3d.x: /ccs/home/mebauer/new_legion/legion/runtime/lowlevel_gpu.cc:399: void LegionRuntime::LowLevel::GPUProcessor::Internal::handle_copies(): Assertion `0' failed.
*** Caught a fatal signal: SIGABRT(6) on node 43/64
CU: cuCtxPopCurrent(&proc_ctx) = 4 (unspecified launch failure)
s3d.x: /ccs/home/mebauer/new_legion/legion/runtime/lowlevel_gpu.cc:416: void LegionRuntime::LowLevel::GPUProcessor::Internal::handle_copies(): Assertion `0' failed.
*** Caught a fatal signal: SIGABRT(6) on node 39/64
CU: cuCtxPopCurrent(&proc_ctx) = 4 (unspecified launch failure)
s3d.x: /ccs/home/mebauer/new_legion/legion/runtime/lowlevel_gpu.cc:416: void LegionRuntime::LowLevel::GPUProcessor::Internal::handle_copies(): Assertion `0' failed.
*** Caught a fatal signal: SIGABRT(6) on node 9/64
CU: cuCtxPushCurrent(proc_ctx) = 4 (unspecified launch failure)
s3d.x: /ccs/home/mebauer/new_legion/legion/runtime/lowlevel_gpu.cc:399: void LegionRuntime::LowLevel::GPUProcessor::Internal::handle_copies(): Assertion `0' failed.
*** Caught a fatal signal: SIGABRT(6) on node 18/64
CU: cuCtxPopCurrent(&proc_ctx) = 4 (unspecified launch failure)
s3d.x: /ccs/home/mebauer/new_legion/legion/runtime/lowlevel_gpu.cc:416: void LegionRuntime::LowLevel::GPUProcessor::Internal::handle_copies(): Assertion `0' failed.
*** Caught a fatal signal: SIGABRT(6) on node 58/64
CU: cuCtxPopCurrent(&proc_ctx) = 4 (unspecified launch failure)
s3d.x: /ccs/home/mebauer/new_legion/legion/runtime/lowlevel_gpu.cc:416: void LegionRuntime::LowLevel::GPUProcessor::Internal::handle_copies(): Assertion `0' failed.
*** Caught a fatal signal: SIGABRT(6) on node 46/64
CU: cuCtxPopCurrent(&proc_ctx) = 4 (unspecified launch failure)
s3d.x: /ccs/home/mebauer/new_legion/legion/runtime/lowlevel_gpu.cc:416: void LegionRuntime::LowLevel::GPUProcessor::Internal::handle_copies(): Assertion `0' failed.
*** Caught a fatal signal: SIGABRT(6) on node 19/64
CU: cuCtxPushCurrent(proc_ctx) = 4 (unspecified launch failure)
s3d.x: /ccs/home/mebauer/new_legion/legion/runtime/lowlevel_gpu.cc:399: void LegionRuntime::LowLevel::GPUProcessor::Internal::handle_copies(): Assertion `0' failed.
*** Caught a fatal signal: SIGABRT(6) on node 61/64
CU: cuCtxPopCurrent(&proc_ctx) = 4 (unspecified launch failure)
s3d.x: /ccs/home/mebauer/new_legion/legion/runtime/lowlevel_gpu.cc:416: void LegionRuntime::LowLevel::GPUProcessor::Internal::handle_copies(): Assertion `0' failed.
*** Caught a fatal signal: SIGABRT(6) on node 62/64
CU: cuCtxPopCurrent(&proc_ctx) = 4 (unspecified launch failure)
s3d.x: /ccs/home/mebauer/new_legion/legion/runtime/lowlevel_gpu.cc:416: void LegionRuntime::LowLevel::GPUProcessor::Internal::handle_copies(): Assertion `0' failed.
*** Caught a fatal signal: SIGABRT(6) on node 53/64
CU: cuCtxPushCurrent(proc_ctx) = 4 (unspecified launch failure)
s3d.x: /ccs/home/mebauer/new_legion/legion/runtime/lowlevel_gpu.cc:399: void LegionRuntime::LowLevel::GPUProcessor::Internal::handle_copies(): Assertion `0' failed.
*** Caught a fatal signal: SIGABRT(6) on node 41/64
CU: cuCtxPushCurrent(proc_ctx) = 4 (unspecified launch failure)
s3d.x: /ccs/home/mebauer/new_legion/legion/runtime/lowlevel_gpu.cc:399: void LegionRuntime::LowLevel::GPUProcessor::Internal::handle_copies(): Assertion `0' failed.
*** Caught a fatal signal: SIGABRT(6) on node 24/64
CU: cuCtxPopCurrent(&proc_ctx) = 4 (unspecified launch failure)
s3d.x: /ccs/home/mebauer/new_legion/legion/runtime/lowlevel_gpu.cc:416: void LegionRuntime::LowLevel::GPUProcessor::Internal::handle_copies(): Assertion `0' failed.
*** Caught a fatal signal: SIGABRT(6) on node 15/64
CU: cuCtxPopCurrent(&proc_ctx) = 4 (unspecified launch failure)
s3d.x: /ccs/home/mebauer/new_legion/legion/runtime/lowlevel_gpu.cc:416: void LegionRuntime::LowLevel::GPUProcessor::Internal::handle_copies(): Assertion `0' failed.
*** Caught a fatal signal: SIGABRT(6) on node 5/64
CU: cuCtxPopCurrent(&proc_ctx) = 4 (unspecified launch failure)
s3d.x: /ccs/home/mebauer/new_legion/legion/runtime/lowlevel_gpu.cc:416: void LegionRuntime::LowLevel::GPUProcessor::Internal::handle_copies(): Assertion `0' failed.
*** Caught a fatal signal: SIGABRT(6) on node 60/64
CU: cuCtxPopCurrent(&proc_ctx) = 4 (unspecified launch failure)
s3d.x: /ccs/home/mebauer/new_legion/legion/runtime/lowlevel_gpu.cc:416: void LegionRuntime::LowLevel::GPUProcessor::Internal::handle_copies(): Assertion `0' failed.
*** Caught a fatal signal: SIGABRT(6) on node 47/64
CU: cuCtxPopCurrent(&proc_ctx) = 4 (unspecified launch failure)
s3d.x: /ccs/home/mebauer/new_legion/legion/runtime/lowlevel_gpu.cc:416: void LegionRuntime::LowLevel::GPUProcessor::Internal::handle_copies(): Assertion `0' failed.
*** Caught a fatal signal: SIGABRT(6) on node 38/64
CU: cuCtxPopCurrent(&proc_ctx) = 4 (unspecified launch failure)
s3d.x: /ccs/home/mebauer/new_legion/legion/runtime/lowlevel_gpu.cc:416: void LegionRuntime::LowLevel::GPUProcessor::Internal::handle_copies(): Assertion `0' failed.
*** Caught a fatal signal: SIGABRT(6) on node 6/64
CU: cuCtxPopCurrent(&proc_ctx) = 4 (unspecified launch failure)
s3d.x: /ccs/home/mebauer/new_legion/legion/runtime/lowlevel_gpu.cc:416: void LegionRuntime::LowLevel::GPUProcessor::Internal::handle_copies(): Assertion `0' failed.
*** Caught a fatal signal: SIGABRT(6) on node 2/64
CU: cuCtxPushCurrent(proc_ctx) = 4 (unspecified launch failure)
s3d.x: /ccs/home/mebauer/new_legion/legion/runtime/lowlevel_gpu.cc:399: void LegionRuntime::LowLevel::GPUProcessor::Internal::handle_copies(): Assertion `0' failed.
*** Caught a fatal signal: SIGABRT(6) on node 42/64
CU: cuCtxPopCurrent(&proc_ctx) = 4 (unspecified launch failure)
s3d.x: /ccs/home/mebauer/new_legion/legion/runtime/lowlevel_gpu.cc:416: void LegionRuntime::LowLevel::GPUProcessor::Internal::handle_copies(): Assertion `0' failed.
*** Caught a fatal signal: SIGABRT(6) on node 25/64
CU: cuCtxPushCurrent(proc_ctx) = 4 (unspecified launch failure)
s3d.x: /ccs/home/mebauer/new_legion/legion/runtime/lowlevel_gpu.cc:399: void LegionRuntime::LowLevel::GPUProcessor::Internal::handle_copies(): Assertion `0' failed.
*** Caught a fatal signal: SIGABRT(6) on node 7/64
CU: cuCtxPushCurrent(proc_ctx) = 4 (unspecified launch failure)
s3d.x: /ccs/home/mebauer/new_legion/legion/runtime/lowlevel_gpu.cc:399: void LegionRuntime::LowLevel::GPUProcessor::Internal::handle_copies(): Assertion `0' failed.
*** Caught a fatal signal: SIGABRT(6) on node 8/64
CU: cuCtxPopCurrent(&proc_ctx) = 4 (unspecified launch failure)
s3d.x: /ccs/home/mebauer/new_legion/legion/runtime/lowlevel_gpu.cc:416: void LegionRuntime::LowLevel::GPUProcessor::Internal::handle_copies(): Assertion `0' failed.
*** Caught a fatal signal: SIGABRT(6) on node 3/64
CU: cuCtxPushCurrent(proc_ctx) = 4 (unspecified launch failure)
s3d.x: /ccs/home/mebauer/new_legion/legion/runtime/lowlevel_gpu.cc:399: void LegionRuntime::LowLevel::GPUProcessor::Internal::handle_copies(): Assertion `0' failed.
*** Caught a fatal signal: SIGABRT(6) on node 49/64
CU: cuCtxPushCurrent(proc_ctx) = 4 (unspecified launch failure)
s3d.x: /ccs/home/mebauer/new_legion/legion/runtime/lowlevel_gpu.cc:399: void LegionRuntime::LowLevel::GPUProcessor::Internal::handle_copies(): Assertion `0' failed.
*** Caught a fatal signal: SIGABRT(6) on node 33/64
CU: cuCtxPushCurrent(proc_ctx) = 4 (unspecified launch failure)
s3d.x: /ccs/home/mebauer/new_legion/legion/runtime/lowlevel_gpu.cc:399: void LegionRuntime::LowLevel::GPUProcessor::Internal::handle_copies(): Assertion `0' failed.
*** Caught a fatal signal: SIGABRT(6) on node 45/64
CU: cuCtxPopCurrent(&proc_ctx) = 4 (unspecified launch failure)
s3d.x: /ccs/home/mebauer/new_legion/legion/runtime/lowlevel_gpu.cc:416: void LegionRuntime::LowLevel::GPUProcessor::Internal::handle_copies(): Assertion `0' failed.
*** Caught a fatal signal: SIGABRT(6) on node 34/64
CU: cuCtxPopCurrent(&proc_ctx) = 4 (unspecified launch failure)
s3d.x: /ccs/home/mebauer/new_legion/legion/runtime/lowlevel_gpu.cc:416: void LegionRuntime::LowLevel::GPUProcessor::Internal::handle_copies(): Assertion `0' failed.
*** Caught a fatal signal: SIGABRT(6) on node 21/64
CU: cuCtxPopCurrent(&proc_ctx) = 4 (unspecified launch failure)
s3d.x: /ccs/home/mebauer/new_legion/legion/runtime/lowlevel_gpu.cc:416: void LegionRuntime::LowLevel::GPUProcessor::Internal::handle_copies(): Assertion `0' failed.
*** Caught a fatal signal: SIGABRT(6) on node 40/64
CU: cuCtxPopCurrent(&proc_ctx) = 4 (unspecified launch failure)
s3d.x: /ccs/home/mebauer/new_legion/legion/runtime/lowlevel_gpu.cc:416: void LegionRuntime::LowLevel::GPUProcessor::Internal::handle_copies(): Assertion `0' failed.
*** Caught a fatal signal: SIGABRT(6) on node 13/64
CU: cuCtxPopCurrent(&proc_ctx) = 4 (unspecified launch failure)
s3d.x: /ccs/home/mebauer/new_legion/legion/runtime/lowlevel_gpu.cc:416: void LegionRuntime::LowLevel::GPUProcessor::Internal::handle_copies(): Assertion `0' failed.
*** Caught a fatal signal: SIGABRT(6) on node 11/64
CU: cuCtxPushCurrent(proc_ctx) = 4 (unspecified launch failure)
s3d.x: /ccs/home/mebauer/new_legion/legion/runtime/lowlevel_gpu.cc:399: void LegionRuntime::LowLevel::GPUProcessor::Internal::handle_copies(): Assertion `0' failed.
*** Caught a fatal signal: SIGABRT(6) on node 14/64
CU: cuCtxPopCurrent(&proc_ctx) = 4 (unspecified launch failure)
s3d.x: /ccs/home/mebauer/new_legion/legion/runtime/lowlevel_gpu.cc:416: void LegionRuntime::LowLevel::GPUProcessor::Internal::handle_copies(): Assertion `0' failed.
*** Caught a fatal signal: SIGABRT(6) on node 50/64
CU: cuCtxPopCurrent(&proc_ctx) = 4 (unspecified launch failure)
s3d.x: /ccs/home/mebauer/new_legion/legion/runtime/lowlevel_gpu.cc:416: void LegionRuntime::LowLevel::GPUProcessor::Internal::handle_copies(): Assertion `0' failed.
*** Caught a fatal signal: SIGABRT(6) on node 37/64
CU: cuCtxPushCurrent(proc_ctx) = 4 (unspecified launch failure)
s3d.x: /ccs/home/mebauer/new_legion/legion/runtime/lowlevel_gpu.cc:399: void LegionRuntime::LowLevel::GPUProcessor::Internal::handle_copies(): Assertion `0' failed.
*** Caught a fatal signal: SIGABRT(6) on node 27/64
CU: cuCtxPopCurrent(&proc_ctx) = 4 (unspecified launch failure)
s3d.x: /ccs/home/mebauer/new_legion/legion/runtime/lowlevel_gpu.cc:416: void LegionRuntime::LowLevel::GPUProcessor::Internal::handle_copies(): Assertion `0' failed.
*** Caught a fatal signal: SIGABRT(6) on node 16/64
CU: cuCtxPopCurrent(&proc_ctx) = 4 (unspecified launch failure)
s3d.x: /ccs/home/mebauer/new_legion/legion/runtime/lowlevel_gpu.cc:416: void LegionRuntime::LowLevel::GPUProcessor::Internal::handle_copies(): Assertion `0' failed.
*** Caught a fatal signal: SIGABRT(6) on node 10/64
CU: cuCtxPopCurrent(&proc_ctx) = 4 (unspecified launch failure)
s3d.x: /ccs/home/mebauer/new_legion/legion/runtime/lowlevel_gpu.cc:416: void LegionRuntime::LowLevel::GPUProcessor::Internal::handle_copies(): Assertion `0' failed.
*** Caught a fatal signal: SIGABRT(6) on node 57/64
CU: cuCtxPopCurrent(&proc_ctx) = 4 (unspecified launch failure)
s3d.x: /ccs/home/mebauer/new_legion/legion/runtime/lowlevel_gpu.cc:416: void LegionRuntime::LowLevel::GPUProcessor::Internal::handle_copies(): Assertion `0' failed.
*** Caught a fatal signal: SIGABRT(6) on node 28/64
CU: cuCtxPopCurrent(&proc_ctx) = 4 (unspecified launch failure)
s3d.x: /ccs/home/mebauer/new_legion/legion/runtime/lowlevel_gpu.cc:416: void LegionRuntime::LowLevel::GPUProcessor::Internal::handle_copies(): Assertion `0' failed.
*** Caught a fatal signal: SIGABRT(6) on node 20/64
CU: cuCtxPopCurrent(&proc_ctx) = 4 (unspecified launch failure)
s3d.x: /ccs/home/mebauer/new_legion/legion/runtime/lowlevel_gpu.cc:416: void LegionRuntime::LowLevel::GPUProcessor::Internal::handle_copies(): Assertion `0' failed.
*** Caught a fatal signal: SIGABRT(6) on node 29/64
CU: cuCtxPopCurrent(&proc_ctx) = 4 (unspecified launch failure)
s3d.x: /ccs/home/mebauer/new_legion/legion/runtime/lowlevel_gpu.cc:416: void LegionRuntime::LowLevel::GPUProcessor::Internal::handle_copies(): Assertion `0' failed.
*** Caught a fatal signal: SIGABRT(6) on node 17/64
CU: cuCtxPopCurrent(&proc_ctx) = 4 (unspecified launch failure)
s3d.x: /ccs/home/mebauer/new_legion/legion/runtime/lowlevel_gpu.cc:416: void LegionRuntime::LowLevel::GPUProcessor::Internal::handle_copies(): Assertion `0' failed.
*** Caught a fatal signal: SIGABRT(6) on node 0/64
CU: cuCtxPopCurrent(&proc_ctx) = 4 (unspecified launch failure)
s3d.x: /ccs/home/mebauer/new_legion/legion/runtime/lowlevel_gpu.cc:416: void LegionRuntime::LowLevel::GPUProcessor::Internal::handle_copies(): Assertion `0' failed.
*** Caught a fatal signal: SIGABRT(6) on node 55/64
CU: cuCtxPushCurrent(proc_ctx) = 4 (unspecified launch failure)
s3d.x: /ccs/home/mebauer/new_legion/legion/runtime/lowlevel_gpu.cc:399: void LegionRuntime::LowLevel::GPUProcessor::Internal::handle_copies(): Assertion `0' failed.
*** Caught a fatal signal: SIGABRT(6) on node 56/64
CU: cuCtxPopCurrent(&proc_ctx) = 4 (unspecified launch failure)
s3d.x: /ccs/home/mebauer/new_legion/legion/runtime/lowlevel_gpu.cc:416: void LegionRuntime::LowLevel::GPUProcessor::Internal::handle_copies(): Assertion `0' failed.
*** Caught a fatal signal: SIGABRT(6) on node 1/64
CU: cuCtxPushCurrent(proc_ctx) = 4 (unspecified launch failure)
s3d.x: /ccs/home/mebauer/new_legion/legion/runtime/lowlevel_gpu.cc:399: void LegionRuntime::LowLevel::GPUProcessor::Internal::handle_copies(): Assertion `0' failed.
*** Caught a fatal signal: SIGABRT(6) on node 48/64
CU: cuCtxPopCurrent(&proc_ctx) = 4 (unspecified launch failure)
s3d.x: /ccs/home/mebauer/new_legion/legion/runtime/lowlevel_gpu.cc:416: void LegionRuntime::LowLevel::GPUProcessor::Internal::handle_copies(): Assertion `0' failed.
*** Caught a fatal signal: SIGABRT(6) on node 12/64
CU: cuCtxPushCurrent(proc_ctx) = 4 (unspecified launch failure)
s3d.x: /ccs/home/mebauer/new_legion/legion/runtime/lowlevel_gpu.cc:399: void LegionRuntime::LowLevel::GPUProcessor::Internal::handle_copies(): Assertion `0' failed.
*** Caught a fatal signal: SIGABRT(6) on node 32/64
CU: cuCtxPopCurrent(&proc_ctx) = 4 (unspecified launch failure)
s3d.x: /ccs/home/mebauer/new_legion/legion/runtime/lowlevel_gpu.cc:416: void LegionRuntime::LowLevel::GPUProcessor::Internal::handle_copies(): Assertion `0' failed.
*** Caught a fatal signal: SIGABRT(6) on node 23/64
CU: cuCtxPopCurrent(&proc_ctx) = 4 (unspecified launch failure)
s3d.x: /ccs/home/mebauer/new_legion/legion/runtime/lowlevel_gpu.cc:416: void LegionRuntime::LowLevel::GPUProcessor::Internal::handle_copies(): Assertion `0' failed.
*** Caught a fatal signal: SIGABRT(6) on node 26/64
CU: cuCtxPushCurrent(proc_ctx) = 4 (unspecified launch failure)
s3d.x: /ccs/home/mebauer/new_legion/legion/runtime/lowlevel_gpu.cc:399: void LegionRuntime::LowLevel::GPUProcessor::Internal::handle_copies(): Assertion `0' failed.
*** Caught a fatal signal: SIGABRT(6) on node 63/64
CU: cuCtxPushCurrent(proc_ctx) = 4 (unspecified launch failure)
s3d.x: /ccs/home/mebauer/new_legion/legion/runtime/lowlevel_gpu.cc:399: void LegionRuntime::LowLevel::GPUProcessor::Internal::handle_copies(): Assertion `0' failed.
*** Caught a fatal signal: SIGABRT(6) on node 44/64
CU: cuCtxPopCurrent(&proc_ctx) = 4 (unspecified launch failure)
s3d.x: /ccs/home/mebauer/new_legion/legion/runtime/lowlevel_gpu.cc:416: void LegionRuntime::LowLevel::GPUProcessor::Internal::handle_copies(): Assertion `0' failed.
*** Caught a fatal signal: SIGABRT(6) on node 4/64
CU: cuCtxPopCurrent(&proc_ctx) = 4 (unspecified launch failure)
s3d.x: /ccs/home/mebauer/new_legion/legion/runtime/lowlevel_gpu.cc:416: void LegionRuntime::LowLevel::GPUProcessor::Internal::handle_copies(): Assertion `0' failed.
*** Caught a fatal signal: SIGABRT(6) on node 54/64
CU: cuCtxPopCurrent(&proc_ctx) = 4 (unspecified launch failure)
s3d.x: /ccs/home/mebauer/new_legion/legion/runtime/lowlevel_gpu.cc:416: void LegionRuntime::LowLevel::GPUProcessor::Internal::handle_copies(): Assertion `0' failed.
*** Caught a fatal signal: SIGABRT(6) on node 30/64
/usr/bin/addr2line: '/lustre/atlas1/cmb103/scratch/mebauer/run/heptrk64nodes/tmpJ2gUZ7/run/rhsf_test': No such file
/usr/bin/addr2line: '/lustre/atlas1/cmb103/scratch/mebauer/run/heptrk64nodes/tmpJ2gUZ7/run/rhsf_test': No such file
/usr/bin/addr2line: '/lustre/atlas1/cmb103/scratch/mebauer/run/heptrk64nodes/tmpJ2gUZ7/run/rhsf_test': No such file
/usr/bin/addr2line: '/lustre/atlas1/cmb103/scratch/mebauer/run/heptrk64nodes/tmpJ2gUZ7/run/rhsf_test': No such file
/usr/bin/addr2line: '/lustre/atlas1/cmb103/scratch/mebauer/run/heptrk64nodes/tmpJ2gUZ7/run/rhsf_test': No such file
/usr/bin/addr2line: '/lustre/atlas1/cmb103/scratch/mebauer/run/heptrk64nodes/tmpJ2gUZ7/run/rhsf_test': No such file
/usr/bin/addr2line: '/lustre/atlas1/cmb103/scratch/mebauer/run/heptrk64nodes/tmpJ2gUZ7/run/rhsf_test': No such file
/usr/bin/addr2line: '/lustre/atlas1/cmb103/scratch/mebauer/run/heptrk64nodes/tmpJ2gUZ7/run/rhsf_test': No such file
/usr/bin/addr2line: '/lustre/atlas1/cmb103/scratch/mebauer/run/heptrk64nodes/tmpJ2gUZ7/run/rhsf_test': No such file
/usr/bin/addr2line: '/lustre/atlas1/cmb103/scratch/mebauer/run/heptrk64nodes/tmpJ2gUZ7/run/rhsf_test': No such file
/usr/bin/addr2line: '/lustre/atlas1/cmb103/scratch/mebauer/run/heptrk64nodes/tmpJ2gUZ7/run/rhsf_test': No such file
/usr/bin/addr2line: '/lustre/atlas1/cmb103/scratch/mebauer/run/heptrk64nodes/tmpJ2gUZ7/run/rhsf_test': No such file
/usr/bin/addr2line: '/lustre/atlas1/cmb103/scratch/mebauer/run/heptrk64nodes/tmpJ2gUZ7/run/rhsf_test': No such file
/usr/bin/addr2line: '/lustre/atlas1/cmb103/scratch/mebauer/run/heptrk64nodes/tmpJ2gUZ7/run/rhsf_test': No such file
/usr/bin/addr2line: '/lustre/atlas1/cmb103/scratch/mebauer/run/heptrk64nodes/tmpJ2gUZ7/run/rhsf_test': No such file
/usr/bin/addr2line: '/lustre/atlas1/cmb103/scratch/mebauer/run/heptrk64nodes/tmpJ2gUZ7/run/rhsf_test': No such file
/usr/bin/addr2line: '/lustre/atlas1/cmb103/scratch/mebauer/run/heptrk64nodes/tmpJ2gUZ7/run/rhsf_test': No such file
/usr/bin/addr2line: '/lustre/atlas1/cmb103/scratch/mebauer/run/heptrk64nodes/tmpJ2gUZ7/run/rhsf_test': No such file
/usr/bin/addr2line: '/lustre/atlas1/cmb103/scratch/mebauer/run/heptrk64nodes/tmpJ2gUZ7/run/rhsf_test': No such file
/usr/bin/addr2line: '/lustre/atlas1/cmb103/scratch/mebauer/run/heptrk64nodes/tmpJ2gUZ7/run/rhsf_test': No such file
/usr/bin/addr2line: '/lustre/atlas1/cmb103/scratch/mebauer/run/heptrk64nodes/tmpJ2gUZ7/run/rhsf_test': No such file
/usr/bin/addr2line: '/lustre/atlas1/cmb103/scratch/mebauer/run/heptrk64nodes/tmpJ2gUZ7/run/rhsf_test': No such file
/usr/bin/addr2line: '/lustre/atlas1/cmb103/scratch/mebauer/run/heptrk64nodes/tmpJ2gUZ7/run/rhsf_test': No such file
/usr/bin/addr2line: '/lustre/atlas1/cmb103/scratch/mebauer/run/heptrk64nodes/tmpJ2gUZ7/run/rhsf_test': No such file
/usr/bin/addr2line: '/lustre/atlas1/cmb103/scratch/mebauer/run/heptrk64nodes/tmpJ2gUZ7/run/rhsf_test': No such file
/usr/bin/addr2line: '/lustre/atlas1/cmb103/scratch/mebauer/run/heptrk64nodes/tmpJ2gUZ7/run/rhsf_test': No such file
/usr/bin/addr2line: '/lustre/atlas1/cmb103/scratch/mebauer/run/heptrk64nodes/tmpJ2gUZ7/run/rhsf_test': No such file
/usr/bin/addr2line: '/lustre/atlas1/cmb103/scratch/mebauer/run/heptrk64nodes/tmpJ2gUZ7/run/rhsf_test': No such file
/usr/bin/addr2line: '/lustre/atlas1/cmb103/scratch/mebauer/run/heptrk64nodes/tmpJ2gUZ7/run/rhsf_test': No such file
/usr/bin/addr2line: '/lustre/atlas1/cmb103/scratch/mebauer/run/heptrk64nodes/tmpJ2gUZ7/run/rhsf_test': No such file
/usr/bin/addr2line: '/lustre/atlas1/cmb103/scratch/mebauer/run/heptrk64nodes/tmpJ2gUZ7/run/rhsf_test': No such file
/usr/bin/addr2line: '/lustre/atlas1/cmb103/scratch/mebauer/run/heptrk64nodes/tmpJ2gUZ7/run/rhsf_test': No such file
/usr/bin/addr2line: '/lustre/atlas1/cmb103/scratch/mebauer/run/heptrk64nodes/tmpJ2gUZ7/run/rhsf_test': No such file
/usr/bin/addr2line: '/lustre/atlas1/cmb103/scratch/mebauer/run/heptrk64nodes/tmpJ2gUZ7/run/rhsf_test': No such file
/usr/bin/addr2line: '/lustre/atlas1/cmb103/scratch/mebauer/run/heptrk64nodes/tmpJ2gUZ7/run/rhsf_test': No such file
/usr/bin/addr2line: '/lustre/atlas1/cmb103/scratch/mebauer/run/heptrk64nodes/tmpJ2gUZ7/run/rhsf_test': No such file
/usr/bin/addr2line: '/lustre/atlas1/cmb103/scratch/mebauer/run/heptrk64nodes/tmpJ2gUZ7/run/rhsf_test': No such file
/usr/bin/addr2line: '/lustre/atlas1/cmb103/scratch/mebauer/run/heptrk64nodes/tmpJ2gUZ7/run/rhsf_test': No such file
/usr/bin/addr2line: '/lustre/atlas1/cmb103/scratch/mebauer/run/heptrk64nodes/tmpJ2gUZ7/run/rhsf_test': No such file
/usr/bin/addr2line: '/lustre/atlas1/cmb103/scratch/mebauer/run/heptrk64nodes/tmpJ2gUZ7/run/rhsf_test': No such file
/usr/bin/addr2line: '/lustre/atlas1/cmb103/scratch/mebauer/run/heptrk64nodes/tmpJ2gUZ7/run/rhsf_test': No such file
/usr/bin/addr2line: '/lustre/atlas1/cmb103/scratch/mebauer/run/heptrk64nodes/tmpJ2gUZ7/run/rhsf_test': No such file
/usr/bin/addr2line: '/lustre/atlas1/cmb103/scratch/mebauer/run/heptrk64nodes/tmpJ2gUZ7/run/rhsf_test': No such file
/usr/bin/addr2line: '/lustre/atlas1/cmb103/scratch/mebauer/run/heptrk64nodes/tmpJ2gUZ7/run/rhsf_test': No such file
/usr/bin/addr2line: '/lustre/atlas1/cmb103/scratch/mebauer/run/heptrk64nodes/tmpJ2gUZ7/run/rhsf_test': No such file
/usr/bin/addr2line: '/lustre/atlas1/cmb103/scratch/mebauer/run/heptrk64nodes/tmpJ2gUZ7/run/rhsf_test': No such file
/usr/bin/addr2line: '/lustre/atlas1/cmb103/scratch/mebauer/run/heptrk64nodes/tmpJ2gUZ7/run/rhsf_test': No such file
/usr/bin/addr2line: '/lustre/atlas1/cmb103/scratch/mebauer/run/heptrk64nodes/tmpJ2gUZ7/run/rhsf_test': No such file
/usr/bin/addr2line: '/lustre/atlas1/cmb103/scratch/mebauer/run/heptrk64nodes/tmpJ2gUZ7/run/rhsf_test': No such file
/usr/bin/addr2line: '/lustre/atlas1/cmb103/scratch/mebauer/run/heptrk64nodes/tmpJ2gUZ7/run/rhsf_test': No such file
/usr/bin/addr2line: '/lustre/atlas1/cmb103/scratch/mebauer/run/heptrk64nodes/tmpJ2gUZ7/run/rhsf_test': No such file
/usr/bin/addr2line: '/lustre/atlas1/cmb103/scratch/mebauer/run/heptrk64nodes/tmpJ2gUZ7/run/rhsf_test': No such file
/usr/bin/addr2line: '/lustre/atlas1/cmb103/scratch/mebauer/run/heptrk64nodes/tmpJ2gUZ7/run/rhsf_test': No such file
/usr/bin/addr2line: '/lustre/atlas1/cmb103/scratch/mebauer/run/heptrk64nodes/tmpJ2gUZ7/run/rhsf_test': No such file
/usr/bin/addr2line: '/lustre/atlas1/cmb103/scratch/mebauer/run/heptrk64nodes/tmpJ2gUZ7/run/rhsf_test': No such file
/usr/bin/addr2line: '/lustre/atlas1/cmb103/scratch/mebauer/run/heptrk64nodes/tmpJ2gUZ7/run/rhsf_test': No such file
/usr/bin/addr2line: '/lustre/atlas1/cmb103/scratch/mebauer/run/heptrk64nodes/tmpJ2gUZ7/run/rhsf_test': No such file
/usr/bin/addr2line: '/lustre/atlas1/cmb103/scratch/mebauer/run/heptrk64nodes/tmpJ2gUZ7/run/rhsf_test': No such file
/usr/bin/addr2line: '/lustre/atlas1/cmb103/scratch/mebauer/run/heptrk64nodes/tmpJ2gUZ7/run/rhsf_test': No such file
/usr/bin/addr2line: '/lustre/atlas1/cmb103/scratch/mebauer/run/heptrk64nodes/tmpJ2gUZ7/run/rhsf_test': No such file
/usr/bin/addr2line: '/lustre/atlas1/cmb103/scratch/mebauer/run/heptrk64nodes/tmpJ2gUZ7/run/rhsf_test': No such file
/usr/bin/addr2line: '/lustre/atlas1/cmb103/scratch/mebauer/run/heptrk64nodes/tmpJ2gUZ7/run/rhsf_test': No such file
/usr/bin/addr2line: '/lustre/atlas1/cmb103/scratch/mebauer/run/heptrk64nodes/tmpJ2gUZ7/run/rhsf_test': No such file
/usr/bin/addr2line: '/lustre/atlas1/cmb103/scratch/mebauer/run/heptrk64nodes/tmpJ2gUZ7/run/rhsf_test': No such file
/usr/bin/addr2line: '/lustre/atlas1/cmb103/scratch/mebauer/run/heptrk64nodes/tmpJ2gUZ7/run/rhsf_test': No such file
/usr/bin/addr2line: '/lustre/atlas1/cmb103/scratch/mebauer/run/heptrk64nodes/tmpJ2gUZ7/run/rhsf_test': No such file
/usr/bin/addr2line: '/lustre/atlas1/cmb103/scratch/mebauer/run/heptrk64nodes/tmpJ2gUZ7/run/rhsf_test': No such file
/usr/bin/addr2line: '/lustre/atlas1/cmb103/scratch/mebauer/run/heptrk64nodes/tmpJ2gUZ7/run/rhsf_test': No such file
/usr/bin/addr2line: '/lustre/atlas1/cmb103/scratch/mebauer/run/heptrk64nodes/tmpJ2gUZ7/run/rhsf_test': No such file
/usr/bin/addr2line: '/lustre/atlas1/cmb103/scratch/mebauer/run/heptrk64nodes/tmpJ2gUZ7/run/rhsf_test': No such file
/usr/bin/addr2line: '/lustre/atlas1/cmb103/scratch/mebauer/run/heptrk64nodes/tmpJ2gUZ7/run/rhsf_test': No such file
/usr/bin/addr2line: '/lustre/atlas1/cmb103/scratch/mebauer/run/heptrk64nodes/tmpJ2gUZ7/run/rhsf_test': No such file
/usr/bin/addr2line: '/lustre/atlas1/cmb103/scratch/mebauer/run/heptrk64nodes/tmpJ2gUZ7/run/rhsf_test': No such file
/usr/bin/addr2line: '/lustre/atlas1/cmb103/scratch/mebauer/run/heptrk64nodes/tmpJ2gUZ7/run/rhsf_test': No such file
/usr/bin/addr2line: '/lustre/atlas1/cmb103/scratch/mebauer/run/heptrk64nodes/tmpJ2gUZ7/run/rhsf_test': No such file
/usr/bin/addr2line: '/lustre/atlas1/cmb103/scratch/mebauer/run/heptrk64nodes/tmpJ2gUZ7/run/rhsf_test': No such file
/usr/bin/addr2line: '/lustre/atlas1/cmb103/scratch/mebauer/run/heptrk64nodes/tmpJ2gUZ7/run/rhsf_test': No such file
/usr/bin/addr2line: '/lustre/atlas1/cmb103/scratch/mebauer/run/heptrk64nodes/tmpJ2gUZ7/run/rhsf_test': No such file
/usr/bin/addr2line: '/lustre/atlas1/cmb103/scratch/mebauer/run/heptrk64nodes/tmpJ2gUZ7/run/rhsf_test': No such file
/usr/bin/addr2line: '/lustre/atlas1/cmb103/scratch/mebauer/run/heptrk64nodes/tmpJ2gUZ7/run/rhsf_test': No such file
/usr/bin/addr2line: '/lustre/atlas1/cmb103/scratch/mebauer/run/heptrk64nodes/tmpJ2gUZ7/run/rhsf_test': No such file
/usr/bin/addr2line: '/lustre/atlas1/cmb103/scratch/mebauer/run/heptrk64nodes/tmpJ2gUZ7/run/rhsf_test': No such file
/usr/bin/addr2line: '/lustre/atlas1/cmb103/scratch/mebauer/run/heptrk64nodes/tmpJ2gUZ7/run/rhsf_test': No such file
/usr/bin/addr2line: '/lustre/atlas1/cmb103/scratch/mebauer/run/heptrk64nodes/tmpJ2gUZ7/run/rhsf_test': No such file
/usr/bin/addr2line: '/lustre/atlas1/cmb103/scratch/mebauer/run/heptrk64nodes/tmpJ2gUZ7/run/rhsf_test': No such file
/usr/bin/addr2line: '/lustre/atlas1/cmb103/scratch/mebauer/run/heptrk64nodes/tmpJ2gUZ7/run/rhsf_test': No such file
/usr/bin/addr2line: '/lustre/atlas1/cmb103/scratch/mebauer/run/heptrk64nodes/tmpJ2gUZ7/run/rhsf_test': No such file
/usr/bin/addr2line: '/lustre/atlas1/cmb103/scratch/mebauer/run/heptrk64nodes/tmpJ2gUZ7/run/rhsf_test': No such file
/usr/bin/addr2line: '/lustre/atlas1/cmb103/scratch/mebauer/run/heptrk64nodes/tmpJ2gUZ7/run/rhsf_test': No such file
/usr/bin/addr2line: '/lustre/atlas1/cmb103/scratch/mebauer/run/heptrk64nodes/tmpJ2gUZ7/run/rhsf_test': No such file
/usr/bin/addr2line: '/lustre/atlas1/cmb103/scratch/mebauer/run/heptrk64nodes/tmpJ2gUZ7/run/rhsf_test': No such file
/usr/bin/addr2line: '/lustre/atlas1/cmb103/scratch/mebauer/run/heptrk64nodes/tmpJ2gUZ7/run/rhsf_test': No such file
/usr/bin/addr2line: '/lustre/atlas1/cmb103/scratch/mebauer/run/heptrk64nodes/tmpJ2gUZ7/run/rhsf_test': No such file
/usr/bin/addr2line: '/lustre/atlas1/cmb103/scratch/mebauer/run/heptrk64nodes/tmpJ2gUZ7/run/rhsf_test': No such file
/usr/bin/addr2line: '/lustre/atlas1/cmb103/scratch/mebauer/run/heptrk64nodes/tmpJ2gUZ7/run/rhsf_test': No such file
/usr/bin/addr2line: '/lustre/atlas1/cmb103/scratch/mebauer/run/heptrk64nodes/tmpJ2gUZ7/run/rhsf_test': No such file
/usr/bin/addr2line: '/lustre/atlas1/cmb103/scratch/mebauer/run/heptrk64nodes/tmpJ2gUZ7/run/rhsf_test': No such file
/usr/bin/addr2line: '/lustre/atlas1/cmb103/scratch/mebauer/run/heptrk64nodes/tmpJ2gUZ7/run/rhsf_test': No such file
/usr/bin/addr2line: '/lustre/atlas1/cmb103/scratch/mebauer/run/heptrk64nodes/tmpJ2gUZ7/run/rhsf_test': No such file
/usr/bin/addr2line: '/lustre/atlas1/cmb103/scratch/mebauer/run/heptrk64nodes/tmpJ2gUZ7/run/rhsf_test': No such file
/usr/bin/addr2line: '/lustre/atlas1/cmb103/scratch/mebauer/run/heptrk64nodes/tmpJ2gUZ7/run/rhsf_test': No such file
/usr/bin/addr2line: '/lustre/atlas1/cmb103/scratch/mebauer/run/heptrk64nodes/tmpJ2gUZ7/run/rhsf_test': No such file
/usr/bin/addr2line: '/lustre/atlas1/cmb103/scratch/mebauer/run/heptrk64nodes/tmpJ2gUZ7/run/rhsf_test': No such file
/usr/bin/addr2line: '/lustre/atlas1/cmb103/scratch/mebauer/run/heptrk64nodes/tmpJ2gUZ7/run/rhsf_test': No such file
/usr/bin/addr2line: '/lustre/atlas1/cmb103/scratch/mebauer/run/heptrk64nodes/tmpJ2gUZ7/run/rhsf_test': No such file
/usr/bin/addr2line: '/lustre/atlas1/cmb103/scratch/mebauer/run/heptrk64nodes/tmpJ2gUZ7/run/rhsf_test': No such file
/usr/bin/addr2line: '/lustre/atlas1/cmb103/scratch/mebauer/run/heptrk64nodes/tmpJ2gUZ7/run/rhsf_test': No such file
/usr/bin/addr2line: '/lustre/atlas1/cmb103/scratch/mebauer/run/heptrk64nodes/tmpJ2gUZ7/run/rhsf_test': No such file
/usr/bin/addr2line: '/lustre/atlas1/cmb103/scratch/mebauer/run/heptrk64nodes/tmpJ2gUZ7/run/rhsf_test': No such file
/usr/bin/addr2line: '/lustre/atlas1/cmb103/scratch/mebauer/run/heptrk64nodes/tmpJ2gUZ7/run/rhsf_test': No such file
/usr/bin/addr2line: '/lustre/atlas1/cmb103/scratch/mebauer/run/heptrk64nodes/tmpJ2gUZ7/run/rhsf_test': No such file
/usr/bin/addr2line: '/lustre/atlas1/cmb103/scratch/mebauer/run/heptrk64nodes/tmpJ2gUZ7/run/rhsf_test': No such file
/usr/bin/addr2line: '/lustre/atlas1/cmb103/scratch/mebauer/run/heptrk64nodes/tmpJ2gUZ7/run/rhsf_test': No such file
/usr/bin/addr2line: '/lustre/atlas1/cmb103/scratch/mebauer/run/heptrk64nodes/tmpJ2gUZ7/run/rhsf_test': No such file
/usr/bin/addr2line: '/lustre/atlas1/cmb103/scratch/mebauer/run/heptrk64nodes/tmpJ2gUZ7/run/rhsf_test': No such file
/usr/bin/addr2line: '/lustre/atlas1/cmb103/scratch/mebauer/run/heptrk64nodes/tmpJ2gUZ7/run/rhsf_test': No such file
/usr/bin/addr2line: '/lustre/atlas1/cmb103/scratch/mebauer/run/heptrk64nodes/tmpJ2gUZ7/run/rhsf_test': No such file
/usr/bin/addr2line: '/lustre/atlas1/cmb103/scratch/mebauer/run/heptrk64nodes/tmpJ2gUZ7/run/rhsf_test': No such file
/usr/bin/addr2line: '/lustre/atlas1/cmb103/scratch/mebauer/run/heptrk64nodes/tmpJ2gUZ7/run/rhsf_test': No such file
/usr/bin/addr2line: '/lustre/atlas1/cmb103/scratch/mebauer/run/heptrk64nodes/tmpJ2gUZ7/run/rhsf_test': No such file
/usr/bin/addr2line: '/lustre/atlas1/cmb103/scratch/mebauer/run/heptrk64nodes/tmpJ2gUZ7/run/rhsf_test': No such file
/usr/bin/addr2line: '/lustre/atlas1/cmb103/scratch/mebauer/run/heptrk64nodes/tmpJ2gUZ7/run/rhsf_test': No such file
/usr/bin/addr2line: '/lustre/atlas1/cmb103/scratch/mebauer/run/heptrk64nodes/tmpJ2gUZ7/run/rhsf_test': No such file
/usr/bin/addr2line: '/lustre/atlas1/cmb103/scratch/mebauer/run/heptrk64nodes/tmpJ2gUZ7/run/rhsf_test': No such file
/usr/bin/addr2line: '/lustre/atlas1/cmb103/scratch/mebauer/run/heptrk64nodes/tmpJ2gUZ7/run/rhsf_test': No such file
/usr/bin/addr2line: '/lustre/atlas1/cmb103/scratch/mebauer/run/heptrk64nodes/tmpJ2gUZ7/run/rhsf_test': No such file
/usr/bin/addr2line: '/lustre/atlas1/cmb103/scratch/mebauer/run/heptrk64nodes/tmpJ2gUZ7/run/rhsf_test': No such file
/usr/bin/addr2line: '/lustre/atlas1/cmb103/scratch/mebauer/run/heptrk64nodes/tmpJ2gUZ7/run/rhsf_test': No such file
/usr/bin/addr2line: '/lustre/atlas1/cmb103/scratch/mebauer/run/heptrk64nodes/tmpJ2gUZ7/run/rhsf_test': No such file
/usr/bin/addr2line: '/lustre/atlas1/cmb103/scratch/mebauer/run/heptrk64nodes/tmpJ2gUZ7/run/rhsf_test': No such file
/usr/bin/addr2line: '/lustre/atlas1/cmb103/scratch/mebauer/run/heptrk64nodes/tmpJ2gUZ7/run/rhsf_test': No such file
/usr/bin/addr2line: '/lustre/atlas1/cmb103/scratch/mebauer/run/heptrk64nodes/tmpJ2gUZ7/run/rhsf_test': No such file
/usr/bin/addr2line: '/lustre/atlas1/cmb103/scratch/mebauer/run/heptrk64nodes/tmpJ2gUZ7/run/rhsf_test': No such file
/usr/bin/addr2line: '/lustre/atlas1/cmb103/scratch/mebauer/run/heptrk64nodes/tmpJ2gUZ7/run/rhsf_test': No such file
/usr/bin/addr2line: '/lustre/atlas1/cmb103/scratch/mebauer/run/heptrk64nodes/tmpJ2gUZ7/run/rhsf_test': No such file
/usr/bin/addr2line: '/lustre/atlas1/cmb103/scratch/mebauer/run/heptrk64nodes/tmpJ2gUZ7/run/rhsf_test': No such file
/usr/bin/addr2line: '/lustre/atlas1/cmb103/scratch/mebauer/run/heptrk64nodes/tmpJ2gUZ7/run/rhsf_test': No such file
/usr/bin/addr2line: '/lustre/atlas1/cmb103/scratch/mebauer/run/heptrk64nodes/tmpJ2gUZ7/run/rhsf_test': No such file
/usr/bin/addr2line: '/lustre/atlas1/cmb103/scratch/mebauer/run/heptrk64nodes/tmpJ2gUZ7/run/rhsf_test': No such file
/usr/bin/addr2line: '/lustre/atlas1/cmb103/scratch/mebauer/run/heptrk64nodes/tmpJ2gUZ7/run/rhsf_test': No such file
/usr/bin/addr2line: '/lustre/atlas1/cmb103/scratch/mebauer/run/heptrk64nodes/tmpJ2gUZ7/run/rhsf_test': No such file
/usr/bin/addr2line: '/lustre/atlas1/cmb103/scratch/mebauer/run/heptrk64nodes/tmpJ2gUZ7/run/rhsf_test': No such file
/usr/bin/addr2line: '/lustre/atlas1/cmb103/scratch/mebauer/run/heptrk64nodes/tmpJ2gUZ7/run/rhsf_test': No such file
/usr/bin/addr2line: '/lustre/atlas1/cmb103/scratch/mebauer/run/heptrk64nodes/tmpJ2gUZ7/run/rhsf_test': No such file
/usr/bin/addr2line: '/lustre/atlas1/cmb103/scratch/mebauer/run/heptrk64nodes/tmpJ2gUZ7/run/rhsf_test': No such file
/usr/bin/addr2line: '/lustre/atlas1/cmb103/scratch/mebauer/run/heptrk64nodes/tmpJ2gUZ7/run/rhsf_test': No such file
/usr/bin/addr2line: '/lustre/atlas1/cmb103/scratch/mebauer/run/heptrk64nodes/tmpJ2gUZ7/run/rhsf_test': No such file
/usr/bin/addr2line: '/lustre/atlas1/cmb103/scratch/mebauer/run/heptrk64nodes/tmpJ2gUZ7/run/rhsf_test': No such file
/usr/bin/addr2line: '/lustre/atlas1/cmb103/scratch/mebauer/run/heptrk64nodes/tmpJ2gUZ7/run/rhsf_test': No such file
/usr/bin/addr2line: '/lustre/atlas1/cmb103/scratch/mebauer/run/heptrk64nodes/tmpJ2gUZ7/run/rhsf_test': No such file
/usr/bin/addr2line: '/lustre/atlas1/cmb103/scratch/mebauer/run/heptrk64nodes/tmpJ2gUZ7/run/rhsf_test': No such file
/usr/bin/addr2line: '/lustre/atlas1/cmb103/scratch/mebauer/run/heptrk64nodes/tmpJ2gUZ7/run/rhsf_test': No such file
/usr/bin/addr2line: '/lustre/atlas1/cmb103/scratch/mebauer/run/heptrk64nodes/tmpJ2gUZ7/run/rhsf_test': No such file
/usr/bin/addr2line: '/lustre/atlas1/cmb103/scratch/mebauer/run/heptrk64nodes/tmpJ2gUZ7/run/rhsf_test': No such file
/usr/bin/addr2line: '/lustre/atlas1/cmb103/scratch/mebauer/run/heptrk64nodes/tmpJ2gUZ7/run/rhsf_test': No such file
/usr/bin/addr2line: '/lustre/atlas1/cmb103/scratch/mebauer/run/heptrk64nodes/tmpJ2gUZ7/run/rhsf_test': No such file
/usr/bin/addr2line: '/lustre/atlas1/cmb103/scratch/mebauer/run/heptrk64nodes/tmpJ2gUZ7/run/rhsf_test': No such file
/usr/bin/addr2line: '/lustre/atlas1/cmb103/scratch/mebauer/run/heptrk64nodes/tmpJ2gUZ7/run/rhsf_test': No such file
/usr/bin/addr2line: '/lustre/atlas1/cmb103/scratch/mebauer/run/heptrk64nodes/tmpJ2gUZ7/run/rhsf_test': No such file
/usr/bin/addr2line: '/lustre/atlas1/cmb103/scratch/mebauer/run/heptrk64nodes/tmpJ2gUZ7/run/rhsf_test': No such file
/usr/bin/addr2line: '/lustre/atlas1/cmb103/scratch/mebauer/run/heptrk64nodes/tmpJ2gUZ7/run/rhsf_test': No such file
/usr/bin/addr2line: '/lustre/atlas1/cmb103/scratch/mebauer/run/heptrk64nodes/tmpJ2gUZ7/run/rhsf_test': No such file
/usr/bin/addr2line: '/lustre/atlas1/cmb103/scratch/mebauer/run/heptrk64nodes/tmpJ2gUZ7/run/rhsf_test': No such file
/usr/bin/addr2line: '/lustre/atlas1/cmb103/scratch/mebauer/run/heptrk64nodes/tmpJ2gUZ7/run/rhsf_test': No such file
/usr/bin/addr2line: '/lustre/atlas1/cmb103/scratch/mebauer/run/heptrk64nodes/tmpJ2gUZ7/run/rhsf_test': No such file
/usr/bin/addr2line: '/lustre/atlas1/cmb103/scratch/mebauer/run/heptrk64nodes/tmpJ2gUZ7/run/rhsf_test': No such file
/usr/bin/addr2line: '/lustre/atlas1/cmb103/scratch/mebauer/run/heptrk64nodes/tmpJ2gUZ7/run/rhsf_test': No such file
/usr/bin/addr2line: '/lustre/atlas1/cmb103/scratch/mebauer/run/heptrk64nodes/tmpJ2gUZ7/run/rhsf_test': No such file
/usr/bin/addr2line: '/lustre/atlas1/cmb103/scratch/mebauer/run/heptrk64nodes/tmpJ2gUZ7/run/rhsf_test': No such file
/usr/bin/addr2line: '/lustre/atlas1/cmb103/scratch/mebauer/run/heptrk64nodes/tmpJ2gUZ7/run/rhsf_test': No such file
/usr/bin/addr2line: '/lustre/atlas1/cmb103/scratch/mebauer/run/heptrk64nodes/tmpJ2gUZ7/run/rhsf_test': No such file
/usr/bin/addr2line: '/lustre/atlas1/cmb103/scratch/mebauer/run/heptrk64nodes/tmpJ2gUZ7/run/rhsf_test': No such file
/usr/bin/addr2line: '/lustre/atlas1/cmb103/scratch/mebauer/run/heptrk64nodes/tmpJ2gUZ7/run/rhsf_test': No such file
/usr/bin/addr2line: '/lustre/atlas1/cmb103/scratch/mebauer/run/heptrk64nodes/tmpJ2gUZ7/run/rhsf_test': No such file
/usr/bin/addr2line: '/lustre/atlas1/cmb103/scratch/mebauer/run/heptrk64nodes/tmpJ2gUZ7/run/rhsf_test': No such file
/usr/bin/addr2line: '/lustre/atlas1/cmb103/scratch/mebauer/run/heptrk64nodes/tmpJ2gUZ7/run/rhsf_test': No such file
/usr/bin/addr2line: '/lustre/atlas1/cmb103/scratch/mebauer/run/heptrk64nodes/tmpJ2gUZ7/run/rhsf_test': No such file
/usr/bin/addr2line: '/lustre/atlas1/cmb103/scratch/mebauer/run/heptrk64nodes/tmpJ2gUZ7/run/rhsf_test': No such file
/usr/bin/addr2line: '/lustre/atlas1/cmb103/scratch/mebauer/run/heptrk64nodes/tmpJ2gUZ7/run/rhsf_test': No such file
/usr/bin/addr2line: '/lustre/atlas1/cmb103/scratch/mebauer/run/heptrk64nodes/tmpJ2gUZ7/run/rhsf_test': No such file
/usr/bin/addr2line: '/lustre/atlas1/cmb103/scratch/mebauer/run/heptrk64nodes/tmpJ2gUZ7/run/rhsf_test': No such file
/usr/bin/addr2line: '/lustre/atlas1/cmb103/scratch/mebauer/run/heptrk64nodes/tmpJ2gUZ7/run/rhsf_test': No such file
/usr/bin/addr2line: '/lustre/atlas1/cmb103/scratch/mebauer/run/heptrk64nodes/tmpJ2gUZ7/run/rhsf_test': No such file
/usr/bin/addr2line: '/lustre/atlas1/cmb103/scratch/mebauer/run/heptrk64nodes/tmpJ2gUZ7/run/rhsf_test': No such file
/usr/bin/addr2line: '/lustre/atlas1/cmb103/scratch/mebauer/run/heptrk64nodes/tmpJ2gUZ7/run/rhsf_test': No such file
/usr/bin/addr2line: '/lustre/atlas1/cmb103/scratch/mebauer/run/heptrk64nodes/tmpJ2gUZ7/run/rhsf_test': No such file
/usr/bin/addr2line: '/lustre/atlas1/cmb103/scratch/mebauer/run/heptrk64nodes/tmpJ2gUZ7/run/rhsf_test': No such file
/usr/bin/addr2line: '/lustre/atlas1/cmb103/scratch/mebauer/run/heptrk64nodes/tmpJ2gUZ7/run/rhsf_test': No such file
/usr/bin/addr2line: '/lustre/atlas1/cmb103/scratch/mebauer/run/heptrk64nodes/tmpJ2gUZ7/run/rhsf_test': No such file
/usr/bin/addr2line: '/lustre/atlas1/cmb103/scratch/mebauer/run/heptrk64nodes/tmpJ2gUZ7/run/rhsf_test': No such file
/usr/bin/addr2line: '/lustre/atlas1/cmb103/scratch/mebauer/run/heptrk64nodes/tmpJ2gUZ7/run/rhsf_test': No such file
/usr/bin/addr2line: '/lustre/atlas1/cmb103/scratch/mebauer/run/heptrk64nodes/tmpJ2gUZ7/run/rhsf_test': No such file
/usr/bin/addr2line: '/lustre/atlas1/cmb103/scratch/mebauer/run/heptrk64nodes/tmpJ2gUZ7/run/rhsf_test': No such file
/usr/bin/addr2line: '/lustre/atlas1/cmb103/scratch/mebauer/run/heptrk64nodes/tmpJ2gUZ7/run/rhsf_test': No such file
/usr/bin/addr2line: '/lustre/atlas1/cmb103/scratch/mebauer/run/heptrk64nodes/tmpJ2gUZ7/run/rhsf_test': No such file
/usr/bin/addr2line: '/lustre/atlas1/cmb103/scratch/mebauer/run/heptrk64nodes/tmpJ2gUZ7/run/rhsf_test': No such file
/usr/bin/addr2line: '/lustre/atlas1/cmb103/scratch/mebauer/run/heptrk64nodes/tmpJ2gUZ7/run/rhsf_test': No such file
/usr/bin/addr2line: '/lustre/atlas1/cmb103/scratch/mebauer/run/heptrk64nodes/tmpJ2gUZ7/run/rhsf_test': No such file
/usr/bin/addr2line: '/lustre/atlas1/cmb103/scratch/mebauer/run/heptrk64nodes/tmpJ2gUZ7/run/rhsf_test': No such file
/usr/bin/addr2line: '/lustre/atlas1/cmb103/scratch/mebauer/run/heptrk64nodes/tmpJ2gUZ7/run/rhsf_test': No such file
/usr/bin/addr2line: '/lustre/atlas1/cmb103/scratch/mebauer/run/heptrk64nodes/tmpJ2gUZ7/run/rhsf_test': No such file
Application 4854297 resources: utime ~4267s, stime ~777s, Rss ~9180592, inblocks ~500582, outblocks ~542702
