digraph {
ranksep = 0.35;
nodesep = 0.10;
margin = 0;
node [ margin = "0.055,0.0275" ];

cells [ label = "cells", shape = ellipse ];
own [ label = "", shape = rectangle, style = filled, color = black, width = "1", height = "0.1" ];
ghost [ label = "", shape = rectangle, width = "1", height = "0.1" ];
own_i [ label = "own[i]", shape = ellipse ];
own_j [ label = "own[j]", shape = ellipse ];
ghost_j [ label = "ghost[j]", shape = ellipse ];

n0 [ label = "", shape = none ];
n1 [ label = "", shape = none ];

n0 -> own [ headlabel = "own", color = white, style = dotted, labelfontcolor = black, arrowhead = none ];
n1 -> ghost [ headlabel = "ghost", color = white, style = dotted, labelfontcolor = black, labelangle = -40, labeldistance = 1.8, arrowhead = none ];

cells -> own;
cells -> ghost;
own -> { own_i; own_j };
ghost -> ghost_j;
}