1.1             
6.27            
DOUBLE          
       F
        1161        2564         120
          12           0           3           5           3           2           8           9          10           4
           4         116           0           0           0           0           0           0           0           0
           0           0           0           0           0           0           0           0           0           0
           0
  1.0000000000000000E-03
C               H               N               O               
  1.2011150000000001E+01  1.0079700000000000E+00  1.4006700000000000E+01  1.5999400000000000E+01
H               H2              O               O2              OH              H2O             HO2             H2O2            
CO              CO2             CH2O            HCO             HOCHO           CH3OH           CH3O2H          CH3O2           
CH4             CH3             C2H6            C2H5            C2H4            C2H3            C2H2            CH3CHO          
CH2CHO          CH2CO           HCCO            CH3CO3          C2H5O2H         C2H5O2          CH3COCH3        CH3COCH2O2      
CH3COCH2O2H     C2H3CHO         C2H3CO          C2H5CHO         C3H6            C3H5-A          C3H4-P          C3H4-A          
C3H3            NC3H7O2         IC3H7O2         CH3CHCO         C4H8-1          SC4H9           C4H71-3         C4H6            
PC4H9O2         C2H5COCH2       NC3H7CHO        IC4H8           IC4H7           TC4H9O2         IC4H9O2         IC3H7CHO        
TC3H6CHO        IC4H8OOH-IO2    IC4KETII        IC4H6OH         IC3H5CHO        IC3H5CO         IC4H7OOH        TC3H6O2CHO      
C5H10-1         C5H91-3         C5H91-4         C6H13O2-1       NC4H9CHO        NC7H16          C7H14-1         C7H14-2         
C7H14-3         C7H132-4        C7H15O2-1       C7H15O2-2       C7H15O2-3       C7H15O2-4       C7H14OOH1-3O2   C7H14OOH2-3O2   
C7H14OOH2-4O2   C7H14OOH4-2O2   C7H14OOH4-3O2   C7H14O1-3       C7H14O2-4       C7H14O3-5       NC7KET13        C4H7OOH1-4      
CH3CHCHO        IC4H7-I1        XC7H14          YC7H14          XC7H13-Z        YC7H13-Y2       YC7H15O2        ACC6H10         
ACC6H9-A        ACC6H9-D        NEOC5H11        TC4H9CHO        IC8H18          IC8H16          JC8H16          BC8H17O2        
CC8H17O2        IC8ETERAB       IC8ETERBD       IC8KETDB        iso002          iso003          iso004          iso008          
iso010          iso011          iso014          N2              
  1.0079700000000000E+00  2.0159400000000001E+00  1.5999400000000000E+01  3.1998799999999999E+01  1.7007369999999998E+01
  1.8015339999999998E+01  3.3006769999999996E+01  3.4014739999999996E+01  2.8010550000000002E+01  4.4009950000000003E+01
  3.0026490000000003E+01  2.9018520000000002E+01  4.6025890000000004E+01  3.2042430000000003E+01  4.8041830000000004E+01
  4.7033860000000004E+01  1.6043030000000002E+01  1.5035060000000001E+01  3.0070120000000003E+01  2.9062150000000003E+01
  2.8054180000000002E+01  2.7046210000000002E+01  2.6038240000000002E+01  4.4053580000000004E+01  4.3045610000000003E+01
  4.2037640000000003E+01  4.1029670000000003E+01  7.5044409999999999E+01  6.2068920000000006E+01  6.1060950000000005E+01
  5.8080670000000005E+01  8.9071500000000000E+01  9.0079470000000001E+01  5.6064730000000004E+01  5.5056760000000004E+01
  5.8080670000000005E+01  4.2081270000000004E+01  4.1073300000000003E+01  4.0065330000000003E+01  4.0065330000000003E+01
  3.9057360000000003E+01  7.5088040000000007E+01  7.5088040000000007E+01  5.6064730000000004E+01  5.6108360000000005E+01
  5.7116330000000005E+01  5.5100390000000004E+01  5.4092420000000004E+01  8.9115130000000008E+01  7.1099789999999999E+01
  7.2107759999999999E+01  5.6108360000000005E+01  5.5100390000000004E+01  8.9115130000000008E+01  8.9115130000000008E+01
  7.2107759999999999E+01  7.1099789999999999E+01  1.2111393000000001E+02  1.0410656000000000E+02  7.1099789999999999E+01
  7.0091819999999998E+01  6.9083849999999998E+01  8.8107160000000007E+01  1.0309859000000000E+02  7.0135450000000006E+01
  6.9127480000000006E+01  6.9127480000000006E+01  1.1716931000000001E+02  8.6134850000000000E+01  1.0020557000000001E+02
  9.8189630000000008E+01  9.8189630000000008E+01  9.8189630000000008E+01  9.7181660000000008E+01  1.3119640000000001E+02
  1.3119640000000001E+02  1.3119640000000001E+02  1.3119640000000001E+02  1.6319520000000000E+02  1.6319520000000000E+02
  1.6319520000000000E+02  1.6319520000000000E+02  1.6319520000000000E+02  1.1418903000000000E+02  1.1418903000000000E+02
  1.1418903000000000E+02  1.4618783000000002E+02  8.8107160000000007E+01  5.7072700000000005E+01  5.5100390000000004E+01
  9.8189630000000008E+01  9.8189630000000008E+01  9.7181660000000008E+01  9.7181660000000008E+01  1.3119640000000001E+02
  8.2146600000000007E+01  8.1138630000000006E+01  8.1138630000000006E+01  7.1143420000000006E+01  8.6134850000000000E+01
  1.1423266000000001E+02  1.1221672000000001E+02  1.1221672000000001E+02  1.4522349000000000E+02  1.4522349000000000E+02
  1.2821612000000002E+02  1.2821612000000002E+02  1.6021492000000001E+02  1.7722229000000002E+02  1.7722229000000002E+02
  1.4522349000000000E+02  1.6021492000000001E+02  1.6319520000000000E+02  1.6319520000000000E+02  1.4618783000000002E+02
  2.8013400000000001E+01
           0           1           0           0           0           2           0           0           0           0
           0           1           0           0           0           2           0           1           0           1
           0           2           0           1           0           1           0           2           0           2
           0           2           1           0           0           1           1           0           0           2
           1           2           0           1           1           1           0           1           1           2
           0           2           1           4           0           1           1           4           0           2
           1           3           0           2           1           4           0           0           1           3
           0           0           2           6           0           0           2           5           0           0
           2           4           0           0           2           3           0           0           2           2
           0           0           2           4           0           1           2           3           0           1
           2           2           0           1           2           1           0           1           2           3
           0           3           2           6           0           2           2           5           0           2
           3           6           0           1           3           5           0           3           3           6
           0           3           3           4           0           1           3           3           0           1
           3           6           0           1           3           6           0           0           3           5
           0           0           3           4           0           0           3           4           0           0
           3           3           0           0           3           7           0           2           3           7
           0           2           3           4           0           1           4           8           0           0
           4           9           0           0           4           7           0           0           4           6
           0           0           4           9           0           2           4           7           0           1
           4           8           0           1           4           8           0           0           4           7
           0           0           4           9           0           2           4           9           0           2
           4           8           0           1           4           7           0           1           4           9
           0           4           4           8           0           3           4           7           0           1
           4           6           0           1           4           5           0           1           4           8
           0           2           4           7           0           3           5          10           0           0
           5           9           0           0           5           9           0           0           6          13
           0           2           5          10           0           1           7          16           0           0
           7          14           0           0           7          14           0           0           7          14
           0           0           7          13           0           0           7          15           0           2
           7          15           0           2           7          15           0           2           7          15
           0           2           7          15           0           4           7          15           0           4
           7          15           0           4           7          15           0           4           7          15
           0           4           7          14           0           1           7          14           0           1
           7          14           0           1           7          14           0           3           4           8
           0           2           3           5           0           1           4           7           0           0
           7          14           0           0           7          14           0           0           7          13
           0           0           7          13           0           0           7          15           0           2
           6          10           0           0           6           9           0           0           6           9
           0           0           5          11           0           0           5          10           0           1
           8          18           0           0           8          16           0           0           8          16
           0           0           8          17           0           2           8          17           0           2
           8          16           0           1           8          16           0           1           8          16
           0           3           8          17           0           4           8          17           0           4
           8          17           0           2           8          16           0           3           7          15
           0           4           7          15           0           4           7          14           0           3
           0           0           2           0
           0           0           0           0           0           0           0           0           0           0
           0           0           0           0           0           0           0           0           0           0
           0           0           0           0           0           0           0           0           0           0
           0           0           0           0           0           0           0           0           0           0
           0           0           0           0           0           0           0           0           0           0
           0           0           0           0           0           0           0           0           0           0
           0           0           0           0           0           0           0           0           0           0
           0           0           0           0           0           0           0           0           0           0
           0           0           0           0           0           0           0           0           0           0
           0           0           0           0           0           0           0           0           0           0
           0           0           0           0           0           0           0           0           0           0
           0           0           0           0           0           0
           3           3           3           3           3           3           3           3           3           3
           3           3           3           3           3           3           3           3           3           3
           3           3           3           3           3           3           3           3           3           3
           3           3           3           3           3           3           3           3           3           3
           3           3           3           3           3           3           3           3           3           3
           3           3           3           3           3           3           3           3           3           3
           3           3           3           3           3           3           3           3           3           3
           3           3           3           3           3           3           3           3           3           3
           3           3           3           3           3           3           3           3           3           3
           3           3           3           3           3           3           3           3           3           3
           3           3           3           3           3           3           3           3           3           3
           3           3           3           3           3           3
           0           0           0           0           0           0           0           0           0           0
           0           0           0           0           0           0           0           0           0           0
           0           0           0           0           0           0           0           0           0           0
           0           0           0           0           0           0           0           0           0           0
           0           0           0           0           0           0           0           0           0           0
           0           0           0           0           0           0           0           0           0           0
           0           0           0           0           0           0           0           0           0           0
           0           0           0           0           0           0           0           0           0           0
           0           0           0           0           0           0           0           0           0           0
           0           0           0           0           0           0           0           0           0           0
           0           0           0           0           0           0           0           0           0           0
           0           0           0           0           0           0
  3.0000000000000000E+02  1.0000000000000000E+03  5.0000000000000000E+03  3.0000000000000000E+02  1.0000000000000000E+03
  5.0000000000000000E+03  3.0000000000000000E+02  1.0000000000000000E+03  5.0000000000000000E+03  3.0000000000000000E+02
  1.0000000000000000E+03  5.0000000000000000E+03  3.0000000000000000E+02  1.7100000000000000E+03  5.0000000000000000E+03
  3.0000000000000000E+02  1.0000000000000000E+03  5.0000000000000000E+03  2.0000000000000000E+02  1.0000000000000000E+03
  3.5000000000000000E+03  3.0000000000000000E+02  1.0000000000000000E+03  5.0000000000000000E+03  3.0000000000000000E+02
  1.4290000000000000E+03  5.0000000000000000E+03  3.0000000000000000E+02  1.3800000000000000E+03  5.0000000000000000E+03
  3.0000000000000000E+02  1.4860000000000000E+03  5.0000000000000000E+03  3.0000000000000000E+02  1.6900000000000000E+03
  5.0000000000000000E+03  3.0000000000000000E+02  1.3760000000000000E+03  5.0000000000000000E+03  3.0000000000000000E+02
  1.9850000000000000E+03  5.0000000000000000E+03  3.0000000000000000E+02  1.3670000000000000E+03  5.0000000000000000E+03
  3.0000000000000000E+02  1.3650000000000000E+03  5.0000000000000000E+03  3.0000000000000000E+02  1.4620000000000000E+03
  5.0000000000000000E+03  3.0000000000000000E+02  1.3890000000000000E+03  5.0000000000000000E+03  3.0000000000000000E+02
  1.3830000000000000E+03  5.0000000000000000E+03  3.0000000000000000E+02  1.3870000000000000E+03  5.0000000000000000E+03
  3.0000000000000000E+02  1.3950000000000000E+03  5.0000000000000000E+03  3.0000000000000000E+02  1.3950000000000000E+03
  5.0000000000000000E+03  3.0000000000000000E+02  1.4070000000000000E+03  5.0000000000000000E+03  3.0000000000000000E+02
  1.3770000000000000E+03  5.0000000000000000E+03  3.0000000000000000E+02  1.3880000000000000E+03  5.0000000000000000E+03
  3.0000000000000000E+02  1.0000000000000000E+03  5.0000000000000000E+03  3.0000000000000000E+02  1.0000000000000000E+03
  4.0000000000000000E+03  3.0000000000000000E+02  1.3910000000000000E+03  5.0000000000000000E+03  3.0000000000000000E+02
  1.3910000000000000E+03  5.0000000000000000E+03  3.0000000000000000E+02  1.3870000000000000E+03  5.0000000000000000E+03
  3.0000000000000000E+02  1.3820000000000000E+03  5.0000000000000000E+03  3.0000000000000000E+02  1.3790000000000000E+03
  5.0000000000000000E+03  3.0000000000000000E+02  1.3810000000000000E+03  5.0000000000000000E+03  3.0000000000000000E+02
  1.3930000000000000E+03  5.0000000000000000E+03  3.0000000000000000E+02  1.4020000000000000E+03  5.0000000000000000E+03
  3.0000000000000000E+02  1.3750000000000000E+03  5.0000000000000000E+03  3.0000000000000000E+02  1.3880000000000000E+03
  5.0000000000000000E+03  3.0000000000000000E+02  1.3970000000000000E+03  5.0000000000000000E+03  3.0000000000000000E+02
  1.4000000000000000E+03  4.0000000000000000E+03  3.0000000000000000E+02  1.4000000000000000E+03  4.0000000000000000E+03
  3.0000000000000000E+02  1.0000000000000000E+03  4.0000000000000000E+03  3.0000000000000000E+02  1.3840000000000000E+03
  5.0000000000000000E+03  3.0000000000000000E+02  1.3880000000000000E+03  5.0000000000000000E+03  3.0000000000000000E+02
  1.4000000000000000E+03  5.0000000000000000E+03  3.0000000000000000E+02  1.3910000000000000E+03  5.0000000000000000E+03
  3.0000000000000000E+02  1.3810000000000000E+03  5.0000000000000000E+03  3.0000000000000000E+02  1.3920000000000000E+03
  5.0000000000000000E+03  3.0000000000000000E+02  1.3980000000000000E+03  5.0000000000000000E+03  3.0000000000000000E+02
  1.3850000000000000E+03  5.0000000000000000E+03  3.0000000000000000E+02  1.3830000000000000E+03  5.0000000000000000E+03
  3.0000000000000000E+02  1.3780000000000000E+03  5.0000000000000000E+03  3.0000000000000000E+02  1.3880000000000000E+03
  5.0000000000000000E+03  3.0000000000000000E+02  1.3930000000000000E+03  5.0000000000000000E+03  3.0000000000000000E+02
  1.3880000000000000E+03  5.0000000000000000E+03  3.0000000000000000E+02  1.3870000000000000E+03  5.0000000000000000E+03
  3.0000000000000000E+02  1.3910000000000000E+03  5.0000000000000000E+03  3.0000000000000000E+02  1.3890000000000000E+03
  5.0000000000000000E+03  3.0000000000000000E+02  1.3850000000000000E+03  5.0000000000000000E+03  3.0000000000000000E+02
  1.3870000000000000E+03  5.0000000000000000E+03  3.0000000000000000E+02  1.3900000000000000E+03  5.0000000000000000E+03
  3.0000000000000000E+02  1.3960000000000000E+03  5.0000000000000000E+03  3.0000000000000000E+02  1.3970000000000000E+03
  5.0000000000000000E+03  3.0000000000000000E+02  1.3920000000000000E+03  5.0000000000000000E+03  3.0000000000000000E+02
  1.3860000000000000E+03  5.0000000000000000E+03  3.0000000000000000E+02  1.3920000000000000E+03  5.0000000000000000E+03
  3.0000000000000000E+02  1.3920000000000000E+03  5.0000000000000000E+03  3.0000000000000000E+02  1.3790000000000000E+03
  5.0000000000000000E+03  3.0000000000000000E+02  1.3870000000000000E+03  5.0000000000000000E+03  3.0000000000000000E+02
  1.3810000000000000E+03  5.0000000000000000E+03  3.0000000000000000E+02  1.3910000000000000E+03  5.0000000000000000E+03
  3.0000000000000000E+02  1.3920000000000000E+03  5.0000000000000000E+03  3.0000000000000000E+02  1.3900000000000000E+03
  5.0000000000000000E+03  3.0000000000000000E+02  1.3920000000000000E+03  5.0000000000000000E+03  3.0000000000000000E+02
  1.3900000000000000E+03  5.0000000000000000E+03  3.0000000000000000E+02  1.3880000000000000E+03  5.0000000000000000E+03
  3.0000000000000000E+02  1.3900000000000000E+03  5.0000000000000000E+03  3.0000000000000000E+02  1.3900000000000000E+03
  5.0000000000000000E+03  3.0000000000000000E+02  1.3900000000000000E+03  5.0000000000000000E+03  3.0000000000000000E+02
  1.3880000000000000E+03  5.0000000000000000E+03  3.0000000000000000E+02  1.3900000000000000E+03  5.0000000000000000E+03
  3.0000000000000000E+02  1.3900000000000000E+03  5.0000000000000000E+03  3.0000000000000000E+02  1.3900000000000000E+03
  5.0000000000000000E+03  3.0000000000000000E+02  1.3900000000000000E+03  5.0000000000000000E+03  3.0000000000000000E+02
  1.3950000000000000E+03  5.0000000000000000E+03  3.0000000000000000E+02  1.3990000000000000E+03  5.0000000000000000E+03
  3.0000000000000000E+02  1.3990000000000000E+03  5.0000000000000000E+03  3.0000000000000000E+02  1.3880000000000000E+03
  5.0000000000000000E+03  3.0000000000000000E+02  1.3930000000000000E+03  5.0000000000000000E+03  3.0000000000000000E+02
  1.2530000000000000E+03  5.0000000000000000E+03  3.0000000000000000E+02  1.3890000000000000E+03  5.0000000000000000E+03
  3.0000000000000000E+02  1.3920000000000000E+03  5.0000000000000000E+03  3.0000000000000000E+02  1.3920000000000000E+03
  5.0000000000000000E+03  3.0000000000000000E+02  1.3920000000000000E+03  5.0000000000000000E+03  3.0000000000000000E+02
  1.3890000000000000E+03  5.0000000000000000E+03  3.0000000000000000E+02  1.3900000000000000E+03  5.0000000000000000E+03
  3.0000000000000000E+02  1.3950000000000000E+03  5.0000000000000000E+03  3.0000000000000000E+02  1.3980000000000000E+03
  5.0000000000000000E+03  3.0000000000000000E+02  1.3980000000000000E+03  5.0000000000000000E+03  3.0000000000000000E+02
  1.4490000000000000E+03  5.0000000000000000E+03  3.0000000000000000E+02  1.3960000000000000E+03  5.0000000000000000E+03
  3.0000000000000000E+02  1.3960000000000000E+03  5.0000000000000000E+03  3.0000000000000000E+02  1.3940000000000000E+03
  5.0000000000000000E+03  3.0000000000000000E+02  1.3970000000000000E+03  5.0000000000000000E+03  3.0000000000000000E+02
  1.3940000000000000E+03  5.0000000000000000E+03  3.0000000000000000E+02  1.3940000000000000E+03  5.0000000000000000E+03
  3.0000000000000000E+02  1.4030000000000000E+03  5.0000000000000000E+03  3.0000000000000000E+02  1.4030000000000000E+03
  5.0000000000000000E+03  3.0000000000000000E+02  1.3950000000000000E+03  5.0000000000000000E+03  3.0000000000000000E+02
  1.3930000000000000E+03  5.0000000000000000E+03  3.0000000000000000E+02  1.3930000000000000E+03  5.0000000000000000E+03
  3.0000000000000000E+02  1.3930000000000000E+03  5.0000000000000000E+03  3.0000000000000000E+02  1.3940000000000000E+03
  5.0000000000000000E+03  3.0000000000000000E+02  1.3900000000000000E+03  5.0000000000000000E+03  3.0000000000000000E+02
  1.3880000000000000E+03  5.0000000000000000E+03  3.0000000000000000E+02  1.3880000000000000E+03  5.0000000000000000E+03
  3.0000000000000000E+02  1.0000000000000000E+03  5.0000000000000000E+03
  2.5000000000000000E+00  0.0000000000000000E+00  0.0000000000000000E+00  0.0000000000000000E+00  0.0000000000000000E+00
  2.5471630000000001E+04 -4.6011760000000002E-01  2.5000000000000000E+00  0.0000000000000000E+00  0.0000000000000000E+00
  0.0000000000000000E+00  0.0000000000000000E+00  2.5471630000000001E+04 -4.6011760000000002E-01  3.2981240000000001E+00
  8.2494420000000005E-04 -8.1430150000000002E-07 -9.4754339999999994E-11  4.1348719999999999E-13 -1.0125210000000000E+03
 -3.2940939999999999E+00  2.9914230000000002E+00  7.0006440000000005E-04 -5.6338289999999998E-08 -9.2315779999999998E-12
  1.5827520000000000E-15 -8.3503399999999999E+02 -1.3551100000000000E+00  2.9464290000000002E+00 -1.6381659999999999E-03
  2.4210319999999998E-06 -1.6028429999999999E-09  3.8906960000000000E-13  2.9147639999999999E+04  2.9639950000000002E+00
  2.5420600000000002E+00 -2.7550620000000002E-05 -3.1028029999999998E-09  4.5510670000000002E-12 -4.3680520000000002E-16
  2.9230799999999999E+04  4.9203080000000003E+00  3.2129360000000000E+00  1.1274860000000000E-03 -5.7561500000000004E-07
  1.3138770000000001E-09 -8.7685540000000003E-13 -1.0052490000000000E+03  6.0347379999999999E+00  3.6975780000000000E+00
  6.1351970000000000E-04 -1.2588420000000000E-07  1.7752810000000000E-11 -1.1364350000000001E-15 -1.2339300000000001E+03
  3.1891660000000002E+00  3.4189622599999998E+00  3.1925580100000000E-04 -3.0829271700000003E-07  3.6440749400000000E-10
 -1.0019547900000000E-13  3.4526444799999999E+03  2.5443337200000000E+00  2.8537604000000001E+00  1.0299433399999999E-03
 -2.3266647700000001E-07  1.9375070400000000E-11 -3.1575984700000000E-16  3.6994971999999998E+03  5.7875682499999996E+00
  3.3868420000000001E+00  3.4749820000000002E-03 -6.3546960000000002E-06  6.9685809999999998E-09 -2.5065880000000002E-12
 -3.0208110000000001E+04  2.5902330000000000E+00  2.6721460000000001E+00  3.0562929999999999E-03 -8.7302600000000002E-07
  1.2009960000000001E-10 -6.3916179999999999E-15 -2.9899209999999999E+04  6.8628169999999997E+00  4.3017980099999997E+00
 -4.7491205099999996E-03  2.1158289099999999E-05 -2.4276389400000000E-08  9.2922512400000003E-12  2.9480804000000001E+02
  3.7166624499999998E+00  4.0172109000000003E+00  2.2398201299999999E-03 -6.3365814999999998E-07  1.1424637000000000E-10
 -1.0790853500000000E-14  1.1185671300000000E+02  3.7851021500000002E+00  3.3887540000000000E+00  6.5692260000000001E-03
 -1.4850129999999999E-07 -4.6258059999999997E-09  2.4715149999999999E-12 -1.7663150000000001E+04  6.7853630000000003E+00
  4.5731669999999998E+00  4.3361360000000000E-03 -1.4746890000000000E-06  2.3489039999999998E-10 -1.4316540000000001E-14
 -1.8006959999999999E+04  5.0113700000000005E-01  3.1903635200000000E+00  8.9441997200000005E-04 -3.2492756299999999E-08
 -1.0459996700000001E-10  2.4196569300000000E-14 -1.4286905400000000E+04  5.3327791400000004E+00  3.1121688999999999E+00
  1.1594828300000000E-03 -3.3848036199999999E-07  4.4140309800000000E-11 -2.1286222799999999E-15 -1.4271853900000000E+04
  5.7172517699999998E+00  2.5793048999999999E+00  8.2468498699999997E-03 -6.4271604700000000E-06  2.5463702400000000E-09
 -4.1203044299999999E-13 -4.8416283000000003E+04  8.8114104100000006E+00  5.1895301800000002E+00  2.0600647599999999E-03
 -7.3357532400000001E-07  1.1700437399999999E-10 -6.9172921499999996E-15 -4.9317895299999996E+04 -5.1828930299999998E+00
  3.0075419700000001E+00  3.0472949599999999E-03  5.2510924599999998E-06 -5.1201928099999998E-09  1.2713379499999999E-12
 -1.4118839700000000E+04  8.1012023299999996E+00  4.0206839399999996E+00  5.0990341699999999E-03 -1.7643048000000000E-06
  2.7602587899999998E-10 -1.6099804199999999E-14 -1.4928725800000000E+04  1.0652554700000001E+00  3.8104996500000001E+00
  8.1326982499999999E-04  3.1316470099999999E-06 -2.3947826799999998E-09  5.0689455400000005E-13  4.0385990099999999E+03
  4.9484316499999998E+00  3.4414816400000001E+00  3.5215771899999998E-03 -1.2413611800000001E-06  1.9732864400000000E-10
 -1.1653861600000000E-14  3.9740968400000002E+03  6.2459345600000002E+00  1.4354818499999999E+00  1.6336301599999999E-02
 -1.0625742100000000E-05  3.3213297700000002E-09 -4.0217610299999998E-13 -4.6461650399999999E+04  1.7288579800000001E+01
  6.6873301300000003E+00  5.1428936799999998E-03 -1.8223851300000000E-06  2.8971916300000002E-10 -1.7089219900000001E-14
 -4.8399540000000001E+04 -1.1310479800000000E+01  1.8217684400000000E+00  1.2332642000000000E-02 -2.7374217699999998E-06
 -1.0738731800000000E-09  4.2364483699999998E-13 -2.5222220700000002E+04  1.4810430000000000E+01  3.9286751299999998E+00
  9.8162607400000008E-03 -3.4061547599999999E-06  5.3551019699999997E-10 -3.1377602900000000E-14 -2.6145417500000000E+04
  2.6946448300000001E+00  2.8388002399999999E+00  1.8609624900000000E-02 -8.4816541199999992E-06  1.0038745100000000E-09
  1.7161242900000000E-13 -1.7403375300000000E+04  1.1609243299999999E+01  8.8040928899999997E+00  8.0942721800000006E-03
 -2.8584327400000002E-06  4.5336975400000001E-10 -2.6698070699999999E-14 -1.9851217400000001E+04 -2.1700059100000001E+01
  3.8049759000000001E+00  9.8078465999999996E-03 -3.9094062400000002E-07 -2.2307260199999999E-09  6.4331082000000004E-13
 -4.5562579599999998E+02  7.8178910000000004E+00  6.3471880100000000E+00  7.9208935799999994E-03 -2.7660191300000000E-06
  4.3536063099999999E-10 -2.5498476199999998E-14 -1.8343605500000001E+03 -7.4255254500000003E+00  3.7211302000000002E+00
 -2.5029328900000002E-03  1.9024653399999999E-05 -1.4687125300000000E-08  3.4379115200000001E-12 -1.0142409900000001E+04
  1.2277659599999999E+00  4.0961765300000001E+00  7.4433084500000000E-03 -2.6387190000000001E-06  4.1957760400000000E-10
 -2.4750804999999999E-14 -1.1383570400000001E+04 -4.6756138299999996E+00  3.4385816199999999E+00  4.0775266399999998E-03
  3.1983099399999998E-07 -9.4766939000000007E-10  2.2182816599999999E-13  1.6316401800000000E+04  2.5280740599999998E+00
  3.5128137599999998E+00  5.1141261299999996E-03 -1.6763205000000000E-06  2.5249517400000003E-10 -1.4330292300000002E-14
  1.6123802700000000E+04  1.6243611200000001E+00  4.7862320299999997E-02  2.4056912699999999E-02 -1.1515591200000001E-05
  2.4866623800000000E-09 -1.7834394400000000E-13 -1.1092301400000000E+04  2.0654407100000000E+01  6.0597263000000003E+00
  1.3038283700000000E-02 -4.4810394200000002E-06  6.9776209500000000E-10 -4.0560635300000002E-14 -1.3575122600000001E+04
 -1.2860800100000001E+01  1.3273021700000001E+00  1.7665675299999999E-02 -6.1492655799999998E-06 -3.0114346599999998E-10
  4.3861777499999998E-13  1.3428402800000000E+04  1.7178921599999999E+01  5.8878439000000000E+00  1.0307679300000001E-02
 -3.4684439599999999E-06  5.3249925699999995E-10 -3.0651265099999997E-14  1.1506549900000000E+04 -8.4965177099999991E+00
  2.3387968700000000E-01  1.9633464699999999E-02 -1.1683321399999999E-05  3.6424645300000000E-09 -4.7744271500000001E-13
  5.4648933800000004E+03  1.9708422800000001E+01  5.2217637200000002E+00  8.9613730300000007E-03 -3.0486888600000000E-06
  4.7146552400000000E-10 -2.7273959200000000E-14  3.6038967899999998E+03 -7.4778923400000004E+00  1.2532972400000000E+00
  1.5625837000000000E-02 -1.0780387900000000E-05  4.1805463399999998E-09 -7.0136036199999998E-13  3.5073477299999999E+04
  1.7134166100000002E+01  5.0733124800000002E+00  6.5831627800000004E-03 -2.2376292400000002E-06  3.4580337900000000E-10
 -1.9994048999999999E-14  3.3723474800000004E+04 -3.3979271199999999E+00  2.0674266700000001E+00  1.4656850600000000E-02
 -1.5294706299999999E-05  8.3096576099999995E-09 -1.7293217499999999E-12  2.5957858899999999E+04  8.6275867200000000E+00
  4.9826516400000003E+00  4.2599292999999996E-03 -1.3748352300000001E-06  2.0471796400000001E-10 -1.1519174000000000E-14
  2.5269711800000001E+04 -5.8132138500000003E+00  1.7706003500000000E+00  1.8447516099999998E-02 -7.2413816199999996E-06
  2.3436456100000000E-10  3.3554389100000001E-13 -2.1807884999999998E+04  1.6502343700000001E+01  6.9851886600000004E+00
  9.6789778699999992E-03 -3.3184195400000000E-06  5.1602590100000001E-10 -2.9972590300000001E-14 -2.3980727900000002E+04
 -1.2748485199999999E+01  1.4761695600000000E+00  2.0897418599999999E-02 -1.5012355200000001E-05  5.6296738199999997E-09
 -8.7662446999999997E-13 -4.8205050999999997E+02  1.6375646499999998E+01  7.5414579000000002E+00  6.8229712499999996E-03
 -2.3693860699999998E-06  3.7163351700000002E-10 -2.1716004800000001E-14 -2.6143723900000000E+03 -1.6260276600000001E+01
  2.9749710000000000E+00  1.2118710000000000E-02 -2.3450460000000000E-06 -6.4666849999999998E-09  3.9056489999999999E-12
 -7.6326369999999997E+03  8.6735530000000001E+00  6.0388169999999999E+00  5.8048400000000003E-03 -1.9209539999999999E-06
  2.7944849999999999E-10 -1.4588679999999999E-14 -8.5834020000000000E+03 -7.6575810000000004E+00  5.0479649999999996E+00
  4.4534780000000003E-03  2.2682830000000000E-07 -1.4820949999999999E-09  2.2507420000000000E-13  1.9658919999999998E+04
  4.8184389999999999E-01  6.7580730000000004E+00  2.0003999999999998E-03 -2.0276070000000000E-07 -1.0411320000000000E-10
  1.9651650000000000E-14  1.9015130000000001E+04 -9.0712620000000008E+00  3.6037343200000000E+00  2.7008034100000002E-02
 -2.0829343800000001E-05  8.5054110400000004E-09 -1.4384610999999999E-12 -2.3420517100000001E+04  1.1201491400000000E+01
  1.1252249800000000E+01  8.3365267199999992E-03 -2.8901453000000001E-06  4.5278173399999999E-10 -2.6435445599999998E-14
 -2.6023858400000001E+04 -2.9637045700000002E+01  1.5732901100000001E+00  3.5237999600000000E-02 -2.5320399300000001E-05
  9.5680247600000003E-09 -1.4816737500000000E-12 -2.1527836800000001E+04  1.9047203199999998E+01  1.1230573700000001E+01
  1.2048212000000001E-02 -3.9673020100000004E-06  6.0075463199999995E-10 -3.4265780300000001E-14 -2.4797753100000002E+04
 -3.2560723199999998E+01  2.5863033299999998E+00  2.6183636199999999E-02 -1.6830619300000001E-05  6.0874929500000002E-09
 -9.5730204000000006E-13 -4.5858899199999996E+03  1.5048628900000001E+01  8.7764132900000007E+00  1.1876716300000000E-02
 -3.8768305000000000E-06  5.8321075400000000E-10 -3.3100672399999998E-14 -6.7874870300000002E+03 -1.8311997200000000E+01
  1.2452740799999999E+00  2.9976025500000000E-02 -1.4002666099999999E-05  2.1645351199999998E-09  1.2763729499999999E-13
 -2.7834872700000000E+04  2.0368261499999999E+01  9.6267437900000008E+00  1.4551924500000001E-02 -4.9774945699999998E-06
  7.7279459100000000E-10 -4.4836716500000002E-14 -3.1186226299999998E+04 -2.6161344900000000E+01  5.9553546800000001E+00
  2.7025520500000001E-02 -1.3738503100000000E-05  3.5373585100000001E-09 -4.0392255700000000E-13 -2.0667946400000001E+04
  5.2143604899999998E+00  1.2769034200000000E+01  1.4255482800000000E-02 -4.9282146099999999E-06  7.7044892099999995E-10
 -4.4911053400000001E-14 -2.3479866900000001E+04 -3.2715579900000002E+01  4.9478976100000001E+00  3.6047443200000001E-02
 -2.2171993299999999E-05  6.9829687399999997E-09 -9.2126926000000003E-13 -3.8868717799999999E+04  8.4992613000000006E+00
  1.5237280999999999E+01  1.4411465100000000E-02 -5.0129000900000000E-06  7.8707122900000001E-10 -4.6022578399999999E-14
 -4.2756444400000000E+04 -4.7738378400000002E+01  2.9235516200000000E-01  3.5432141700000003E-02 -2.9493632399999999E-05
  1.2810012399999999E-08 -2.2614410800000002E-12 -1.1652158400000000E+04  2.2887827999999999E+01  1.0418495900000000E+01
  9.4896332100000008E-03 -3.2931052900000002E-06  5.1627920299999999E-10 -3.0158729099999999E-14 -1.4963028100000000E+04
 -3.0723506100000002E+01  1.3624201300000001E+00  3.1527397200000001E-02 -3.0021893500000000E-05  1.4816711200000000E-08
 -2.8797152999999999E-12  4.2577021500000001E+03  1.7262654600000001E+01  9.3746767599999998E+00  7.9129690000000006E-03
 -2.6719827999999999E-06  4.1111542999999998E-10 -2.3697898099999999E-14  1.9296951400000000E+03 -2.4089269600000002E+01
  5.9310752999999998E+00  8.8794385500000003E-03  2.0376432499999999E-05 -1.8014934799999999E-08  4.1408565499999998E-12
 -2.5137775099999999E+04 -5.8701997400000006E-01  8.8721622300000007E+00  2.0171076199999999E-02 -8.0648764699999992E-06
  1.3761778400000000E-09 -8.4892232500000004E-14 -2.8384852699999999E+04 -2.3506916300000000E+01  3.9461544399999998E-01
  2.8910766200000000E-02 -1.5488680800000001E-05  3.8881420899999998E-09 -3.3789035200000002E-13  1.1776013200000000E+03
  2.1900373600000002E+01  8.0159595800000005E+00  1.3702363400000001E-02 -4.6624973300000001E-06  7.2125440200000001E-10
 -4.1737012600000002E-14 -1.7674930300000001E+03 -2.0016066800000001E+01 -5.2913195800000001E-01  3.3455909999999998E-02
 -2.5340102700000002E-05  1.0286575400000000E-08 -1.7325834000000000E-12  1.9494142300000000E+04  2.4617231499999999E+01
  8.4588395799999994E+00  1.1269548300000000E-02 -3.8379286399999998E-06  5.9405911899999998E-10 -3.4391803000000003E-14
  1.6468328900000000E+04 -2.3270426600000000E+01  3.0297299999999998E+00  1.4989610000000000E-02 -1.3985000000000000E-06
 -3.9696190000000003E-09  1.3882170000000000E-12  2.1484080000000002E+04  8.0045940000000009E+00  9.7681020000000007E+00
  5.2191510000000000E-03 -3.7531399999999999E-07 -2.9921910000000000E-10  5.1078780000000000E-14  1.8602770000000000E+04
 -3.0206779999999998E+01  2.5398309999999999E+00  1.6334370000000001E-02 -1.7649499999999999E-06 -4.6473649999999999E-09
  1.7291310000000001E-12  2.2512430000000000E+04  9.9357019999999991E+00  9.7762560000000001E+00  5.3021379999999996E-03
 -3.7011179999999999E-07 -3.0263860000000002E-10  5.0895810000000000E-14  1.9549720000000001E+04 -3.0770610000000001E+01
  4.7542000000000000E+00  1.1080280000000000E-02  2.7933229999999998E-07 -5.4792120000000004E-09  1.9496289999999999E-12
  3.9888830000000002E+04  5.8545490000000000E-01  8.8310469999999999E+00  4.3571950000000003E-03 -4.1090670000000001E-07
 -2.3687229999999999E-10  4.3765199999999999E-14  3.8474199999999997E+04 -2.1779190000000000E+01  2.1073149199999999E+00
  3.9616498600000001E-02 -2.4949159900000001E-05  8.5945030000000006E-09 -1.3124033000000000E-12 -7.9374556700000003E+03
  1.8908274800000001E+01  1.2632705899999999E+01  1.6991072600000000E-02 -5.8886687299999999E-06  9.2219539599999998E-10
 -5.3823067499999998E-14 -1.1919465200000001E+04 -3.8534929699999999E+01  1.4994163899999999E+00  4.4308120499999999E-02
 -3.2241445599999999E-05  1.2968713600000000E-08 -2.2337056900000000E-12 -1.0258798000000001E+04  2.0233649000000000E+01
  1.3249349300000000E+01  1.6408219000000002E-02 -5.6743206199999999E-06  8.8733633999999999E-10 -5.1736153499999997E-14
 -1.4410985500000001E+04 -4.2906621299999998E+01  1.4838011900000001E+00  3.2220301299999997E-02 -2.7025003299999999E-05
  1.2049916400000000E-08 -2.1836593100000001E-12 -1.1527654000000000E+04  1.7155206799999998E+01  1.0021912300000000E+01
  9.5696630000000008E-03 -3.2622164399999998E-06  5.0523170600000001E-10 -2.9259325699999998E-14 -1.4248273800000001E+04
 -2.7782997300000002E+01 -8.3337713300000005E-01  4.5414112299999997E-02 -2.9760903000000000E-05  1.0351835399999999E-08
 -1.5197573300000001E-12 -1.4916181099999999E+03  2.9432790499999999E+01  1.1345657400000000E+01  1.8084342800000000E-02
 -6.1727651399999998E-06  9.5692581499999999E-10 -5.5458621200000000E-14 -5.8865945000000002E+03 -3.6462720599999997E+01
  8.4915998599999998E-01  3.8208532000000003E-02 -1.4962679700000000E-05  2.0449921100000001E-10  8.2425443700000000E-13
  6.3883295600000001E+03  2.4446660600000001E+01  1.1693430400000000E+01  1.9640228700000002E-02 -6.6530651700000004E-06
  1.0263189499999999E-09 -5.9282629400000001E-14  1.9638242900000000E+03 -3.6162667200000001E+01 -1.1247511200000000E+00
  4.3488285400000000E-02 -2.8775045400000001E-05  9.8804697100000005E-09 -1.4012034100000000E-12  1.5442016000000000E+04
  2.9765115600000001E+01  1.0947017000000001E+01  1.6372438699999999E-02 -5.5989620000000003E-06  8.6914769300000002E-10
 -5.0421438899999998E-14  1.1118174100000000E+04 -3.5490839999999999E+01 -1.4309512099999999E+00  4.7870606199999999E-02
 -4.1544680000000001E-05  1.9154955200000001E-08 -3.5715850699999999E-12  1.1755131400000000E+04  2.9082583300000000E+01
  1.1163378900000000E+01  1.3716396500000000E-02 -4.6971578300000002E-06  7.2969383599999996E-10 -4.2348620300000003E-14
  7.7903977000000004E+03 -3.6984794899999997E+01  1.9436365000000000E+00  5.1551316299999997E-02 -3.2828440000000002E-05
  1.1306486000000000E-08 -1.7011860600000000E-12 -1.0835810299999999E+04  2.1350314900000001E+01  1.5784544800000001E+01
  2.1521090999999999E-02 -7.4490901700000001E-06  1.1655807100000001E-09 -6.7988560900000000E-14 -1.6014605400000000E+04
 -5.4038852499999997E+01  1.5401385599999999E+00  4.3948625800000002E-02 -2.9700242100000001E-05  1.0549531300000000E-08
 -1.5859876900000000E-12 -9.5079650500000007E+03  1.9970664100000000E+01  1.4209873800000000E+01  1.5786645900000000E-02
 -5.5052918299999998E-06  8.6587053999999995E-10 -5.0691332900000000E-14 -1.4128495100000000E+04 -4.8713291099999999E+01
  1.8741595900000001E+00  4.1924031500000000E-02 -2.3514877899999999E-05  6.2691367299999998E-09 -6.0944390799999995E-13
 -2.7103219400000002E+04  1.9156857400000000E+01  1.3598806800000000E+01  1.8165247400000001E-02 -6.1784445800000004E-06
  9.5598020800000006E-10 -5.5344295799999997E-14 -3.1584534800000001E+04 -4.5179022799999998E+01  9.3843317299999995E-01
  3.9054728699999999E-02 -2.1643714799999999E-05  5.8726707699999997E-09 -6.1443547900000004E-13 -3.9545201299999999E+03
  1.9833780200000000E+01  1.1225833000000000E+01  1.8179579800000002E-02 -6.2034859199999997E-06  9.6144445800000007E-10
 -5.5708805700000000E-14 -7.9061789900000003E+03 -3.6641188800000002E+01 -7.2088169699999996E-04  4.3649572999999997E-02
 -3.1638587699999998E-05  1.2398498300000000E-08 -2.0437836000000001E-12  1.4365437300000000E+04  2.3323433999999999E+01
  1.1638275300000000E+01  1.5768129900000000E-02 -5.3853885799999998E-06  8.3517292700000001E-10 -4.8414108300000001E-14
  1.0340823000000000E+04 -3.9025989000000003E+01  1.0874258299999999E+00  5.8278070899999999E-02 -4.3329269700000002E-05
  1.7689253500000000E-08 -3.0676960600000002E-12 -1.4945664000000001E+04  2.0187196300000000E+01  1.6706155599999999E+01
  2.0732778000000000E-02 -7.1759616900000001E-06  1.1228247300000000E-09 -6.5494138600000000E-14 -2.0404692400000000E+04
 -6.3555860799999998E+01  1.2143429299999999E+00  5.4538831099999997E-02 -3.6700159300000001E-05  1.3413104199999999E-08
 -2.1174179299999999E-12 -1.1848245000000001E+04  2.3415304800000001E+01  1.5974122100000001E+01  2.1353474000000001E-02
 -7.3900110499999996E-06  1.1562441100000000E-09 -6.7440804600000001E-14 -1.7232930400000001E+04 -5.6530240900000003E+01
 -2.7302138199999998E-01  4.8969630700000003E-02 -3.1277004900000001E-05  1.0005294500000000E-08 -1.2751207400000001E-12
 -2.7605473699999999E+04  2.8345113900000001E+01  1.3750165600000001E+01  1.8312672200000001E-02 -6.2857262900000001E-06
  9.7825075599999990E-10 -5.6853865300000000E-14 -3.2693677100000001E+04 -4.7727054799999998E+01  1.8705276200000001E+00
  4.1486967700000002E-02 -2.6681570099999998E-05  9.0153160999999998E-09 -1.2787063300000001E-12 -8.9773074400000005E+03
  1.6617417799999998E+01  1.3101304700000000E+01  1.6639186500000000E-02 -5.6845762300000001E-06  8.8180835100000001E-10
 -5.1129016100000003E-14 -1.3063864700000000E+04 -4.4270581300000003E+01  2.3942442599999998E+00  6.7657254900000005E-02
 -5.1708368199999997E-05  2.1079604099999999E-08 -3.5996037300000001E-12 -2.2478749500000002E+04  2.2502983900000000E+01
  2.1896958099999999E+01  2.0963787399999999E-02 -7.3466490000000000E-06  1.1592659400000000E-09 -6.8022541300000003E-14
 -2.9266488900000000E+04 -8.2054080700000000E+01  1.1550161400000001E+00  6.1062234500000000E-02 -4.4971132300000003E-05
  1.7051465400000001E-08 -2.6594860199999999E-12 -3.8274795599999998E+04  2.6961223499999999E+01  1.9514305900000000E+01
  1.8237739499999999E-02 -6.3890860600000002E-06  1.0080157099999999E-09 -5.9144035000000000E-14 -4.4688483600000000E+04
 -7.1716758400000003E+01  8.6337122700000002E-01  4.6871128200000001E-02 -3.4358033900000000E-05  1.3303105200000001E-08
 -2.1391497500000001E-12 -3.1494830499999998E+03  2.2907552299999999E+01  1.4031092599999999E+01  1.5531754100000000E-02
 -5.3275496100000004E-06  8.2878590200000001E-10 -4.8154525699999998E-14 -7.6937822800000004E+03 -4.7655530599999999E+01
  6.2718379300000004E-01  4.6678025400000003E-02 -3.7443063099999998E-05  1.5833054200000001E-08 -2.7395215500000001E-12
 -1.5720311700000000E+04  2.1603429400000000E+01  1.3620395800000001E+01  1.3791719200000000E-02 -4.7337011799999997E-06
  7.3665522599999999E-10 -4.2009797400000001E-14 -2.0002527399999999E+04 -4.7318453099999999E+01  1.8509706900000000E+00
  4.1885584599999998E-02 -3.6255373100000003E-05  1.6569065900000000E-08 -3.0585084600000001E-12  1.7038144100000000E+02
  1.5301443300000001E+01  1.3066743700000000E+01  1.1670424400000001E-02 -3.9910652300000001E-06  6.1949814800000002E-10
 -3.5934824899999997E-14 -3.3651934400000000E+03 -4.3580309000000000E+01  2.9911740199999999E+00  5.0334927799999998E-02
 -3.5628006100000000E-05  1.3395215399999999E-08 -2.1105340900000002E-12 -1.5109504600000000E+04  1.5453741300000001E+01
  1.6923456399999999E+01  1.7839676900000000E-02 -6.1427327900000002E-06  9.5789502800000007E-10 -5.5743830400000002E-14
 -2.0004068599999999E+04 -5.9474606999999999E+01  2.1788338299999999E+00  5.4159583200000000E-02 -3.8343588600000000E-05
  1.3830810400000001E-08 -2.0419014699999998E-12 -2.2739415400000002E+04  2.0075126399999998E+01  1.8553444299999999E+01
  1.6877438900000000E-02 -5.9075296500000004E-06  9.3151808499999995E-10 -5.4634518700000000E-14 -2.8544719099999998E+04
 -6.8248666700000001E+01 -1.0622348100000001E+00  5.7421829399999999E-02 -3.7448689000000003E-05  1.2736498899999999E-08
 -1.7960978899999999E-12 -4.4654666600000000E+03  3.2273978999999997E+01  1.4585153900000000E+01  2.2407247100000000E-02
 -7.6334802500000000E-06  1.1818896600000001E-09 -6.8438513900000002E-14 -1.0089820500000000E+04 -5.2368393599999997E+01
 -1.3801395000000001E+00  5.5760848699999997E-02 -3.7014392800000000E-05  1.2688390099999999E-08 -1.7853883500000000E-12
  1.2558982400000001E+04  3.2644130400000002E+01  1.4186045399999999E+01  2.0712889900000000E-02 -7.0696061700000002E-06
  1.0960713300000001E-09 -6.3532220799999999E-14  7.0049613499999996E+03 -5.1450177300000000E+01  2.0730222400000001E-01
  4.7532257199999997E-02 -2.5523229999999999E-05  5.7057080799999999E-09 -2.5392660200000000E-13  1.8830009999999998E+04
  2.9752789000000000E+01  1.3990431400000000E+01  1.9996256200000000E-02 -6.7310593699999996E-06  1.0344759800000000E-09
 -5.9614898300000003E-14  1.3607512300000000E+04 -4.5875304600000000E+01  1.2428315400000001E+00  7.7134932399999995E-02
 -5.1154939000000000E-05  1.8324203200000001E-08 -2.8305864499999999E-12 -1.6577653100000000E+04  2.7951880100000000E+01
  2.2122482000000002E+01  3.0560970999999999E-02 -1.0565015400000000E-05  1.6518000600000001E-09 -9.6296334600000001E-14
 -2.4221972200000000E+04 -8.5256017499999999E+01  1.5966347200000000E+00  5.4354141600000003E-02 -3.2102065100000001E-05
  9.3577355900000004E-09 -1.0668893200000001E-12 -2.9984102500000001E+04  2.2128149799999999E+01  1.6796516300000000E+01
  2.2568451900000001E-02 -7.6763158800000005E-06  1.1876936900000000E-09 -6.8754555400000004E-14 -3.5682608000000000E+04
 -6.0906331199999997E+01 -1.2683618699999999E+00  8.5435581999999996E-02 -5.2534678600000000E-05  1.6294572099999999E-08
 -2.0239492500000000E-12 -2.5658656500000001E+04  3.5373291199999997E+01  2.2214896899999999E+01  3.4767575000000002E-02
 -1.1840712900000001E-05  1.8329847800000000E-09 -1.0613026600000000E-13 -3.4276008099999999E+04 -9.2304019600000004E+01
 -1.6772054900000000E+00  8.2461160100000000E-02 -5.4650410800000001E-05  1.8786230299999999E-08 -2.6573798299999999E-12
 -1.0216860100000000E+04  3.8506803200000000E+01  2.1089803900000000E+01  3.1060787800000000E-02 -1.0564479299999999E-05
  1.6340578000000000E-09 -9.4559821900000000E-14 -1.8326006500000000E+04 -8.4439110799999995E+01 -1.1653327899999999E+00
  7.9043980599999994E-02 -4.9610166599999998E-05  1.5856900900000001E-08 -2.0534643299999999E-12 -1.1736235900000000E+04
  3.5987107000000002E+01  2.0619204700000001E+01  3.1485299100000003E-02 -1.0716205700000001E-05  1.6582766200000000E-09
 -9.5991178500000002E-14 -1.9671316200000001E+04 -8.2251938699999997E+01 -2.0302699400000002E+00  8.2632437700000005E-02
 -5.4551447100000001E-05  1.8770582199999999E-08 -2.6757122000000002E-12 -1.1514102900000000E+04  4.0231626599999998E+01
  2.0682275000000001E+01  3.1538862899999999E-02 -1.0757121500000000E-05  1.6669025999999999E-09 -9.6581039300000003E-14
 -1.9645060399999998E+04 -8.2523500200000001E+01 -1.5055552600000000E+00  7.7475894000000003E-02 -4.9298253600000003E-05
  1.5876188899999998E-08 -2.0562482200000002E-12  5.1608421799999996E+03  3.6461590500000000E+01  2.0228372300000000E+01
  2.9781839300000001E-02 -1.0148820100000000E-05  1.5718781300000001E-09 -9.1050011299999996E-14 -2.7111985900000000E+03
 -8.1382417500000003E+01  1.2088855199999999E+00  8.8406170600000000E-02 -5.7986126000000001E-05  2.0357468900000000E-08
 -3.0646033600000001E-12 -1.9291876499999998E+04  2.9811709700000002E+01  2.5265655599999999E+01  3.5080358700000001E-02
 -1.2117880100000000E-05  1.8936080600000001E-09 -1.1035412500000000E-13 -2.8111339199999999E+04 -1.0070479400000001E+02
  3.5525291700000000E-01  9.4238100699999994E-02 -6.6695510599999996E-05  2.5479558300000000E-08 -4.1321110500000001E-12
 -2.1579525399999999E+04  3.2943343499999997E+01  2.6053564000000001E+01  3.4383168800000002E-02 -1.1871324700000000E-05
  1.8545024099999999E-09 -1.0805239899999999E-13 -3.0684209500000001E+04 -1.0540756300000000E+02  3.5525291700000000E-01
  9.4238100699999994E-02 -6.6695510599999996E-05  2.5479558300000000E-08 -4.1321110500000001E-12 -2.1579525399999999E+04
  3.2943343499999997E+01  2.6053564000000001E+01  3.4383168800000002E-02 -1.1871324700000000E-05  1.8545024099999999E-09
 -1.0805239899999999E-13 -3.0684209500000001E+04 -1.0540756300000000E+02  3.5525291700000000E-01  9.4238100699999994E-02
 -6.6695510599999996E-05  2.5479558300000000E-08 -4.1321110500000001E-12 -2.1579525399999999E+04  3.2253861899999997E+01
  2.6053564000000001E+01  3.4383168800000002E-02 -1.1871324700000000E-05  1.8545024099999999E-09 -1.0805239899999999E-13
 -3.0684209500000001E+04 -1.0609704499999999E+02  1.8971800400000001E+00  1.0622979600000000E-01 -8.0277021800000001E-05
  3.2364909299999998E-08 -5.4585047200000003E-12 -3.2279022900000000E+04  3.0247461200000000E+01  3.2014434899999998E+01
  3.4005599599999999E-02 -1.1841585600000001E-05  1.8606034699999999E-09 -1.0885101200000001E-13 -4.2717185899999997E+04
 -1.3111824300000001E+02  1.4091247899999999E+00  1.1072083400000000E-01 -8.7117807499999998E-05  3.6366274899999999E-08
 -6.2835068900000003E-12 -3.4630478799999997E+04  3.1622338299999999E+01  3.2835829599999997E+01  3.3276728499999998E-02
 -1.1583328499999999E-05  1.8195863799999999E-09 -1.0643441900000000E-13 -4.5287300300000003E+04 -1.3597570999999999E+02
  1.4091247899999999E+00  1.1072083400000000E-01 -8.7117807499999998E-05  3.6366274899999999E-08 -6.2835068900000003E-12
 -3.4630478799999997E+04  3.1622338299999999E+01  3.2835829599999997E+01  3.3276728499999998E-02 -1.1583328499999999E-05
  1.8195863799999999E-09 -1.0643441900000000E-13 -4.5287300300000003E+04 -1.3597570999999999E+02  1.4091247899999999E+00
  1.1072083400000000E-01 -8.7117807499999998E-05  3.6366274899999999E-08 -6.2835068900000003E-12 -3.4630478799999997E+04
  3.1622338299999999E+01  3.2835829599999997E+01  3.3276728499999998E-02 -1.1583328499999999E-05  1.8195863799999999E-09
 -1.0643441900000000E-13 -4.5287300300000003E+04 -1.3597570999999999E+02  1.4091247899999999E+00  1.1072083400000000E-01
 -8.7117807499999998E-05  3.6366274899999999E-08 -6.2835068900000003E-12 -3.4630478799999997E+04  3.1622338299999999E+01
  3.2835829599999997E+01  3.3276728499999998E-02 -1.1583328499999999E-05  1.8195863799999999E-09 -1.0643441900000000E-13
 -4.5287300300000003E+04 -1.3597570999999999E+02 -5.5003644999999999E+00  1.0015508800000000E-01 -7.2993585699999999E-05
  2.7934427000000001E-08 -4.4224569599999997E-12 -2.4429228700000000E+04  5.6476848199999999E+01  2.2691891600000002E+01
  3.3251047200000002E-02 -1.1445776500000000E-05  1.7845553500000001E-09 -1.0384111200000000E-13 -3.4159141900000002E+04
 -9.4634656300000003E+01 -5.3947720600000002E+00  1.0184657699999999E-01 -7.6004623600000007E-05  2.9653801999999998E-08
 -4.7485437000000000E-12 -2.6711829500000000E+04  5.5173131900000001E+01  2.3269273099999999E+01  3.2558539099999999E-02
 -1.1162490599999999E-05  1.7357365799999999E-09 -1.0081321500000000E-13 -3.6434966399999998E+04 -9.7945727800000000E+01
 -5.3947720600000002E+00  1.0184657699999999E-01 -7.6004623600000007E-05  2.9653801999999998E-08 -4.7485437000000000E-12
 -2.6711829500000000E+04  5.5173131900000001E+01  2.3269273099999999E+01  3.2558539099999999E-02 -1.1162490599999999E-05
  1.7357365799999999E-09 -1.0081321500000000E-13 -3.6434966399999998E+04 -9.7945727800000000E+01  2.2162932799999999E+00
  9.4737376200000001E-02 -6.9047365100000002E-05  2.6782040000000001E-08 -4.3639218100000002E-12 -4.8796550999999999E+04
  2.6315713299999999E+01  2.9074450700000000E+01  3.1717745800000002E-02 -1.1026264599999999E-05  1.7305360800000000E-09
 -1.0116169900000000E-13 -5.8234547700000003E+04 -1.1806432400000000E+02  1.7980467000000000E+00  5.2330255100000000E-02
 -3.6463824599999997E-05  1.3197188800000000E-08 -1.9716599299999999E-12 -1.3284674800000001E+04  2.2586203800000000E+01
  1.6697834300000000E+01  1.8057839900000001E-02 -6.2247683900000000E-06  9.7147943399999996E-10 -5.6568655099999998E-14
 -1.8534472000000002E+04 -5.7660954699999998E+01 -2.7281121200000000E+00  3.8035448299999997E-02 -1.9678213200000000E-05
  5.0955456999999997E-09 -7.2878909200000000E-13 -3.5112273900000000E+03  4.0449667699999999E+01  8.2777209000000003E+00
  1.9568718799999999E-02 -8.4757508900000006E-06  1.5324972799999999E-09 -9.8644154200000000E-14 -8.3445606200000002E+03
 -2.1765248300000000E+01  1.8763243400000000E+00  3.5448610700000001E-02 -2.1310494900000000E-05  6.7340049199999997E-09
 -9.0316633900000004E-13  2.5871291399999998E+04  1.6242916099999999E+01  1.1095760000000000E+01  1.5781004899999999E-02
 -5.3841961499999998E-06  8.3436012099999996E-10 -4.8340148100000001E-14  2.2417582699999999E+04 -3.4042682200000002E+01
 -1.3308149700000000E+00  8.2108235200000004E-02 -5.4912330300000003E-05  1.9428494799999999E-08 -2.8888654199999999E-12
 -1.3202138400000000E+04  3.4354974599999998E+01  2.1016403000000000E+01  3.1521459699999997E-02 -1.0807394700000001E-05
  1.6804019099999999E-09 -9.7589231300000000E-14 -2.1211705000000002E+04 -8.6381878499999999E+01 -8.4223264900000006E-01
  7.8979829700000004E-02 -5.0457447500000002E-05  1.6893404800000001E-08 -2.3720198699999999E-12 -1.4597153800000000E+04
  3.1909618900000002E+01  2.0507432300000001E+01  3.1964416699999998E-02 -1.0961877800000001E-05  1.7046373600000000E-09
 -9.9003612000000001E-14 -2.2394560900000000E+04 -8.3926656100000002E+01 -1.6463531499999999E+00  8.0450994900000003E-02
 -5.4489145299999998E-05  1.9390077000000002E-08 -2.8808238200000002E-12  3.8013882100000001E+03  3.4710940899999997E+01
  2.0619406900000001E+01  2.9827979000000001E-02 -1.0244368400000000E-05  1.5947692699999999E-09 -9.2695803800000003E-14
 -4.1377976500000004E+03 -8.5475910099999993E+01 -3.0678329199999999E-01  7.2069114500000003E-02 -4.2023391600000000E-05
  1.2005008800000000E-08 -1.3260521399999999E-12  1.2172736399999999E+03  2.8033943099999998E+01  1.9615346800000001E+01
  3.0707410500000001E-02 -1.0553046800000001E-05  1.6434595900000001E-09 -9.5549972799999999E-14 -6.2965091400000001E+03
 -8.0925491399999999E+01 -1.7619422700000001E-01  9.7256763400000001E-02 -7.1083578399999998E-05  2.8048696600000001E-08
 -4.6687790300000003E-12 -2.4646614600000001E+04  3.0881337100000000E+01  2.6377736800000001E+01  3.4099593400000003E-02
 -1.1771854800000000E-05  1.8388180000000000E-09 -1.0713320500000000E-13 -3.3913358399999997E+04 -1.1159457200000000E+02
 -7.6252395600000000E-01  6.7616405800000001E-02 -5.2169152299999999E-05  2.1798706900000000E-08 -3.7906151000000003E-12
  2.7297044700000001E+03  2.8497542200000002E+01  1.7117986299999998E+01  2.2889763699999999E-02 -7.8169043800000007E-06
  1.2121332500000000E-09 -7.0259874100000002E-14 -3.2688803699999999E+03 -6.6624029800000002E+01 -1.7084984000000001E+00
  7.2243267400000005E-02 -6.2215050600000006E-05  2.8359925899999998E-08 -5.2287034800000004E-12  2.1050657299999999E+04
  3.2018482400000003E+01  1.7534026099999998E+01  2.0476194400000002E-02 -6.9983600000000004E-06  1.0858275000000000E-09
 -6.2964807500000000E-14  1.4975513400000000E+04 -6.9031665899999993E+01 -1.7084984000000001E+00  7.2243267400000005E-02
 -6.2215050600000006E-05  2.8359925899999998E-08 -5.2287034800000004E-12  2.1050657299999999E+04  3.2018482400000003E+01
  1.7534026099999998E+01  2.0476194400000002E-02 -6.9983600000000004E-06  1.0858275000000000E-09 -6.2964807500000000E-14
  1.4975513400000000E+04 -6.9031665899999993E+01  3.3922276099999999E+00  3.5406908899999999E-02  1.2002008000000000E-05
 -2.3411263500000000E-08  6.7999593700000002E-12  1.8108832100000000E+03  9.5443251700000005E+00  2.0310165900000001E+01
  2.1464669700000001E-02 -7.7212576299999999E-06  1.2398268199999999E-09 -7.3640756400000005E-14 -6.4513860699999996E+03
 -9.0110857199999998E+01 -1.7558823299999999E+00  6.8874121600000004E-02 -4.9716107100000001E-05  1.8292164999999999E-08
 -2.7205693399999999E-12 -3.1474062900000001E+04  3.3133448000000001E+01  1.8405635900000000E+01  2.1528242300000000E-02
 -7.3865552999999998E-06  1.1494199899999999E-09 -6.6800374499999996E-14 -3.8409288699999997E+04 -7.4988691099999997E+01
 -4.2086889300000001E+00  1.1144058100000000E-01 -7.9134658200000001E-05  2.9240624200000000E-08 -4.4374319100000000E-12
 -2.9944687500000000E+04  4.4952170099999996E+01  2.7137359000000000E+01  3.7900489000000002E-02 -1.2943735800000000E-05
  2.0076037200000000E-09 -1.1640058000000001E-13 -4.0795817700000000E+04 -1.2327749500000000E+02 -2.7961044700000000E+00
  1.0083617200000000E-01 -7.1225065099999999E-05  2.6065982400000001E-08 -3.9003181399999997E-12 -1.6400249599999999E+04
  3.8885406799999998E+01  2.5675674600000001E+01  3.4180199799999998E-02 -1.1600295199999999E-05  1.7919547800000000E-09
 -1.0361300200000000E-13 -2.6245832399999999E+04 -1.1392827300000000E+02 -3.3186212199999998E+00  1.0431530500000000E-01
 -7.6476301299999996E-05  2.9216921899999999E-08 -4.5691386199999998E-12 -1.6544825000000001E+04  4.1454825300000003E+01
  2.6010152699999999E+01  3.3970324300000000E-02 -1.1542245100000001E-05  1.7842281399999999E-09 -1.0321220000000000E-13
 -2.6517453500000000E+04 -1.1535919500000000E+02 -3.0700235600000001E+00  1.2264043800000000E-01 -9.7220276399999996E-05
  4.0912762500000003E-08 -7.0910254699999999E-12 -2.6401430799999998E+04  4.4034569099999999E+01  3.0935161500000000E+01
  3.7410256400000001E-02 -1.2907097000000001E-05  2.0154485000000000E-09 -1.1739891100000001E-13 -3.7745775300000001E+04
 -1.3673079999999999E+02 -1.8014376599999999E+00  1.1803051100000000E-01 -9.1063096600000004E-05  3.7348036099999998E-08
 -6.3399930700000002E-12 -2.6889204900000001E+04  3.6271642499999999E+01  3.0972169500000000E+01  3.7336608200000003E-02
 -1.2872417900000000E-05  2.0090746400000000E-09 -1.1698907200000000E-13 -3.7964885499999997E+04 -1.3845644600000000E+02
 -7.8004904100000001E+00  1.2358087700000001E-01 -9.5862152900000005E-05  3.8354526200000000E-08 -6.2176142799999997E-12
 -2.8819764899999998E+04  6.3440005300000003E+01  2.7679801399999999E+01  3.5932300600000001E-02 -1.2307265700000000E-05
  1.9126920800000001E-09 -1.1105425400000000E-13 -4.0591213400000001E+04 -1.2529569499999999E+02 -7.8004904100000001E+00
  1.2358087700000001E-01 -9.5862152900000005E-05  3.8354526200000000E-08 -6.2176142799999997E-12 -2.8819764899999998E+04
  6.2342873900000001E+01  2.7679801399999999E+01  3.5932300600000001E-02 -1.2307265700000000E-05  1.9126920800000001E-09
 -1.1105425400000000E-13 -4.0591213400000001E+04 -1.2639282600000000E+02 -2.6461657199999999E+00  1.2635408100000001E-01
 -1.0015708100000000E-04  4.0784037399999998E-08 -6.7381878900000003E-12 -5.3642169800000003E+04  4.5459652800000001E+01
  3.4754221600000001E+01  3.4113571299999999E-02 -1.1856961300000000E-05  1.8609817400000000E-09 -1.0879943699999999E-13
 -6.6121388200000001E+04 -1.5363991899999999E+02 -1.4938151200000001E+00  1.3676153799999999E-01 -1.1434862100000000E-04
  4.9909853500000000E-08 -8.8537335199999998E-12 -3.9795436500000003E+04  3.8645314499999998E+01  3.7578580000000002E+01
  3.6451371500000003E-02 -1.2676321600000000E-05  1.9901040400000002E-09 -1.1636355600000001E-13 -5.2565332900000001E+04
 -1.6816942399999999E+02 -1.2931654900000000E+00  1.3276251500000000E-01 -1.0740362800000000E-04  4.5464488800000000E-08
 -7.8697688000000000E-12 -3.6710926700000004E+04  4.1523200199999998E+01  3.6837243600000001E+01  3.7074192399999997E-02
 -1.2889803200000000E-05  2.0232974999999999E-09 -1.1829145600000001E-13 -4.9384568800000001E+04 -1.6107239200000001E+02
 -1.7861407199999999E+00  1.1475490300000001E-01 -8.5060471899999995E-05  3.3404093500000001E-08 -5.4517322800000002E-12
 -2.3774205600000001E+04  4.0027551400000000E+01  3.0281595800000002E+01  3.7872907200000000E-02 -1.3046838300000001E-05
  2.0352421299999999E-09 -1.1847126700000000E-13 -3.4803246200000001E+04 -1.3164703600000001E+02 -2.3778675400000000E+00
  1.2499927399999999E-01 -9.8104833799999999E-05  3.9557328299999999E-08 -6.4809745300000000E-12 -5.3325484700000001E+04
  4.4666729699999998E+01  3.4713400000000000E+01  3.4194522499999998E-02 -1.1895271900000000E-05  1.8680549600000002E-09
 -1.0925587800000000E-13 -6.5774582100000000E+04 -1.5303586000000001E+02  1.4091247899999999E+00  1.1072083400000000E-01
 -8.7117807499999998E-05  3.6366274899999999E-08 -6.2835068900000003E-12 -3.4630478799999997E+04  3.1622338299999999E+01
  3.2835829599999997E+01  3.3276728499999998E-02 -1.1583328499999999E-05  1.8195863799999999E-09 -1.0643441900000000E-13
 -4.5287300300000003E+04 -1.3597570999999999E+02  1.8971800400000001E+00  1.0622979600000000E-01 -8.0277021800000001E-05
  3.2364909299999998E-08 -5.4585047200000003E-12 -3.2279022900000000E+04  3.0247461200000000E+01  3.2014434899999998E+01
  3.4005599599999999E-02 -1.1841585600000001E-05  1.8606034699999999E-09 -1.0885101200000001E-13 -4.2717185899999997E+04
 -1.3111824300000001E+02 -1.4557067100000001E+00  1.0877238400000000E-01 -8.5975742599999995E-05  3.5109531500000003E-08
 -5.8343649899999998E-12 -5.0260203000000001E+04  4.2818543099999999E+01  3.0598161399999999E+01  2.9725885500000000E-02
 -1.0197257800000000E-05  1.5873241100000000E-09 -9.2294241699999994E-14 -6.0963892000000000E+04 -1.2783787599999999E+02
  3.2986770000000001E+00  1.4082400000000001E-03 -3.9632219999999998E-06  5.6415150000000002E-09 -2.4448550000000001E-12
 -1.0209000000000000E+03  3.9503720000000002E+00  2.9266399999999999E+00  1.4879769999999999E-03 -5.6847609999999995E-07
  1.0097040000000000E-10 -6.7533509999999998E-15 -9.2279769999999996E+02  5.9805279999999996E+00
