digraph {
ranksep = 0.35;
margin = 0.05;
node [ label = "", shape = rectangle, width = 0.5, margin = "0.055,0.0275" ];

t0
t00 [ label = "ph[0]" ]
t01 [ label = ". . .", shape = none ]
t02 [ label = "ph[N-1]" ]
t03 [ label = "st[0]" ]
t04 [ label = ". . .", shape = none ]
t05 [ label = "st[N-1]" ]

t0 -> {t00; t02; t03; t05}
t0 -> {t01; t04} [ style = invisible, arrowhead = none ]
t00 -> {t000; t001}
t03 -> t030
t030 -> { t0300; t0301 }
t05 -> t050

}
